ccopy_reg
_reconstructor
p0
(cneurolab.core
Net
p1
c__builtin__
object
p2
Ntp3
Rp4
(dp5
S'layers'
p6
(lp7
g0
(cneurolab.layer
Perceptron
p8
g2
Ntp9
Rp10
(dp11
S'initf'
p12
cneurolab.init
initnw
p13
sS'ci'
p14
I43
sS'co'
p15
I28
sS'cn'
p16
I28
sS'inp_minmax'
p17
cnumpy.core.multiarray
_reconstruct
p18
(cnumpy
ndarray
p19
(I0
tp20
S'b'
p21
tp22
Rp23
(I1
(I43
I2
tp24
cnumpy
dtype
p25
(S'f8'
p26
I0
I1
tp27
Rp28
(I3
S'<'
p29
NNNI-1
I-1
I0
tp30
bI00
S'\x00\x00\x00\x00\x00\x00\x00\x00\x00\x00\x00\x00\x00\x00\xf0?\x00\x00\x00\x00\x00\x00\x00\x00\x00\x00\x00\x00\x00\x00\xf0?\x00\x00\x00\x00\x00\x00\x00\x00\x00\x00\x00\x00\x00\x00\xf0?\x00\x00\x00\x00\x00\x00\x00\x00\x00\x00\x00\x00\x00\x00\xf0?\x00\x00\x00\x00\x00\x00\x00\x00\x00\x00\x00\x00\x00\x00\xf0?\x00\x00\x00\x00\x00\x00\x00\x00\x00\x00\x00\x00\x00\x00\xf0?\x00\x00\x00\x00\x00\x00\x00\x00\x00\x00\x00\x00\x00\x00\xf0?\x00\x00\x00\x00\x00\x00\x00\x00\x00\x00\x00\x00\x00\x00\xf0?\x00\x00\x00\x00\x00\x00\x00\x00\x00\x00\x00\x00\x00\x00\xf0?\x00\x00\x00\x00\x00\x00\x00\x00\x00\x00\x00\x00\x00\x00\xf0?\x00\x00\x00\x00\x00\x00\x00\x00\x00\x00\x00\x00\x00\x00\xf0?\x00\x00\x00\x00\x00\x00\x00\x00\x00\x00\x00\x00\x00\x00\xf0?\x00\x00\x00\x00\x00\x00\x00\x00\x00\x00\x00\x00\x00\x00\xf0?\x00\x00\x00\x00\x00\x00\x00\x00\x00\x00\x00\x00\x00\x00\xf0?\x00\x00\x00\x00\x00\x00\x00\x00\x00\x00\x00\x00\x00\x00\xf0?\x00\x00\x00\x00\x00\x00\x00\x00\x00\x00\x00\x00\x00\x00\xf0?\x00\x00\x00\x00\x00\x00\x00\x00\x00\x00\x00\x00\x00\x00\xf0?\x00\x00\x00\x00\x00\x00\x00\x00\x00\x00\x00\x00\x00\x00\xf0?\x00\x00\x00\x00\x00\x00\x00\x00\x00\x00\x00\x00\x00\x00\xf0?\x00\x00\x00\x00\x00\x00\x00\x00\x00\x00\x00\x00\x00\x00\xf0?\x00\x00\x00\x00\x00\x00\x00\x00\x00\x00\x00\x00\x00\x00\xf0?\x00\x00\x00\x00\x00\x00\x00\x00\x00\x00\x00\x00\x00\x00\xf0?\x00\x00\x00\x00\x00\x00\x00\x00\x00\x00\x00\x00\x00\x00\xf0?\x00\x00\x00\x00\x00\x00\x00\x00\x00\x00\x00\x00\x00\x00\xf0?\x00\x00\x00\x00\x00\x00\x00\x00\x00\x00\x00\x00\x00\x00\xf0?\x00\x00\x00\x00\x00\x00\x00\x00\x00\x00\x00\x00\x00\x00\xf0?\x00\x00\x00\x00\x00\x00\x00\x00\x00\x00\x00\x00\x00\x00\xf0?\x00\x00\x00\x00\x00\x00\x00\x00\x00\x00\x00\x00\x00\x00\xf0?\x00\x00\x00\x00\x00\x00\x00\x00\x00\x00\x00\x00\x00\x00\xf0?\x00\x00\x00\x00\x00\x00\x00\x00\x00\x00\x00\x00\x00\x00\xf0?\x00\x00\x00\x00\x00\x00\x00\x00\x00\x00\x00\x00\x00\x00\xf0?\x00\x00\x00\x00\x00\x00\x00\x00\x00\x00\x00\x00\x00\x00\xf0?\x00\x00\x00\x00\x00\x00\x00\x00\x00\x00\x00\x00\x00\x00\xf0?\x00\x00\x00\x00\x00\x00\x00\x00\x00\x00\x00\x00\x00\x00\xf0?\x00\x00\x00\x00\x00\x00\x00\x00\x00\x00\x00\x00\x00\x00\xf0?\x00\x00\x00\x00\x00\x00\x00\x00\x00\x00\x00\x00\x00\x00\xf0?\x00\x00\x00\x00\x00\x00\x00\x00\x00\x00\x00\x00\x00\x00\xf0?\x00\x00\x00\x00\x00\x00\x00\x00\x00\x00\x00\x00\x00\x00\xf0?\x00\x00\x00\x00\x00\x00\x00\x00\x00\x00\x00\x00\x00\x00\xf0?\x00\x00\x00\x00\x00\x00\x00\x00\x00\x00\x00\x00\x00\x00\xf0?\x00\x00\x00\x00\x00\x00\x00\x00\x00\x00\x00\x00\x00\x00\xf0?\x00\x00\x00\x00\x00\x00\x00\x00\x00\x00\x00\x00\x00\x00\xf0?\x00\x00\x00\x00\x00\x00\x00\x00\x00\x00\x00\x00\x00\x00\xf0?'
p31
tp32
bsS'inp'
p33
g18
(g19
(I0
tp34
g21
tp35
Rp36
(I1
(I43
tp37
g28
I00
S'\x1e\x027\x96A\xa9\xd0?=;\x04n,\x83\xc2?i\xbeV\xcf\x0e\x81\xab?\x8deP*L\xbc\xbf?+L\xbc\x1f9\xcd\xc7?u\xd1E\x17]t\xc1?\x98x?r\x9a\xaf\xc5?\x8deP*L\xbc\xbf?\x90\x9c\xe6k\xf5\xec\xb0?\xd8\xea\xd9!pc\xb9?j\xbeV\xcf\x0e\x81\xbb?"pc\x19\x94\n\xc3?|\xad\x9e\x1d\x027\xc6?Z\x06\xa5\xc2\xc4\xfb\xd1?\x0b\x13\xefGN\xf3\xd5?\xb4C\xe0\xc62(\xd5?\x10\x81\x1b\xcb\xa0T\xd8?\xb9\xb1\x0cJ\x85\x89\xd7?+L\xbc\x1f9\xcd\xe7?\x89\xf7#\xa7\xf9Z\xdd?\x85\x89\xf7#\xa7\xf9\xca?\x8eeP*L\xbc\xcf?o,\x83Ra\xe2\xdd?+L\xbc\x1f9\xcd\xd7?\xfb\x91\xd3|\xad\x9e\xcd?+L\xbc\x1f9\xcd\xc7?\xc5\xfb\x91\xd3|\xad\xbe?\xa1T\x98x?r\xba?E\x17]t\xd1E\xb7?\x90\x9c\xe6k\xf5\xec\xb0?u\xd1E\x17]t\xc1?\x8deP*L\xbc\xbf?\x8eeP*L\xbc\xaf?\xd8\xea\xd9!pc\xb9?"pc\x19\x94\n\xc3?\xbd\x1f9\xcd\xd7\xea\xc9?t\xd1E\x17]t\xd1?B\xa90\xf1~\xe4\xd4?Sa\xe2\xfd\xc8i\xde?u\xd1E\x17]t\xe1?\xe7k\xf5\xec\x10\xb8\xe1?\x8eeP*L\xbc\xdf?\x90\x9c\xe6k\xf5\xec\xe0?'
p38
tp39
bsS's'
p40
g18
(g19
(I0
tp41
g21
tp42
Rp43
(I1
(I28
tp44
g28
I00
S'n3\xe1\x0c@\xd9\x1f\xc0j\xbd\xe2YS\t\x0f\xc0K\x11\xbbL\x8a\x1c\x1c@\x13\xe4xa\x8d\xbb\xf5?X@\xde.\xf9\xa7\xfc?{\xaa\xb83=\xbc\xd4\xbf\xceO\xcbD#:\x00@\xd3\x9d\x9c\xef\x192\x0f\xc0\xaf\xc6\xe7\x98\xfd\xde\xfa\xbf\x0bD*I\x03\xed\x00@(l_\x86\xff\x07\xff?\x06\x07\xbb3\xdd\xe2\xf1\xbf\xc6d\xe9<r\x06\x06@D\xa0\x02yp\x0f\x10\xc0q\xf0\xd5\x98\xae\x03\xfe?\xe7Ym\x9b\x9fL\x02@oC\x01t\xe5\xba\xd6\xbf\x84\xc9E"\x82i\xee\xbf u\x8du3\x02\x98\xbfL\x19\xf4\xc1\xa7J\x05\xc0JH\x1ac\xbc\xb4\xeb\xbf\xd8\x12OK\x14j\x02@\xb7c\xcd\xb5\xde\xe4\x02@@\xa1\xcdWM\xa5\xb1\xbff)L\x02\x90C\x04\xc0\xecm\x86\xf9?\xf3\x07@\n \x93V\x90\xfc\r\xc0\x0cN\x1c6\x80\x9a\t@'
p45
tp46
bsS'np'
p47
(dp48
g21
g18
(g19
(I0
tp49
g21
tp50
Rp51
(I1
(I28
tp52
g28
I00
S'QV\xac\xa1\xe0\xe9#\xc01\xebF\x1c\x90x\x11\xc0\xc9\x82\x16\xf2\x9b\\ @H8\xea=\xfc\xf3\xfc?\x04q\xf5@\x1b\xc0\xee?\xde$\x9b\xb4\xc4\x17\xe5\xbfXi<\xcd\x83\x11\x03@74@T\xbc%\x12\xc0\x93_mWl\x1f\x0b\xc0!\x92X\xf47\xed\xfd?\xbdK\xc7?\x8f\x92\x08@\x04\x8eG\xb5\x0b\xec\xf4\xbfvX2\xeb\x0c\x11\x0b@\xfc\x03\x98rF?\x13\xc0+\xbc\xca\xf9%J\xfc?L\x08Ej\xe4\x0b\x01@\xfd^Sh>\x86\xd0??\xf1\xeeW\xf3\xec\xd8\xbf\xf3v\xb8\xe2\xa3\xec\xed\xbf\xb2\xc1q\xa1\xff\xdf\x11\xc0\t]\xf2\x96\t\xd9\xe5\xbf\x8c\xe8}\x7f\xb9\xa6\x0b@m?+\xf9\xb0\xef\x01@Hs\x12\xa9\xb7\xa6\xf0?\xd0\x18\xee,n\xda\x01\xc0lC.\x83M\xa2\x10@\xa6v\xb8\xebZ\x08\x14\xc0\xe4\x8e\xc7\x80z\x82\x0b@'
p53
tp54
bsS'w'
p55
g18
(g19
(I0
tp56
g21
tp57
Rp58
(I1
(I28
I43
tp59
g28
I00
S'>J\x1a\xb3j\xe4\x8a?\xb2\x14i{\n\xd4\xea\xbf\x05_A\x93\xd4h\xc5?_&\xeb\x0174\xd3?r\xdb1R\xcf\xb0\xd3\xbf\t\xa1\x9c\x8b\xcc\xaf\xe9?g\xedt\xc8"\xdd\xd0\xbf\xf4\x00\xf4\xd3Y`\xd8?_\x8d6\xf3q\x06\xe1?\x99\xf7\t c\xb6\xe6?\xa2\x0b\x03\xebR\xce\xdd?\xea\t-\x15\xa0}\xd7?\x86\xbf\x14\xc0\xf5\xa4\xe4?e}KLK\xc2\xe2?\xf4\xbds\t\xe9]\xe2?\xa9\x93V\x83\xbb*\xc7\xbf\xee\x0c\xf4!\x13\xbc\xe9\xbf\xabL\xf06\xd5\xca\xb1?{\x99\x90\xbf\xead\xd7?\xa1Z\x96\xbc\x94\x8a\xdf\xbf\x08<\xebn\xeb\xf6\xd0?\x8e\x92(\x17\x01\xa5\xde?\xff\xaf\xe8\x19\xceL\xa1\xbfRu\n\xbf\xd0V\xe8?\xe3\xb8\xc0\x08\x05\x92\xe4?\xe6\x0f"f8\x14\xdf\xbf\x1b\xd7dN[q\xc6\xbf\x98A\r%;\x9b\xd2\xbf\xe9pM%\xc9\xa8\xc9?}K5z\xad\\\xd3?\xc4\xf2\xc93\x08\xed\xca\xbf\x89\xa2\xcaa\xd7\x14\xd4?\xc6k\xad\xc8\xc0\r\xea?\xb8\x83\xa3\xb7\xe9\xea\xa3?0<\xa2\xd2\x89\xf7\xda?r5\x9f\x8d\x9b\x1b\xe5?\xa8\x9fm\xeb1\xb4\xd4\xbf\x98w\xf2\xcf"H\xd0?\x10\x89Z\x92g{\xd5?\xb8V\x92h.\x05\xcb?d\xf2\x90\xe1\xa9\x03\xc0?\xabi\x04\x16\xd9h\xe2?>x#S`9\xde?L\x12\xf9\xb1\xac)\xce?\xfe\xf9K\xad\xfe\xd3\xe1?\xdd,\xa7f\x95r\xe6?\xf2p\x86R\xe1\x8d\xe1?\xb2@\xa1\x7f\xbc.\xc1?\xed\xd0o\xa0~\xee\xe1\xbf\x9br\xb8\x93$\x9d\xe4?&~\xa84\xb5\xde\xb0?n\x8f\xa1\xdf/\xee\xcd?R\xb4\x11z\xac\xae\xb5\xbf\xbdg\x19tA\xb5\xe1\xbfz\x01\x19\xc6g\x7f\xba?\xb5\xb9\xbcl(\x08\xd9\xbf\xed\x9f\xa8\x84\x16\'\xc3\xbf\xde\x06/\xcb\xf2^\xd5?\xb3V\xa0\xe1\xaf\xc3\xe1?J0?\xbf\xd0)\xde?#\xeeU\xeamF\xe7\xbf\x9c\xef}|\x1b5\xbe\xbf\xf4(\x00\x17\xe28\xe2\xbf\x14Dcx\xc3\x89\xc4?\x8c!\xdbQ6j\xe7?\xd9[o\xe2\x1b\x08\xda?l\x1e\x10\x9a\x98\x00\xd7?VOK>\x18(\xad\xbfJ\xfc{S\xb2\x11\xd5?k\xa7;\x89\xea\xad\xcb?\x8a\xd8 \xf3\xeb\xaf\xe8?<\xa7Q\xfa\x1aP\xe4??\x13\xf30\xef\x8a\xb5\xbf><-\xb0\xd0+\xcf?\'D\x18\xd3\x03=\xe8?\xcb\x1a\x90\x83\xc4k\xe5\xbf\xcc\xc6\xd3sQ\xb6\xd6\xbf\xdc\x9d\x10\xf4\n\x1e\xc9\xbfI\xd8?8fj\xe3\xbf@Z&L\x10\x87\xe4\xbf\x92\xc9d\xb0\x88\x03{?X\x0bP\x13\x9eA\xd2\xbfWk\x88\xa4l\xae\xd9?\x88\xbc\x04\x99\xf6`\xd8\xbf\x96\xcc\x9d\xf5\xa8\xdf\xe1\xbfn\xa4+\xdf\xa6\xe9\xe7?]\x83S\xc6\xc8w\xe8\xbf\x90\x00\xbcR\xfd=\xd3\xbf\xcb\x12U\xd3\xfe\x1d\xdf\xbf\xb9a)^\\<\xc8\xbf\x8d\x10\xda@x1\xde\xbf\x95}6OT\xed\xe4\xbf\xc7\xdc\xcf\x04\tu\xcf\xbf\xe2\x1e\r\xb8\xa6J\xd0?\x98\xce\x9f\xb5\x85\xe6\xb3?\xb1$#h`\xf8\xc7\xbf\xf1XU\x07\xabL\xe6?\x10\xf6+\x18\xbc\x8b\xd7\xbf\xb61\x83\xad\x82f\xbd\xbf\x08\xdd\x8bRP\xa7\xaf?D*\xcfQv5\xe4\xbf\x10\x8a\xfeoy\xa0\xe1?b\xe3\xb9\xa4\xae\'\xd6\xbfU]\x16uu\x95\xd6\xbf.\xf9!\x0e6\x97\xc5\xbf\xc5,+Bw\xca\xe6?\xcf,\xaf\x07XQ\xc7?D\xb7~\xfd\x82\x87\xe3\xbf\xa8\xc1^\xff?\xf5\xbd\xbf\xa07R\xc9-\xa6\x81\xbf\x9e\xc0x\xd8\xe5e\xc8?-8\xe3\xaa\xcc\'\xe9\xbf\xf7\xbe\x073\xc8\x06\xc9\xbf\xd6\xb2\t\x12\x98g\xe7\xbf\xf6\x9c\x8f\xe56\x02\xde\xbf\xca\x7f`\xd7\xed\x84\x81?l\xbe\xd6\xf4z5\xe8\xbf\xcb\xa1\xcbY\xec*\xcf?E\xa0\xb4\x80$)\xe3\xbf\x93(\xa5\xacj!\xe9\xbf\xda#\xa7\xfa\x0b\xf2\xa8\xbf\xbd\xb9\xb4\xbb7\xf2\xc1?\'\xcf\x06\x8d\x1a\xc7\xe2?>\xf9%\xc1\x18\x99\xe0?\xbf\xd4\xfaa\x8e@\xe7\xbf\xed\xc4;\x97\x1e\x82\xe3?\xfbd\xe4\x9f\xa3\xe7\xa3?\xa7\x9f>\xcdn\x19\xc6\xbf\xad\xeb{\x05\xcd\xdf\xde\xbf\x89~\x9b\x92\xe5H\xc3?nP\x1b/\xac^\xe3?u$\x02\xf2\xceI\xd4\xbf\xe1\xbc\xb0\xa3\xa0\xc2\xbf?\xef\x13o\x85t2\xe1\xbf\xd4\xc5,n\xbd\xcd\xe2\xbf\x91XH\x05\xd8\x1f\xe4\xbf\xd8\xb7\xe7\xa8\xbc\x99}?\xeb\xc2h\x05hc\xe8?S@\xcc^dC\xdc?\xe7^\x18uQ!\xdd\xbf~\x1a\x02\x8b\x96\x8c\xe2?\xfb\xb8z\xcf\xac\xed\xe4\xbf\xcc?\xd3*B\xdd\xe8\xbfst6H\xb8\x94\xde?\xc5#\xa8\xa0_ \xd8\xbf\x82\x1f\xd5\xa4\xfd\x07\xe6\xbf\nM\xc4W\xc2\xf9\xdc\xbf7|i\x8c\x05\x90\xba?\x89\xac\x078\x84M\xe0?\xa89\xbc4Y7\xbc?\x07x\xf4\x80\x1ej\xe1\xbf\xbb\xdf\xef\nPG\xde?P\x85\x96\xbe\x88\xb7\xc2\xbf\xc1\xeay\x95o\xb9\xc1\xbf\xee\x9c~\t\x03\xd3\xc2\xbfN\xbe\x96#B\xce\xc8\xbf \r\xc1&\xcf\x8e\xe5\xbf\x88d!T{\xb2\xd4\xbf\x15\xd3\xac\xe9J\x9f\xe4?\xeaL\xff\x883p\xd2?\x86\xe5\x06\xfaW\x13o?\x91M\xc1\':\xaa\xd4?\x19\x1f\xe2N\x91^\xd0\xbf\x88\xcc\xcd\xa2\\\xb4\xb5\xbf\x8d\x8a\xd97v\xd3\xbd?O\xe2!\xd2\xad1\xb5?\xf6\xbd\xed\x05On\xb2?\xfd\x1e\xeeQ\x8e\xf2\xe9?`\xd0#\xef\x06\x8a\xe2\xbf\xb1\xc0\x8aC7\x95\xdd\xbf\x9d8\x85_\xad\xfd\xe0?\xeb\xbf\x9c7HG\xc7\xbf[\xf90*\xaf\xbb\xe1\xbf\xdf\xfc~\xc5\xf5X\xcd\xbf\xa8\xc2\xb1m<!\xdb?\xa8\x1a\x1b\x06\x08-\xb4?)U\xc8\xdc\xba*\xe1\xbfZ\xd4\xed\xb6\x8e\xcd\xba?\x98\xf2\x98$\xb1C\xd7?\xc6\xaf>\xb5\xd1\xe2\xe1?\xb2\xbf\x7fJ\xa3J\xd8?\x1b\xf2A\xf8\xea\xc7\xe5?XjU\xf3\xf3\xbb\xe8?\x80\x9bX}Z\xfe\xb6\xbf\x98\\\xebDx\x06\xcb\xbf\xf2Q\xa8\x0c\xc7\xf3\xd9?wZ\xbb\xb9\xff\xb7\xda\xbf\x93\xe1\xa2\x9a\xd9\\\xc5\xbf\x03\xd7\xeb\x13\x8a$\xe1\xbfJ\x88\x967\xfd\xcd\xb7\xbf\xa6~\xf1\xaa#r\xb2\xbf\xc86\x11\xebpN\xd7?\xa1\x9f\xb6-\x92f\xe7?m\xc9$\xb8vF\xe1\xbf\x0e\x9e\x978|-\xe2?\x82\xa2\xef!\xde^\xe4\xbf\x81\xfc\x07\xec\xa74\xe2?\x16\x05\xcaM\x97\x14\xe1?\xfc:\xe5\xc08W\xdf\xbf\x0f\xdc\xb8\xcbV\xd9\x7f?u\xd1\x1a\x10p\xac\xbd\xbf\x1e\xfa_w\x9b\x81\xde\xbfb\x15\xfb\x8cT\xf3\xdc\xbf\x91\xf2U\x00\xf0\xf6\xe3\xbf\x0fz\xb63\xdb\x83\xe4\xbf\x8a/\xe9\x87\xf8g\x90\xbf\xd0\xd6\t|\xf1\xc8\x90?\x81\x19\xe46\x8e\xf3\xdd?5\xef6\xb2\x87Q\xe7\xbf\x8a\xc3\x11\xa4c@\xc1?u\xdf~\x95\x9fG\xda?\x97\x18h\x14\xa5<\xe4?,r\x96\xf1\xfe\x96\xd9?\xab\x91\x12\xca\x10\xf3W?\x96\xc8<\xf9\n\xad\xe2?\xe2}>\xc3\xcd\x04\xe2\xbf\xdf\x0e\x0f%P\xa5\xc0?\xc4\t\xe3\xea\xc8-\xe7?\xd6\x8e\xb8\xc8\xfdK\xdf\xbfV\x1e\x07\xc6s5\xb0\xbf\xfd\xed\xbd\xa0 \xf0\x86\xbfYi\x87\xbd\xdf"\xc4\xbfh\xd1\x1f`\xc2C\xe8?\xe4d\xfe\xd2K%\xe8?\xe2Kg!c\xe2\xdb?\xb6\x98#\x1e]\x86\xd0?\xa5\xe4\xf6!\xd3\x82\xe1\xbf6e\xc7mpR\xcb\xbf,`\x00\xc9\xef\x04\xde?\x18\xb4J\x8c\xf4\t\xbc?\x18\xb1-\x1d\x82\x10\xbf\xbf\x95\xdeu\x9aNr\xbb\xbf\x161\x9atq\x91\xd9\xbfJ\x85Nk}w\xe1\xbf\xf6C\x12)\xd3\xb7\xe4\xbf\x82]\xdd\xe6\xd9K\xde?\xceCY\xc3\x15\x1e\xd9\xbf\xe1q\x81M\xc1\xbd\x83\xbf\x1a#\xe8\xee\xae\x9f\xc4?I\x87\x1a_4V\xc4?\xa5\xe5\xebv>\x1a\xbc?\xae\xa8\'j\x9da\xe0?\x96\xe2H\xc8*G\xe1?A*\x98\x10\xf2\xd3\xe2?\xe3\n\xd28\x86\x89\xe3\xbf\xb8:Y>\x90r\xcf?]3\xfe\xe5\xaaA\xe2\xbf\xdb\xa5\x8d\xe9\xce\x9b\xda\xbf.l\xdb\xfe|"\xd1?\xceY\x95\x87\x17{\xe9?A\xdd\xea\x1fv6\xdb?N\xd7\xd1\xf2\x90/\xd4?Lx\xea\x8c;\xa4\xd6?"%*g\x8a\x9d\xa1?\xc3\xadx\x931\x9a\xea?\xceh\x0cAe\x14\xdc?\r\x14\x99.L\xd6\xe5?\xdf\xe7,\x8b\xf3\xd2\xec\xbf2\xa8\x1aw\x85\xd7\xe1\xbfK\xfa\x05\xd2\xf2%\xc8?\xf7\xeb@w\xa5\x89\xeb\xbf\x15\xf1\n\xcd-\xa9\xc4?aQ\xb3\xdd\x0c\x8d\xc6?\xaf\xd7\xdd_\xe0y\xd8\xbf\x0b\xeb\x96e^\x8c\xe5?\x18[\xae\x9c\xef\xe0\xcb\xbf\n\x84\xa1`\xcc\xb3\xb0\xbf\xcdeG;\x19>\xae?i\t\x11E\xf0\xb8\xe9\xbf\x07\xa1\xf9\x88oe\xd1?J\x0b\xe8UQ\x9a\xd2\xbf\xb2\x11\xcc\x86\xcf\xba\xb7\xbf\xfap\xe9\x00\xdd_\xce\xbf\x9f\xbe\x04\xe1&Q\xeb?F:1\xc8b\xd9\xea\xbf\xaf1\x95\xa6\xd7\xa6\xe8\xbfz#\xc3\x84k\x90\xcc\xbf&\x9d\xc5/&d\xdd\xbfM\xc5\x14\xec\x15|\xe7?}\x0c\x0eJ@\x8f\xd0?\x7f\xa4\xaf\xfb\x1f\x00\xd0?\x04\xbfb\x7f\x83n\xd8?\xb54\xa6L/W\xe3?>#\x98c\xfb\x98\xcf\xbf\xb4\x1b]\xf2(\x93\xd2?D\x16\xac\xa44\xed\xc2\xbfX\x9c\x91\x0c:\x1f\xc6\xbf\xb8P\x05max\xd2?\xb4\xf5F_\xbdM\xdb\xbf\xa1\xd6\xd3E\x1c^\xd1?\x06\x80\xc06\xd0\x1e\xc0\xbf\xfe/\xfd\xeb\xab\xec\xe1?\xae\xe6{\x93\x11\xbe\xe6?\xf7\x87m\xff#\xa4\xd8\xbfkh<\xa7|\x1f\xea\xbf&Z\x92&\xda8\xce\xbf\x7f\x92\xc1\xe7w\x8c\xdc?\xf8S\xd1\xba5\xba\xe4?j\x8d\r\xbb\xd6\xfa\xd1\xbf\xfb(\x9b\r\xab\xd9\xbf\xbfUT\xd2\x96:\xc6\xc1\xbf\xaa\x12\x86r_\xb7\xb7?\x1c\x03\x91\x9a\xf9\xba\xa2?t\xeb\xa7\xb9CI\xe3?\xf5\x01\xf3\xf0<\xf1\xde?O\xa6?\x99\xc2v\xe5\xbf\xfb\xe3\xec `N\xe9?\xba\x88\xd0\x01\x88\xed\xc2?Tf}H\xa1\xcb\xe3\xbf\xb4\x05jU\xc6\xf9\xe2\xbf\xdbQc8 \x01\xdb?\xea\xe7\x99\x18\xe9\xea\xde?L\x11b\xadQ\x0f\xd0?f\x7f\xce`\xc6\x88\xd4\xbf\x15"\x0b?,\xaf\xd7\xbfA^\xaaP\x8b>\xd7?2kNc[\x9b\xb8\xbf\xf3B\x12\xf2\x82\xf0\xd8\xbf\xffDY\xfe\xd2\xa7\xe9?\xe5tO_\x04d\xde?W\x89O\xb5\xf70\xa4?\xe1\xb3\xe1\xc7\xcd\xcd\xd7\xbf\x10h\xbd\x16\x88\x1a\xd1?\x9b\xe0\xb5\x8de\xf6\xc2?\xe9\xe2b\xf3\xf8|\xe2?\xac\xe0\xb5t&\xb5\xd6?\xa8\xa3\xf99\x0e\xc3\xca?\xd2=\xfd\x8f\x93h\xe2?\xe7\xde\xba\xca\xfd\x83\xe1?\x1c#\xa1\xd3h\xda\xb7\xbf\xf8\xdc\x17ZH\xd9\xd9?\xe2&5x\xcb\xeb\x7f?\x07\x87\xf3\x85\xf3\xb7\xdb?\xed\xc10Oc\xcd\xdb\xbf\xdeV~\x8dWP\xc2\xbf\xb3J\x1dR\xf1\x1a\xe6?\xdb\xfc&\xe8\xc46\xe1\xbf\xc8\xa3\xfde\xcdp\xe5?=\x82\xd6\xa4\xe0\x11\xe1\xbfa\xab\x02\xe3c\xd5\xe9\xbf[\xc9\xa7&rc\xb8\xbf\xc5\xbe\xe9=\x8f\xc6\xa6?y\xe7\x0f\x8e\xf3\xff\xe5\xbf[ \x12B \x16\xdd?\xb6\x10\x06\x9a\x8e\x89\xcf\xbf?+X\xea\xa3\xc3\xd7?\tN\x14v\xcd\x9c\xe6\xbf\xc3_\xcc(\xeb\xac\xe5?\xaf\xec\xee\xfd\x1b\xa9\xd0?=\x97\xa1\x85\xb6\x18\x9d\xbf5X\xd1\xc3\x07\xfa\xe1?D\xdf\x82]\xb8\x9a\xad\xbf\xac\xe5\xf6H\x18\xd8\xd5\xbf\x10r\x8aO\x0ft\xb8?\xf7c\xa0\xf6S,\x92\xbfS.\x93\x9cw\xd7\xe2?\x18\xd3\xb1\xc7\x17\xdc\xdf?\xceY\x98\xf8"\x95\xe5?\xc3\x08\x12\x1em\x0f\xe2?\xa4\xc3q\xad\x86i\xdb?\x97`Zu#_\xcd?\t\x0e\x1e"\x1d\xd7\xe3\xbf\xe4A}+?Y\xd0?\xeamf\xfb\xbcK\xe6?\x1b\xdc\x9c\x94\xed\x06\xde\xbf\xbe@\xce\xf5oI\xc5\xbf\xb9\x16\x99\xd0?\xa2\xc4?|\xd0*\xf6\xdb\x85\xb7?\x83\x0b\xea\xde\'\xea\xb5\xbf:\xaa\x18\xdc\t\xbb\xcd\xbf\xa3H\xcc\x04\xabS\xe7?\xfeA\xd1\x9b\x8f\xeb\xe5\xbf\xc8\x11k\x1a5t\xdb?1\x9eS]\xe7\x9f\xc6?ps\n\xf1}m\xc8\xbf\xa8\xcb\xee\x0e1\xf7\xe7\xbf\xaeb(\xb9\xb3)\xe1\xbf\xcf\xc9\x1aU\xcc\x8c\xd8?\x8cQR/\xa9\xce\xe3\xbf:J\xc8\xc3\xfe\xc8\xe2?\x08\xc1\xfb\xdd?\x8c\xb9?Pe\x97\x1e\xa0o\xe2?\xfd\xee\xff\x17W\x95\xca\xbf))\x8ayUO\xe0\xbf/\'(\x8c\xae\xdc\xc1?\xa2\xdf\xa0\x9e\x11P\xe3?\xf02\x1c\x1e\xe0\x86\xe7?\xa7O\xffk}\xb8\xd5?\xcb|u\x9a\xc9\x15\xe0\xbf\x90v\x0f\xferu\xce\xbfH%\x95X!^\xea\xbf\xab\xf6\xc2\xf6\x13\xa2\xdf?\xb4\xb7!\xee\x1e\x9d\xb6\xbfo\x13\x1e\x1c\x9d\xeb\xd3\xbf>\xf9nE\xf8{\xde\xbfiz\xd5 \xbc\x19\xc4\xbfR\x97\xddpvP\xdd\xbf\x97\x89\xe0\xc4\x8dL\xe5?\x7f\xe69\xec\xc1\x80\x91\xbfe5C\x1a7\xa1\xec?\x036\xabUZ\x85\xcd\xbf\xfa\xc3\x8d\x8c\x10\xce\xcb?\xa5m#r\x99\x82\xe4\xbf\xef\xa6\xddc\x1f|\xc8?\xa2\x1e\x9e\xe9M\x90\xb9?\x86\xfe\xea\xef\xc5\xfe\xe3?Y\xf8d\xdeYf\xae?\xb5T9.\xdc\xc9\xc0?[\xd9\x82\xf6\xdd\xba\xe9?>\x02\xee^\xfd\xdb\xd2\xbfV\xd8\xb2I\xb5\xeb\xe6\xbf\x92\xd8\xdd\x89\xff\x03\xe8\xbf\x9d2\x8c\xa7\ty\xc8?4E\x7f#\x0f\xfa\xe3\xbf/\xc6\xf5\x8c\xee\xfd\xd9\xbf~\xe1D\xfe\xe0\xec\xb9?z\xc1df\x0c\xee\xdc?=Y\xc9\xd1\x1a\xf7\xbf?K\x0ct!\xc8N\xc2?\x86{\xfb\xfdd9\xe7\xbf\xab\x08\xf5\xe5\x01R\x9f?U\xaf\xfd8\x8b.\xeb\xbf\xdf[\xf9\xd5\x9a\x04\xd7?\xd1\x8c,\x87\xfa>\xcc?q\x93w\xbb\xdf\x9e\xc7?[\xa6t\xf5c\xa2\xe3?\xa7\xefN\x9c\x0b\xaf\xb2?M\xea\x0f}\x058\xd8\xbf\xb2\xa3\x9a\xbf\x02\xb6\xd1\xbfp\x08\x7f\xb2\x9e\x07\xd3?_l\n\x15a\xf4\xd5\xbf\x8b\xe6\xa6\xef\x83a\xd5?\x00Z\t\xe7\x81\x9d\xe6?\xa2\xee\xcc\x7f<\x85\x92\xbf\x8f\x8b\xbc\x81>/\xdf\xbf\xcb;\x87\x06\xb7\x1e\xd0?u\t\xa1\xe3i\xad\xeb?~\xc9Y\xe4\xc6%\xc6\xbf\xe0r\xc0\x02{h\xcb?\xbcRI\xdd\x82\x0e\xd6?p\x19\xa5\x93dR\x9c\xbf\'\xc5\xebU\x12\xde\xd4\xbf\xc4[\x8fX\x9a\xec\xe4\xbf\xb2|\xa3\xa3@\t\xd7\xbf\xa5\xf6^[\xca\n\xdc?\x9a.\xac\xdf+\xbb\xd7\xbf\xb9\x02M5\x9c\x02\xb4?l\xad\xe5\x1c\xc3\x07x\xbf\xea\x9b\xef\xff\xabQ\xdb\xbf\xd4<\xcf\xea!\xb4\xeb\xbf\x00v\x1eaJ\xcc\xc2\xbfu<\x7f\xf7\xb9-\xe7\xbf\xf9\xa7q \x89o\xc3\xbf\x0f\xfbE\xb4\x85N\xd9\xbf\x81\x00dZ\xc5D\xe6\xbf?\xdd\xa6\xa0\x85\xb4\xde\xbf\xd8\xa3\x05\x99\xfb\x1f\xaa?4\xean\xb7\xfd\'\xe3\xbf\xf00\xd1\xbf:\xa5\xd2\xbfAa0\x935\x8a\xd2\xbf\x03=6\x94\x82F\xec?\xab\xc7U\xf9_\xc9\xd2?d\xce.\x12\x96l\xbe\xbfO0\x0b\xf6R\xa1\xd3\xbf<\xb5\xac\x08@q\x9c\xbf\x0b\xdd\xf3M\xaa`\x8d?\x97\x81\xb8\xbei3\xd6\xbfD\x88\x921@\xea\xe8?\xbb\x1f\xf7\x81h\n\xe5?\xd8\x16 }\x1b\x97\xbe\xbf\xdf\x04\xa6\x88IN\xe8?{\xf7Y\xe8\xfb\xd3\xda\xbf\x8b\x8cS\xae\x19\xb1\xe0\xbf\xc68\xcf\xe7i:\xd7?n\x90\xabe\xa9\xaf\xdd\xbf\xf8\x13\xa8\x1a\x99\xaa\xbf?\x86l\xbd$\xf7b\xc0\xbf4\xff1(iE\xa5\xbf\xd6\x1cHG\x82\x14\xd5?/\xd0W\xe4\x87\x11\xda?\xea\xc74\x9bC\xbf\xc9\xbf\xb7\x1b\xe6\xad\xab#\xe0?\xce\x8b\xa3~s\xea\xc5?\xd4\xfc\xedRCQ\xea\xbfG\xff\x18\xc1w\xec\xe1?M:\xfc\xad\xc3\x96\xbd\xbf\xcaK\xadk>\x13\xd3?m\xb5\xd6\x16\x91\x80\xbb\xbf\xa7\xd5\xb8+5\xaf\x96?{\x14l\xda\xed\x85\xcb?Kms>&<\xe8?\x0bj\xecL\xa6\x1e\xe0?\x01w\x8b\x10\x12B\xe3\xbfP\t\xcc\xd1#u\xe7\xbfni\xf0\x1bR]\xe8\xbfMC\xb244\xdb\xd8?m\x98\x04\x08\xca\xba\xde? \xba\x97\xaf\xf2\xa4\xd6?\xfe\xa3\x92EP\x19\xe1\xbf|\xb3\x96yW\xb4\xcd\xbf\x0e\xeb\x86\xb0\xe0\x1b\xe4\xbf\x94\xfdy\xb9\x1a\xad\xe5\xbf\x04\xe4:\r\xa2b\xc2?giwg;R\xe7\xbfF\xe41\xc4;\xde\xdd?\xcb\xb4\xc7\xb2\xd3Iy\xbfMA\xe5}E\xc9\xe2?\x07\x97b\xb2\x8f\xeb\xe7\xbf\xdd\x86n\x8a9\x84\xcd?\xcakZ\x1d\xa0\x12\xce?\t\xec#\x8e\x15\x9a\xd8?\xca\r[\x1dQ$\xc6\xbf\x04\xfb\xb0\xcdf\x06\xc8?\x06\x9b\x12\xb9\x05H\xd1\xbfi4\xbc{\xad\xc8\xe4\xbf!.P*\x15s\x8d?\xa7w  \xbe\x11\xc5?\x07\r\x10<|\x9f\xde?\x9c\xec\xba\xc3\x99\xf5\xd4\xbfL\xd1Rc\xce\xb8\xe6?\xf7\x92\x84\xf6\xbeG\xd0\xbfv\xaaa\xeap\xee\xb0?\xcf)\xf61\xe6\xf5\xd0?\xc2\xa4\xb13x\x85\xea\xbf\xd7\xf0.\x05h\x9d\xd3\xbf|\x96S\x1f\xaaB\xcd\xbf\x05\xa0\x9f0;y\xc5\xbf\xfa\xfeYy\xd73\xb1?C\xd7\x19f`8\xd3\xbf\xeb\x19ni\xf1\xd2\xc6?\x05\xf9\xa5\xc6\x1eR\xbb\xbf\xc5vq\xd9\xbe\xef\xd8?\xc3\xa2\x1c\xb7R\x10\xd0?w\xc3B\x0fi\x1d\xda?B_\xcb\xf3\xd4\x93\xe6?\xfc\xe7\x82c\x94/\xeb\xbf\xe6bh\xdc\xf59\xe1\xbfe\x86\xd2\xe9\x0c,\xd2?\xf6~@\xcc\xed\x80\xc8?\xa2\xa3.0X4\xcb?\x14\xde\x91\xbe\xf9\xff\xca?\xf1\xe2\x1a\\\xdb\x1f\xb1\xbf>~q\x85Qh\xb1\xbfy\xc3tIo\xcf\xe4\xbfB \xfc\x84\xa2\x13\xce?B\xe3;\xf4\xc9\xc8\xdf?\xe3\x9f\xf6\xca\x96\xcf\xae?uI\xb6\xb1\x1e\xfc\xde\xbf\x80\x8a\xcf\x0b\x9f\xb8\xe6\xbf\xedZ\xdf\xcc\xa4\xb6\xb8\xbfJ\xcc\x82\xe4A\xac\xe3?\xbf2i=\xe9\xa5\xce\xbf\x92\xd3\xc1\xc4\xe7s\xe4\xbf\x9f\xc2\x8b\x9c \xf9\xe7\xbfV\xa7\xc6\xed*\xc8\xe2?]-\xe2\x96w"\xeb\xbf3\x834C\xeb\xef\xdf\xbf\xed\xb5\xc0&\x9f\xe9\xea\xbf\xcdMI G\xab\xc3?\xc9\xcd7_\x93?\xe0?\xa1\xa6$N \xd1\xe7?\xf5\xa6T\xb8\xd0q\xe6?\xb9x\xc1\x11\x9c;\xe5\xbfI]hd\x7f#\xcb\xbf\x04J\xcc\xf8\xe1\x9c\xbd?g\xe61U\xb3\x08\xe0?\xa0\x98IW\xf9#\xda?sco\xcc\x85\x1b\xd2?E\x85}\\\xc5\x0e\xd6\xbf+\xef(\x12\xafg\xd2\xbf8n jgB\xd5?\xc4\xbd\x18g$c\xd5?6\xd6-\x05\x95\x1a\xd7\xbfH%\xdf\xf7\x94\xdd/\xbf\x88\xde~\xb8\x87j\xe6?c\x9e\xb9\xda\xb4\xff\xcb\xbf?\xd7IT\xfe\x9c\xbb\xbfx\xd0\xc3:6\xc9\xdc\xbf\xc4\x95:\x07]{\xc9\xbfMVq|\xd5\xed\xc7\xbfz\\7\x83\x96\xc4\xdf\xbfbi\x88M?\xa4\xdf?3\xb9to\x88\xe0\xca?\x80\x84\xb8E\x988\xe2\xbf\xe8\xdd\xc0\xd5Qb\xdd?\x18\xb3M\n\x0e\xfa\xe0?;xs\xe5\x90\x00\xe9?\xad\xe1\x8fz\x93C\xce\xbf\xe1(\xa1\x80p=\xe6?\xbf\xdd\xa1,\xab<\xe9?\x0e_L\x1f\x98\x8a\xc6\xbf\xc5t\xb0\xea\x82Z\xe6\xbf\x0e\xa9\x8a\x98i\x91\xc2\xbf\xe2\xe2\xb9\xda\x11\t\xdf\xbf\x82$\xebS51\xc4?\x044\xbd\xbb:\x95\xb2?J4\xf0+\x91l\xe7?\xf0\xb7\rBi\x11\xde?\xc2\x98\x1b\x89\xee\x7f\xe0?]\xb7d/T\xd6\xe2\xbfG=\x058v\x12\xcd?\r\xf9h\x92\x8d\xa4\xb3?\xbc.\xc4fv\xd3\xe1?\x86#\x13PQ\x95\xdf\xbf}\xdd\xfdFiv\xe7?\xd5\'\xceP\x13\xa2\xb5\xbft\xa3\xc6\x96s7\xd6\xbf=a\xfdA\xca\x9d\xe7\xbf$\xfdU\x94\x11\xb2\xd0?\xf0 \xec\x80u\xaf\xbd\xbf"\xc0\x84\xfa\xd0\xe9\x95\xbf.\xb2\x01;\xef\x06\xc9\xbf\x16#!\xeb\xb0\xe5\xe2?k\t\xde\r\x7f\xe7\xb6?\x1f\xe8\x92\xe6\xc42\xc0?\xed\xcd\x7f^lE\xdb\xbf3\x96\x81\xb8\x92_\x95\xbf\xb7\xc2<\xf0"\x85\xce\xbf\xfe\xe0\x95U\xcfl\xe8?c\xb3Old8\xd8\xbfyh\xd4\x02|9\xc1\xbfv\xedM\x96`\xb3\xe4?\xddE-\xa9\x91\x9d\xd4\xbfD\xbf\xb8\xe6\xe9d\x8f?]S\xfa\xaa\xc0(\xd2\xbf/\x16b\xcf2\xc7\xc8?;\xed\x87*\xdfC\xdf?b\x96\xa9\xdb-\xab\xdd?%]\xf8;\x9b\xc9\x90\xbf\xc6wb|\xa1\xab\xa3\xbf\x92\x1e\xfd\x02q\xc4\xe6\xbf\x9b\xd0\xfa\x99O2\xe2\xbf\x92\xa5\xe0/\xf1\x85\xe5\xbf\xfe8N\xdcie\xc2\xbf\xabr!\xc3\x93\xc0\xe9?y\xc5x\x892~\x91\xbfq/Hp\xd5\xfd\xc4?\xfb\xb28C\x0b\xcf\xd2\xbf\xf1\x97B\xb8K!\xe3?\xa3w\xe83\xc6O\xe8\xbf\x86\xf4\xbao8*\xdf\xbf\xb2\x85[jso\xeb?\xc4\x0f8o\x87\xb7\xd0\xbf\x84\xba\x01+B\x99\xdb?\xdb\x1bT_A\x88\xd4\xbf\xa3\n\xaf\\\x96\x0e\xb2\xbfB\xbe\x89q\xa5\x1a\xe4?\x02\x87\x17\xb7{/\xe7?\x8d<\xc1\x14\xf5\xb3\xc8\xbf\x81\xf6\xfd\xceJ\x89\xe2\xbf:\x17\xb1%\xdc7\xd9\xbf\x03xvp;\x98\xe3\xbf\x87(H\x7f%\xb2\xa0\xbf\x80\x15\xeb\xd8\x8a\xbf\xba\xbf\x88\xe4R\xe7\x18r\xc4\xbfSI\xe9SHA\xe1?\xd2,\xd3\xbf\xd2\x18\xe5?]\xce\x81\x1ft\xf7\xe3\xbf\xb4\xec\xf8=\x0b\x0f\xe7?jW\xb7\t\xafK\xe1\xbf\x8c\x7fyG\xff&\xd3?\xf65R\x81a\x86\x96\xbf\x81\xe6\xdc\xca\x0c|\xdc\xbf\xd3[\xdcC\xd7\x16\xe0\xbf \x81\x7f\x02\xc7\xbb\xe6?\\beY\x18\x9c\xce\xbf\x81"\xc3\xfd\x19t\xd6\xbf\x0f(pz\xad\xaa\x96\xbf\x96\xadF\xd7p\xf3\xd9\xbf\x94s\xcd\x0c\x8c+\xe7?\x9bJ\x0fl\xa4\xd9\xb0?V\x9b\xb1g\xd8\xcf]\xbfL\xa0\x94\xab\x8do\xe1\xbf\xeb\'\xc5\xc248\xd8\xbfu\xed\xf3e\xd0\xc8\xe4?j\xfd&\xf7\xdc\xff\xe0?\x07t\x19\x83r\x9d\xdd\xbf\x95\x9d%\x98\xbf3\xcf\xbf\x82\xd9\x08\xa2\xa3\xd9\xb7?w6\xb8z\x17\xdd\xd4\xbf\xca\xbb\x01\xe63,\xce\xbf\x07^a`\xa5\xe0\xb7?\x15\x0e\x9f\xad\xd9Q\xc9\xbf\xa3\xd8\xba\x11\xb5\x97\xde\xbf\x0e\xb1\xd8Q\xa0.\xe6?6\xd8\x90\xf6N\x1f\xe4?/F\xee\xe62\r\xe4?\xac\xfb\x80\xb8\xbc\x14\xc8\xbfA\xd5\xc4 \x11v\xe6\xbfy\xa9\x8b\x13\xd5\x91\xe6?\x00\x98\xf4\x83\xefZ\xdd?\xbf\xc4\xb3\xad\x1fR\xd4?\xcfj.}\xb3N\xd6\xbf\xf3\x7f\xd8>\xc7J\xe9\xbf\xcf\xff<<Z\xa8\xce\xbfa\x1d\x86*(\xa7\xc4\xbf\xd6\xa2\xba\x13\xd1\x7f\xaa?\xc7+~\xbd\x0e\x1d\xe5\xbf\xed\x80Y\xa5\t\xad\xe0\xbfC[\x82\xa7.\t\xbd?\x91\n\xc0\xb2\xc4 \xd5?7\xdddL1\xd8\xd8?\xfc\x86+\xa4\x17g\xd2\xbf\xaf$\xcdj*A\xe4?O\xa0\xb2\x96\xb2}\xad\xbf\xa6q\x89`"\xcf\xe8?Q\x0c\xdcj\x87i\x8d?\x80\xff\xdd\xe2b\x98\xe6\xbf\xcczc\xe1\xfe3\xe6?\xa9\x9d1]\x07\x07\xc2\xbf\xc7\xa3#\xc0W\x87\xd8?\xeb\xed\xb6\x99\xd2\x0b\xe1?\xe0;cP\x88,\xc9\xbf\x0f\x12:?\xae\xee\xbc\xbf\x0cK\x98\x11\xcc{\x89?\x86\xfc\xed\xf8\xa8\xef\xb7?\x0f\x98\xba\xb4>Y\xc7?\x15\xc3\xa72S\x01\xe3\xbf\x9d\xe4.\x1f\xdf\x9a\xe2?\xa3\x94b\xe5\x96\xfc\xd3?\xc5\xd45\xa0\x94\xbc\xdb\xbf_\t\x86\xa9,\xf2\xd6\xbf\x1e\'\xdeB<\x89\xe3\xbf\xc8\x13\x89e\xcc\xbf\xe3?\xdf%\xb2\x9b\x89\x12\xd2?3\x92J\x11\xbe<\xe5\xbf\x11\xe1\xa5\xff^]\xe3\xbf`\x81C3/\t\xe1\xbf?\x08\xda\xd8\xb1\x07\xcd?b\xe8\xc6\x1e\x93\xb6\xcb\xbfq>\xc1\xb6\xe7\x8b\xe1\xbf\xb5`\xa5xN\xf8\xea?\xdeA\x99\xe8\x8a\xe5\xd5?\xed\xbb\xe1\x04~N\xa0?Qod\x18fk\xe3\xbfg\x87\xbaioe\xe2?\xc0,\x17\x8f\x89\x8d\xe8\xbf\xd3\xab\xc6[\xca \xc8?\x0bH\xe6\x10>\xf5\xed\xbf\x1844\xddW\x07\x9b?\x8c\xf2%\xcexZ\xd9\xbf\xeb;\xf8{\x03f\xe4?0\xd5]&Z\xc2\xdc?\x80\xd7\x1e\xfbk\xde\xcb?\xe0\x0e\xc7H\xcbz\xce?\nFt]\xd6\xab\xe0\xbf\x11\xbf$\x80\x0bm\xca?&v\xa63\xb1\x7f\xe4?\x80\xf7&w\x01\xa8\xd2?\xde\xa6! z\xe8\xc1\xbf\x14\x04nr\xe2\x84\xb4?|\x8fgl(5\xa6?5\xb1\xd2\'\xd1\xce\xd1??\x93\xd5l\x10\xf2\xd4?jY\x9bEY\x9a\xe2?\x96\xa3\x1a\xdc\xa8\xbc\xe1\xbfl&\xd6 }\x11\xc1\xbf\xa6\x11br\x83;\xa0\xbf{\x1a\xd2\xfd\x1a\x0c\xc3\xbfx\xb0\xcc\xa4\x87J\xca\xbf=\xf0u`H\x02\xe1?\xc7\\\xa2\x87\x8b6\xca?)\xf4d\xe5\xb4\x9e\xd6?\xc6\xf2#\xb9\x9fV\xba?D\xe6[i;\x08\xe1\xbf\xff\xa2\xda\xa5j\xa5\xe0\xbf\xf6>\x99Xre\xd1?U\x1bw2\x14\x97\xea\xbf\xd6\xd3M"\x9c\xf2\xdb\xbf\x84\x87q\x01\x14F\xe4\xbf\xe9\xf85\xfab\x8b\xd9?M\xbb,L\xe0\x17\xd9\xbfD|y\xa0L\x16\xe5\xbf~\x05g\xdaQ\x0c\xe5\xbfB\x8ft\x8c\x13\xa7^\xbf\xa7\xa7\\s\x88\x83\xcf?\xfa\xca6\xe8\x85R\xbe?\xe4\xaa\xdf\x18}\xb3\xe2\xbf\xc4\x8c\x05\x8c\x9cu\xd1?\xd1\xfd\xcd\x16\x12\x05\xe0\xbf{a\x80\x1a\xceu\xe3\xbfM\x08\xf1\xf2\xfc\x90\xd5\xbf\xf5\'v<\xe2\x93\xd1?\xc2fe\xf2V\xdf\xe9\xbfK?\x8bzR~\x8d?\x8f\xdb\xc8:\x13N\xca?\xe2\xf9R\xcf\xd24\xda\xbfp\xacy\x88#\xc4\xdf?V\x9fI\x938\xe3\xe4\xbf\xc0\xc2r\x1e\xf36\xab?\x18\xd9\xccU\xa2\xf5\xb6?\x08\xafrX\xf5\x7f\xd7\xbf\x81%\xc4\x02<\x01\xd6?\x80\xe2\xf2C\xc3y\xa9?\x17^\xed\xe6\x11\xcc\xdf?jM\xfe\x9aW\xc4\xd0\xbf\xda#=\x17KT\xd2?\xee\xfa\xb4_\xe6\x9c\xd5?g\xcc\x99\xf1]\xdb\xde\xbfP>\xe5>\xa8\xde\xb8?\x8a\xd0\xcf\x17\xd3\xae\xd7?\'\xe2\x97\x13\xdf\x95\xd8\xbfr\xc05r\xd8\xb9\xd5?\xd7\x0f\xae\xd7\xa0\x94\xb0?\x17\xf1\x8a\x0c\xa7z\xdd?\xe5\xa8w\x7f\xf5\xcd\xa7?\x85k\x05\xad:\xe9\xd5\xbf\x0f\x01\x0e\x8f3\r\xe4\xbf\xea\x8dXSu\x11\xc1?\x1a\xb4\x8b\xc8\xd7\x88\xd2?\x039\xe6\xa64\xac\xc5\xbf\xf1\xef\x8b\xa1\x11\x8d\xdd\xbf\xe4\r\x0eG\xeea\xdd\xbf\x1e\xca\xec\x9f\x07\n\xc3?\x98\x9b\xf8\x8a\x02\xa8\xe0?\x88\x99\xa6\xa5\x13\x82\xce\xbf\x8d\xd6\xf3?*\xbd\xfc?(l\xf53j\xd6\xe4?\x84\\\xac\x8a\xbc\x91\xe7\xbf\xb6+\xe3\xda&\xf8\xbd\xbf~\x81\x88\xc8Gm\xe6?\xdeeIx\xf8\xb6\x99\xbfP\xb6\xbe{\xc1Y\xdf?"\xeca\x10\x19\x06\xd0\xbf-~\x85\xf7O\xd3\xe6?\x02\x8cl\xda\xa2*\xe1\xbfRx\xbf\x03\xf6\x90\xdc\xbf\x83\xab\x0c\xe4\x13c\xc0\xbf3\x94\x04\x0eO\xbe\x89?\x93\xe7UT7\xaf\xcc?\xd0\x98-u\x1e;\xe0?\x80\xc9d\x94\xcc\x88\x90?s@J\x16z\xa7\xe4\xbfS!\x8d\x1cr\x05\xe6?\x84\xa8\x1a\xbe>\x13\xe9?\xf8\xccr\xa9\xa1\xd5\xc5\xbfc\x07\x0c\x11\x90n\xd1?T+I\x06\x89G\xda?4u\xbe\xfcS \xdd\xbf\x00\xe9\xa4\x9e\xdfry?\x80\x12\xfam&v\xdc?\xcf\xab\xc7\x81\'\x1d\xd9?\xff?\xc9F\xe6\x81\xe1?\\1\n\xbc\x8en\xb5\xbf\xadv\x9clY\xa5\xdf?;R\r\xbfgC\xa2\xbfc\x0c\'\x97\xdd8\xbf\xbf\x7f\x10c\x86@\x15\xda?\xab\xbc\x04S\xda\xff\xde\xbf-/\x95SE\xe1\xe7?\xcf\x86I\'\xc73\xdc?0Z:$L\xce\xbc?\x8cL\xa7\x15`\x82\xe4\xbf\x87\xc5\xf6\x830\xd0\xd1\xbf\xf1\xbe\xf2^\xb4\x04\xdf\xbf<\xd7:7\xd1\xbf\xd4\xbf"t\xd3#\x84I\xe4?Nn<\xc3#4\xdd?s\x04\x8ao\x85!\xe2?\xe49\xed]@\x04\xe2?\t\xa3\x9e\xea\x9d\xbe\xe2\xbf\xe7wD\xf4\nx\xe7\xbf\xfc\xcfez\xf2\xdd\xe5?\x1d1\x1a\x92\x86\x8a\xd0\xbf3\t\xb5\x04\x82\x81\xd6?\xc7c\xd7\x90n}\xe3?;\xd7y\x92av\xd1\xbf1*\xef\x0cO\x95\xd6\xbf\xd3\xeb\xfd\xc0\xdbN\xd8?MH]\xdc\x9b?\xb6\xbfGe\xbcJ\x99\x11\xbf?\xbaS\xa4t4j\xcb?p\x95\xecf\x85!\xc6\xbf\x18\xd1>\xf7\xfc<\xb0\xbf\xbb\xc3*\x84\x97A\xc8?\x10\x88\xc6\x00\x98\xe0\xe8\xbf+\xa92{\xb1\x14\xe5?\xe4\x975/\x80u\xd3?12pF\xef\x04\xe6?<QV\x1d\x8a\x94\xc1\xbfh\xea\xcc\x89.P\xd6?\x8c\xa3\x93)VY\xb0\xbf\r\xed\xcd\x82~\xf5\xb9?\xe2v\x87\xc1Hg\xe5\xbf\x98\xc0\x95\x12\xf2\x13\xc6\xbf\xaf\xf3\x8e\x95\xc3\xc9\xe1?\x8c\xa8E[\xba\xad\xe6?Gc\xd3\x99"(\xd2?\nG\x1f\xb6\tL\xda?l{\xeaQ\x86}\xd4?7\'\x13r+m\xe5\xbf/c\x15Y\xf7}\xd9\xbf\xf5\xd9\xe2\xd5!>\xe3\xbf\x82\xd4\x1e}\x89\xe4\xda?\xa1\xd4\xe4Y\xb0\x90\xdb\xbfA\';\xff\xfd\x0f\xe0\xbf\xe5h7\x02\x16\x05\xdd\xbf\x7f\xdc*\x18\x9aO\xcb?\xb8\xa6!J\xf0f\xe3\xbf\xb6\x8cu\x94\x0e-\xdb?P\xf7\xdbSu\xe8\xe5\xbf\xc8\xf7|\x80\x07,\xe1?\x1a%*\xa8v\xa7\xd6\xbfo\x87\xb2\x8e\xbc\x14\xe0\xbf\xf2\x1b\xed\xcf\xfaP\xd3?|l\xf7{v\xd3\xe2?Fc\x18\x08,N\xe3?\xe3\xc4\xe4\x12>\x16\xd2\xbf\x0c\x83\xa5M\xd2\x8a\xc3\xbfx\xd1I\xd6\x92\xd0\xc5\xbf\x95\xf2\x17~\xfe\xe8\xd1?@\\\xd1\x94\xef\x83\xe6\xbfp\x03\x15\x87\xdf\xf7\xdd?\xc1E\xdb%O\xec\xe0?gcx\x97HL\xe8\xbf\x10`\xa6*\xce\xc7\xd1\xbf\x13?\xa6\xe8y.\xe2\xbf\x91\x9cP\xe1I\x86\xb9\xbf\x81\xf8s\x1a\xe6-\xe6\xbf\xa2\x03\xff\xf1\x7f2\xb1\xbfb\xe2\x02\x13E\xb2\xe2\xbf\x82\x0bZ\x92\xc7\xd9\xe8\xbfH\x88q`m\xdf\xcc?zS\xd4tLt\xb4\xbf\x99\xdab\x01\xf6\x93\xd8?,\x1b\xa9\xbaB\x9e\xdf?\x81C6x\x07O\xc6?\xf3\x0b\x1c\xae\x14\x93\xd2\xbf\xdfO\xffn\x01\x0e\xbd??v%k\xed\x97\xc1?\x92C\xc2\x86Zy\xda\xbf"\xb1\xf5-\xb4\xd1\xe2\xbf/W\xea1\\\xf8\xe8\xbf3\xbb%\xdb\xe3\xdf\xe0?\xb8,\x89\xb2C\x1b\xe9\xbf\xa5\x0b;:\x9c/\xb3\xbf\xf7\\\x06B\x9d\x8c\xbf\xbfE\x9f\xd7@/\xa6\xe2\xbf\x13\xb6R^#<\xe5?\xee8\xb4f\xcb\x95\xc4\xbf\x05\x98\x0b@\x16\xb5\xc3\xbf\xed\x06&\x83\xe40\xd4?=\xddh\x0e\xf8\xa1\xe0?"\xc0\xaaX \x00\xe9\xbf\x8c\xf2\x89L|\n\xc9?jz\xfaq\xa9\xee\xc0\xbf\xb9H\x82\x88\xce$\xe2?\x9e\xb7^>^\xce\xd7\xbf\xd5\xfcY\x84\xfa\x8b\xe3\xbf\xcb\xe6\x1fe\xd6\n\xe0\xbf\xf5\xc2l\x13\n\xa3\xe2?\x97\xe2i$IS\xd9\xbf\xf9\xf3yo\xd2\x86\xab\xbfb\xf1\x89\x97\x94\x97\xe0?\x01\xc0\xdac^\t\xe6\xbf\x16d\xb1#\xab%\xc0\xbf\x94SRf\x83,\xe2\xbf\xab\x8a\xa0\t%\xca\xdb\xbf*m\x08\x9d\x07$\xe7?B?\xe7\xdaL\x8a\xd5?\xf9u\xd1\xdeY\xe9\xd8?\xca~s\x96z.\xe4?y\xac\x1b2e\xaf\xd7\xbf\xd4/P\x8c\xfe\x90\xdd?\xe6i\x94e\xff\xa2\xe5\xbfJE\xec\x9au\x07\xdd?7\x8d\xb2\x91k\xd9\xd6?L\x97\xb5\x8c8E\x8b?\x81\xe4\xd0\x8b\xd3\xa4\xd4\xbf\x89\xb6\xc0\xdaG0\xd2\xbfS\xbe:\xde\x98\x81\xd6\xbf\xa9\x16\xb1h&\r\xdc?8\xcda\xe9\xaaV\xc8\xbfW#\xce\x07\xc3P\xbd\xbf\xad\xf3p|\xa6\xb2\xc8\xbfG\xa1\\\x10s@\xe3\xbf\x8d0\x9a\x04\xafj\xda?\xa1\x98V2T\x9e\xd7\xbfn\xc0wo<\x14\xe8\xbf\x12\xff\xd3\xa4.P\x8e?\xf1\x06z\x93\xbc\x86\xe0\xbf\xa3\x9a\xe6\xaddF\xe7?\x07\xa5F\xe8*v\xe5?\x16\xa77C\xec1\xbb?\xcaQj\x87\x17[\xd4?o\xc0\xd9{\xf42\xc7\xbfI!\xab\x08\x15y\xd6\xbf\xf8$\x19\xc8\xea@\xe3?$\x95b\xfa\xfd5\xdd\xbf\xe2\xba\x94J`J\xe2\xbfW\x04\xd8CI\xd3\xe7\xbf\xb0O\xd1\x1bd\x0f\xc0?\xc8\x83\xca~\x94\xea\xc3?\xbc\xaa\x93a\xe3\x86\xad?\xda\xa0\xb6\x08$\x85\xe2?\x15\x05\xb4=\x01\xc5\xb9\xbf\xf6E\x17\xa5\x01\xa9\xd3\xbf\xed>J\x9c\xd6\xc9\xd6\xbfN\x1d\xc0\xe5\x92\xe1\xe5\xbf\xa9\x1f\xae39\x17\xa7?\x9bQX\x04=\x8b\xc2\xbf\x0f)IV\x98\x05\xcd\xbf7\x9c\xee\x97B\xc3\x9f\xbf\x84\x99\ti\n\x0b\xe3\xbf\xb6\x9f)\xa9\x7f\xbc\xb5?M\xb2+\xcd\xb1I\xe3?\x96\xd7\xc2\x8c\xbe\xd7\xd3?\xed\x85WQ*\x8e\xba?\xd3y\x17\x1d\x1ej\xde?\xbb\x8d9\xfd;O\xe7\xbf\xab\xb8B\xf0\x08\xae\xd7?\x8b\xe6\xe6\xf1\x1f\xca\xe0\xbfh\x87N\xa7\x88\xdb\xc3\xbf\xe0\xc5cO\xfb+\xce\xbf\xc2r\\7\x80p\xe6?6\x1c\xfa\x83\xd5\x84\xa4?wa\x86\t\x90\xc2\xea\xbf\xd1\xad\x17\xa782\xe2?\xe3\xa7"\xb6>\xe9\xd0\xbf\xec\x1f\xa9\xcb/\xf3\xa4\xbf\xc0\x0fY\xbe$)\xe4\xbf\xa2\x9e\xb0X\xd4\xa9\xd6\xbf\xb7i\xa5\xb9\xb3j\xc9\xbf\xbb\xc1Xj)`\xe4\xbf\x96\x1e\xd5\x0bX\xf6\xde?d\xba\xae(o\t\xe6\xbf\xb3\x13\xee881\xe3\xbf\xdf\x99W\xdbd\x94\xe1\xbf\xbf\xcb\xae\xe4\xc2\x13\xce\xbf\xe5\x92\xb8\x1fh\xef\xe1?\xd5\xb2P5u\x03\xd8?\x81\xe1\')\xad\\\xed\xbf\xc2`\xf56\xebf\xb6\xbf\xe5\x17U\x02\xb2n\xc9\xbf\xb3\xb29q7\x91\xde?gBV\x03{\x04\xc1\xbf\xfe\xab1\xe7{\x85\xdf?\xf7-!S\xc4\xd9\xe1?\xfa \x7fZO\xc3\xe8\xbf=\xdc\xd8cN\xe8\xe6?\xed\'\xbc\x10\x96\x04\xd1\xbf\x90wa\x90\xabq\xe0?\x02\xc6j@l\xf9\xe8\xbfF:\x14\xba.\x0e\xa0\xbf\x98\xc9\x84h\x986\xe5?GL\xcd\x11rl\xa4?p#\t/TD\xda\xbf\x9a\xc98\xc9\xce\x11\xea\xbf\xc8\x94\x1eP\xde~\xe1?\x97\xb6j\x184(\xdf?\xab\xe8\x1e\t\x96\xcf\xc6\xbf\xa5A\x91W\x90\xdd\xc4\xbf\x90?\x02^<5\xe5?\xc9\xc0\xa1\xdf\xda\xe5\xce?\x1c\xa2\x82Ej\xf1\xe1\xbf\xe7\xb2\x82\x04\xf0\xe5\xb0?\xfdc>\xd5\xde\x03\xb1?\xa1\x83\x04t{\xa9\xd1?K\xa1v\xbc\xb5\xe7\xde\xbfRF\xc8\x98&\xb6\xdf\xbf\xb1\x94O\x81\x02\x88\xd3?\xce\xf1\xf4.\x80\x9d\xb6\xbf;\xe6\xcc\xe5kJ\xc4\xbf\xfcn\xd3\xcaN\xa8\xdb\xbf/\xe1\xf1<\xa28\xbf?\xcfdJ\xab\xcc\xc7\xd4\xbf\xea\x9c_[\xd8\xe5\xc4?\xf4\x8c-}Q7\xe5\xbf\xc6\xb0\x7f\x0b\xe7\xda\xe7?\x18LR\x0f\xbe-\xd6\xbfI\x14\x95\xe8k\xb4\xe6?\xac\xe47\xc4\xafJ\xda\xbfJ\x0e\xd6\xba>\xe7\xe6\xbf1\x9b\xbb\xe1k\xd0\xd1?\xe6\x8c\xa2\x1b+\xbe\xc7?\x7f\\\xf5\xf8\xa5\x1c\xe9\xbf7\xbf\xfe\xc9\xd4\\\xc3\xbf\xbd0\x08:=\xf2\xe7\xbfQl\x97\x9b\xddA\xc2?\x99\xe3\x12J\x162\xc9\xbf\xee\xabx\x85\xf2\x06\xce\xbf\xed\x91\xd2\xc2\xdd<\xdf\xbf\x87\xfd\x0b\xde\xa9\x17\xca\xbf\xe0\xca\x84{5,\xd9?\x07\x17\x07\xdc\xa0\xd9\xcc\xbf\x12/\x14\x07\xff\'\xd3?\x99j\'\xa2\x05U\xdc\xbfj`^U\xd6\xf3\xcf?\xb0\xa2\xdc\x96\xc0\x14\xd9\xbf\xa6\xb2\xddob#\xcd\xbf\xf8]\x97M\x16\x01\x86?vPS\xaaf\xed\xeb?\x10\xed@gC5\xdb\xbf\n2\t\x14\xeb\x0e\xb1\xbf\xfe\x88&\xa0\xb5\x19\xa2\xbf\xcd=c\xd5\x92\xe0\xc9\xbf\xacr\xd7\xeb\xdfh\xc6\xbf\x88\xc2\x14\t\x89(\xb5\xbf\xaaX\xf7\x91E\x13\xe5\xbf\xff\x98\x0f\x90*\x1e\xe8?*\xbcIS\xb1l\xc4\xbf\x80\xa9\xe4-*:\xd6\xbf\xad\x19\xd5\xaal\xc6\xe5?\xcec\x06V\xea\xc1\xc0?\x82\xc7\xce\xbe\xb4\xf6\xe6? ,l\x80\x8d\xdc\xe4\xbfi\xe1\xd8\x85EZ\xd7?B(w\xe1@\xf5\xb5\xbf$"yV\x01\x13\xeb\xbfk\n\xd5\xd2R\x85\xe9\xbf\xa1\xb0\xa9\x8e\xae2\xac?T\n\xa9#\x97\x80\xe1\xbf\xbf\xb7\xb1\x95\xf9\x97\xc7\xbf5\xc5\x84\xa9\x05*\xdb\xbf\xfa\xe4Q#9/\xe5\xbf\x10\xd2rzFN\xa1\xbf\x0e\xedK\xf6\x04"\xe8?\xdb^\x95R\x7f#\xcc?\xfe\xc6f)\\:\xe1?ZX\xaf\xdf19\xe4?!\xe1j&\xe7\xb1\xd0?\x18zU(\x93\xe9\xb4\xbf\xb3\xf2\xfe\x98\x14\x9a\xd4?\xb7\x9f7\xbf\xb0\x98\xe5?A\xf2\xd7\x10\xc3_\xe7?\xcb\xa2k\xf4y\xe8\xe5?\x15\x07\xbe60\xbe\xc3?\xe24b\x9b\xde7\xa7\xbf\x11\x82\x9fR\xf3\xb4\xdf\xbf\xa6\xb9\xaa\r\x1a\xdb\xd5\xbf\x80J\xd4\xc0\xed.\xd1?[\x11\xfdve\x94\xad\xbf\xbd\xff\xe6\xcf\xc3@\xd8?\x98\x10\x8d\xda\xa0\xaf\xe1?\x84\x88\xe2\xed\x9c\xe3\x95?\x11y\xdc/\xbc\xea\xb5?T;\xaa\x0f\xfd\x95\xd5\xbf\xd7\xbeX\xe6\xcb]\xe2?E\x0f-\xa8\xa3&\xe2?oc\x8f\xa1fl\xe8\xbfL\x8a\xba\xb9\xef\xfc\xe3?\x15\x00\xf4\xa9\xb8\x8f\xdd?\xfdQ\x81\x03\x96[\xdd\xbf\x18C\xf4"\x02\xeb\xd4\xbf\x04\xc7\xec\x17|g\xdd\xbf\xd9P\x9b\xc1\xdbR\xe9?\r\xaa\x15P \x17\xd7\xbf\xac\x05\xfd)w\x87\xd0?\xc1\xda,"T!\xd2\xbf\xb6e\x10Yl\xab\xdb?\x93\xd4\xfax\xf1\x17\xe8?\xe5\x84\xd7\x86\xd3,\xe7?Y\n\x07\xf4R\xf6\xc1?\xe7\x1d\xd7\xd8\xd3{\xda?\x01\xe2\x08\xaa\x93\xd9\xc9\xbf\xbd\xab\xc8\xc6SL\xe0\xbf\x0c\x90\xcfX\x1a\xe6\xb2?\x1e\xf1\xdc\xba\x102\xda\xbf\xee\x16\xa9\xc5~\xc2\xdc?[\xf0gK\x02\xdd\xe0?\x007\xc6\x15xU\xd9\xbf\xba\x16\x89`\x1c3\xd4?\xe7\x1a\xb8\x19L\x0e\xd5?\x94\xff\xf7\xd2P9\xce\xbfq9\xc4\xdd\x86h\xd6\xbfP7\x93\r(k\xe7?P!\xf4/\xbc\x1f\xc6\xbf\x9d\xc9\x17\xcf\x87\xa4\x8a?mA \xa9\xfb\x1a\xe4?\xe9\xef;\xa7\n\xa2\xd0\xbf\xa5\x81\xb0\x00\x95-\xad?\xcdyi3\xb9,\xdb\xbf\xa2aZR*\x9b\xe4?.+\x06W\xb5\xe0\xc8\xbf\x9e28\x07\xa3^\xe3\xbf}\xf0\x82\xb0\x82\x82\xdb\xbf\xa5[\xe7.\xbf\x00\xa4?\xd17\xd9$\x01(\xd9?%\x0f&\xcc\xe7R\xce\xbfY\x04\x91`\x9f\x80\xe7?+\x9c\x90i\xed\xae\xe2\xbf?E\x86\xd3\xe4\x8a\xe0?\x8f\xb5\xa0T\xb8=\xac\xbfPK\xede\x99\xb2\xe7?\xe7)\x0c\x0f\xda\x86\xe2\xbft\x14\xf4\x1cI\x86\xc4?\x19\x1el"R\xee\xb2?\xd9\x82\\\xc9\xc3R\xe7\xbff\x05\xae\'\x7f\xf8\xe3?\xf2u(O\xa2\xbe\xbc?\x8d\xe5\x91\x19\xf9Y\xc5?f]O\x8a\x12\xc9\xdb\xbf\xbe\x9d%h\xb1;\xac?9\x0f\x81\xa8\xa5\x10\xe1?\xb5\xbd\xcdv\t\xc6\xd6\xbf\x1d)C\x90Q\xe2\xe2\xbf03;\xe5x\xf4\xe6\xbfYi\xe8\xaeM\xb0\xe1\xbf]yN\x1a_\xb9\xd8?*:\xe7\xa7\xb1g\xe0\xbfw\xdaRJ\xfeA\xd4?\x80\xcf\xab\xf3n\xc7\xd6?\xdd\x0f\xfb\x91\xc10\xe1\xbf\x13\x84g\xa4\x95D\xe6\xbf'
p60
tp61
bssS'transf'
p62
(ineurolab.trans
TanSig
p63
(dp64
bsS'out_minmax'
p65
g18
(g19
(I0
tp66
g21
tp67
Rp68
(I1
(I28
I2
tp69
g28
I00
S'\x00\x00\x00\x00\x00\x00\xf0\xbf\x00\x00\x00\x00\x00\x00\xf0?\x00\x00\x00\x00\x00\x00\xf0\xbf\x00\x00\x00\x00\x00\x00\xf0?\x00\x00\x00\x00\x00\x00\xf0\xbf\x00\x00\x00\x00\x00\x00\xf0?\x00\x00\x00\x00\x00\x00\xf0\xbf\x00\x00\x00\x00\x00\x00\xf0?\x00\x00\x00\x00\x00\x00\xf0\xbf\x00\x00\x00\x00\x00\x00\xf0?\x00\x00\x00\x00\x00\x00\xf0\xbf\x00\x00\x00\x00\x00\x00\xf0?\x00\x00\x00\x00\x00\x00\xf0\xbf\x00\x00\x00\x00\x00\x00\xf0?\x00\x00\x00\x00\x00\x00\xf0\xbf\x00\x00\x00\x00\x00\x00\xf0?\x00\x00\x00\x00\x00\x00\xf0\xbf\x00\x00\x00\x00\x00\x00\xf0?\x00\x00\x00\x00\x00\x00\xf0\xbf\x00\x00\x00\x00\x00\x00\xf0?\x00\x00\x00\x00\x00\x00\xf0\xbf\x00\x00\x00\x00\x00\x00\xf0?\x00\x00\x00\x00\x00\x00\xf0\xbf\x00\x00\x00\x00\x00\x00\xf0?\x00\x00\x00\x00\x00\x00\xf0\xbf\x00\x00\x00\x00\x00\x00\xf0?\x00\x00\x00\x00\x00\x00\xf0\xbf\x00\x00\x00\x00\x00\x00\xf0?\x00\x00\x00\x00\x00\x00\xf0\xbf\x00\x00\x00\x00\x00\x00\xf0?\x00\x00\x00\x00\x00\x00\xf0\xbf\x00\x00\x00\x00\x00\x00\xf0?\x00\x00\x00\x00\x00\x00\xf0\xbf\x00\x00\x00\x00\x00\x00\xf0?\x00\x00\x00\x00\x00\x00\xf0\xbf\x00\x00\x00\x00\x00\x00\xf0?\x00\x00\x00\x00\x00\x00\xf0\xbf\x00\x00\x00\x00\x00\x00\xf0?\x00\x00\x00\x00\x00\x00\xf0\xbf\x00\x00\x00\x00\x00\x00\xf0?\x00\x00\x00\x00\x00\x00\xf0\xbf\x00\x00\x00\x00\x00\x00\xf0?\x00\x00\x00\x00\x00\x00\xf0\xbf\x00\x00\x00\x00\x00\x00\xf0?\x00\x00\x00\x00\x00\x00\xf0\xbf\x00\x00\x00\x00\x00\x00\xf0?\x00\x00\x00\x00\x00\x00\xf0\xbf\x00\x00\x00\x00\x00\x00\xf0?\x00\x00\x00\x00\x00\x00\xf0\xbf\x00\x00\x00\x00\x00\x00\xf0?\x00\x00\x00\x00\x00\x00\xf0\xbf\x00\x00\x00\x00\x00\x00\xf0?\x00\x00\x00\x00\x00\x00\xf0\xbf\x00\x00\x00\x00\x00\x00\xf0?\x00\x00\x00\x00\x00\x00\xf0\xbf\x00\x00\x00\x00\x00\x00\xf0?'
p70
tp71
bsS'out'
p72
g18
(g19
(I0
tp73
g21
tp74
Rp75
(I1
(I28
tp76
g28
I00
S'\x0b\x8f\xaa}\xff\xff\xef\xbf\x0f\xa51z\x02\xf9\xef\xbf*\xba\x8f\xb3\xfc\xff\xef?1?4\r(\x08\xec?\xde\x8a\x86\xcb\x8aD\xee?\xdf\x16\xf1y\xfc\t\xd4\xbf!|\xd5QM\xe9\xee?C_\xb3NH\xf9\xef\xbf\x0eQ5Hh\xd9\xed\xbf\xeeC\xb7\xbbT\x15\xef?2\xa9L\x98%\xb4\xee?Xdh\x99\x92\xd1\xe9\xbf\xda\x80&M\xbb\xbd\xef?\xf4\x1e*5\xab\xfa\xef\xbf\x1fU\xfc\x103\x88\xee?Z-w\xeb\xd5X\xef?Z\xab\x97n\xfb\xd1\xd5\xbft\xf6_\xa6\xb5\xad\xe7\xbfa^\x836\x13\x01\x98\xbf\xe9\xc0q/u\xb0\xef\xbf\x9f2\xea5-`\xe6\xbf[\x974W\x87]\xef?\xcdJ\xe6\x03\xbao\xef?\x87&\xa3\\)\x9e\xb1\xbfD\x04\xa5IM\x99\xef\xbf\x96\xcf\x1ct\xfb\xd6\xef?\xaf]\x81\xb0\xe9\xf6\xef\xbfo\xbb~\x97\xd8\xe4\xef?'
p77
tp78
bsbag0
(g8
g2
Ntp79
Rp80
(dp81
g12
g13
sg14
I28
sg15
I1
sg16
I1
sg17
g18
(g19
(I0
tp82
g21
tp83
Rp84
(I1
(I28
I2
tp85
g28
I00
S'\x00\x00\x00\x00\x00\x00\xf0\xbf\x00\x00\x00\x00\x00\x00\xf0?\x00\x00\x00\x00\x00\x00\xf0\xbf\x00\x00\x00\x00\x00\x00\xf0?\x00\x00\x00\x00\x00\x00\xf0\xbf\x00\x00\x00\x00\x00\x00\xf0?\x00\x00\x00\x00\x00\x00\xf0\xbf\x00\x00\x00\x00\x00\x00\xf0?\x00\x00\x00\x00\x00\x00\xf0\xbf\x00\x00\x00\x00\x00\x00\xf0?\x00\x00\x00\x00\x00\x00\xf0\xbf\x00\x00\x00\x00\x00\x00\xf0?\x00\x00\x00\x00\x00\x00\xf0\xbf\x00\x00\x00\x00\x00\x00\xf0?\x00\x00\x00\x00\x00\x00\xf0\xbf\x00\x00\x00\x00\x00\x00\xf0?\x00\x00\x00\x00\x00\x00\xf0\xbf\x00\x00\x00\x00\x00\x00\xf0?\x00\x00\x00\x00\x00\x00\xf0\xbf\x00\x00\x00\x00\x00\x00\xf0?\x00\x00\x00\x00\x00\x00\xf0\xbf\x00\x00\x00\x00\x00\x00\xf0?\x00\x00\x00\x00\x00\x00\xf0\xbf\x00\x00\x00\x00\x00\x00\xf0?\x00\x00\x00\x00\x00\x00\xf0\xbf\x00\x00\x00\x00\x00\x00\xf0?\x00\x00\x00\x00\x00\x00\xf0\xbf\x00\x00\x00\x00\x00\x00\xf0?\x00\x00\x00\x00\x00\x00\xf0\xbf\x00\x00\x00\x00\x00\x00\xf0?\x00\x00\x00\x00\x00\x00\xf0\xbf\x00\x00\x00\x00\x00\x00\xf0?\x00\x00\x00\x00\x00\x00\xf0\xbf\x00\x00\x00\x00\x00\x00\xf0?\x00\x00\x00\x00\x00\x00\xf0\xbf\x00\x00\x00\x00\x00\x00\xf0?\x00\x00\x00\x00\x00\x00\xf0\xbf\x00\x00\x00\x00\x00\x00\xf0?\x00\x00\x00\x00\x00\x00\xf0\xbf\x00\x00\x00\x00\x00\x00\xf0?\x00\x00\x00\x00\x00\x00\xf0\xbf\x00\x00\x00\x00\x00\x00\xf0?\x00\x00\x00\x00\x00\x00\xf0\xbf\x00\x00\x00\x00\x00\x00\xf0?\x00\x00\x00\x00\x00\x00\xf0\xbf\x00\x00\x00\x00\x00\x00\xf0?\x00\x00\x00\x00\x00\x00\xf0\xbf\x00\x00\x00\x00\x00\x00\xf0?\x00\x00\x00\x00\x00\x00\xf0\xbf\x00\x00\x00\x00\x00\x00\xf0?\x00\x00\x00\x00\x00\x00\xf0\xbf\x00\x00\x00\x00\x00\x00\xf0?\x00\x00\x00\x00\x00\x00\xf0\xbf\x00\x00\x00\x00\x00\x00\xf0?\x00\x00\x00\x00\x00\x00\xf0\xbf\x00\x00\x00\x00\x00\x00\xf0?'
p86
tp87
bsg33
g75
sg40
g18
(g19
(I0
tp88
g21
tp89
Rp90
(I1
(I1
tp91
g28
I00
S'\xcb\xb5N\xbaW\x1a\xe5?'
p92
tp93
bsg47
(dp94
g21
g18
(g19
(I0
tp95
g21
tp96
Rp97
(I1
(I1
tp98
g28
I00
S'\xdf\xa4ZK\xf5\xe3s?'
p99
tp100
bsg55
g18
(g19
(I0
tp101
g21
tp102
Rp103
(I1
(I1
I28
tp104
g28
I00
S'\x8c\x9c1\xd8\xe7\x9f\xb2?)\xc1\xec\xa4\x88O\xce?q\x0b\\\xbd\xd2\x19\xd7\xbf{\x86\x1a\x84G\xad\xd1\xbf\xe0\xb5 C\xe6\x84\xbd?DOUqb\xba\xc5\xbf~)\xaad\t\x10\xa6?\xee\\\xe7\x8agu\xd2\xbf"\xcc\xd9\x99]\xdd\xc0?\xb0\x12Q\xb40\xees\xbf\xae\x19\x0fm_\xa3\xa4\xbfKv"\x89\xb6%\xc1\xbf\xa8\x8f1\x0e3\\\xa6\xbf\xc7\xa8WB{\xfb\xd0\xbf=\xbc\xe3\xad}S\x94?j\xa2\xab\xcd\x92\xe9\xc2?\x17\xd9_I\xcf\xb2\xa4\xbf\x0b\x9f\x1b\xef\x12\n\xc5\xbf\xc8\xea\xd7\x93\xde\xcb\xdd?\x03}x7\x8cy\xbd?7+\xb7;U\xb4\x91?\xe3\xc0\xc2\xf2t]\xd2?\xa3u\xe5\xd6\x16z\x8d?\xc0\xfe\xf1\xbaS\x9d\xc3\xbf\xf5\xad;\xa1\xae\xa8\xae\xbf\xbe\xd9\x8a\x04\x96\xd0\xd7?\xe7=X\x10\xbco\xc1?wW\xbfQ\xc4?\xc3?'
p105
tp106
bssg62
g63
sg65
g18
(g19
(I0
tp107
g21
tp108
Rp109
(I1
(I1
I2
tp110
g28
I00
S'\x00\x00\x00\x00\x00\x00\xf0\xbf\x00\x00\x00\x00\x00\x00\xf0?'
p111
tp112
bsg72
g18
(g19
(I0
tp113
g21
tp114
Rp115
(I1
(I1
tp116
g28
I00
S'\xa6\xa7/\x02\n\x7f\xe2?'
p117
tp118
bsbasg14
I43
sg15
I1
sg17
g18
(g19
(I0
tp119
g21
tp120
Rp121
(I1
(I43
I2
tp122
g28
I00
S'\x00\x00\x00\x00\x00\x00\x00\x00\x00\x00\x00\x00\x00\x00\xf0?\x00\x00\x00\x00\x00\x00\x00\x00\x00\x00\x00\x00\x00\x00\xf0?\x00\x00\x00\x00\x00\x00\x00\x00\x00\x00\x00\x00\x00\x00\xf0?\x00\x00\x00\x00\x00\x00\x00\x00\x00\x00\x00\x00\x00\x00\xf0?\x00\x00\x00\x00\x00\x00\x00\x00\x00\x00\x00\x00\x00\x00\xf0?\x00\x00\x00\x00\x00\x00\x00\x00\x00\x00\x00\x00\x00\x00\xf0?\x00\x00\x00\x00\x00\x00\x00\x00\x00\x00\x00\x00\x00\x00\xf0?\x00\x00\x00\x00\x00\x00\x00\x00\x00\x00\x00\x00\x00\x00\xf0?\x00\x00\x00\x00\x00\x00\x00\x00\x00\x00\x00\x00\x00\x00\xf0?\x00\x00\x00\x00\x00\x00\x00\x00\x00\x00\x00\x00\x00\x00\xf0?\x00\x00\x00\x00\x00\x00\x00\x00\x00\x00\x00\x00\x00\x00\xf0?\x00\x00\x00\x00\x00\x00\x00\x00\x00\x00\x00\x00\x00\x00\xf0?\x00\x00\x00\x00\x00\x00\x00\x00\x00\x00\x00\x00\x00\x00\xf0?\x00\x00\x00\x00\x00\x00\x00\x00\x00\x00\x00\x00\x00\x00\xf0?\x00\x00\x00\x00\x00\x00\x00\x00\x00\x00\x00\x00\x00\x00\xf0?\x00\x00\x00\x00\x00\x00\x00\x00\x00\x00\x00\x00\x00\x00\xf0?\x00\x00\x00\x00\x00\x00\x00\x00\x00\x00\x00\x00\x00\x00\xf0?\x00\x00\x00\x00\x00\x00\x00\x00\x00\x00\x00\x00\x00\x00\xf0?\x00\x00\x00\x00\x00\x00\x00\x00\x00\x00\x00\x00\x00\x00\xf0?\x00\x00\x00\x00\x00\x00\x00\x00\x00\x00\x00\x00\x00\x00\xf0?\x00\x00\x00\x00\x00\x00\x00\x00\x00\x00\x00\x00\x00\x00\xf0?\x00\x00\x00\x00\x00\x00\x00\x00\x00\x00\x00\x00\x00\x00\xf0?\x00\x00\x00\x00\x00\x00\x00\x00\x00\x00\x00\x00\x00\x00\xf0?\x00\x00\x00\x00\x00\x00\x00\x00\x00\x00\x00\x00\x00\x00\xf0?\x00\x00\x00\x00\x00\x00\x00\x00\x00\x00\x00\x00\x00\x00\xf0?\x00\x00\x00\x00\x00\x00\x00\x00\x00\x00\x00\x00\x00\x00\xf0?\x00\x00\x00\x00\x00\x00\x00\x00\x00\x00\x00\x00\x00\x00\xf0?\x00\x00\x00\x00\x00\x00\x00\x00\x00\x00\x00\x00\x00\x00\xf0?\x00\x00\x00\x00\x00\x00\x00\x00\x00\x00\x00\x00\x00\x00\xf0?\x00\x00\x00\x00\x00\x00\x00\x00\x00\x00\x00\x00\x00\x00\xf0?\x00\x00\x00\x00\x00\x00\x00\x00\x00\x00\x00\x00\x00\x00\xf0?\x00\x00\x00\x00\x00\x00\x00\x00\x00\x00\x00\x00\x00\x00\xf0?\x00\x00\x00\x00\x00\x00\x00\x00\x00\x00\x00\x00\x00\x00\xf0?\x00\x00\x00\x00\x00\x00\x00\x00\x00\x00\x00\x00\x00\x00\xf0?\x00\x00\x00\x00\x00\x00\x00\x00\x00\x00\x00\x00\x00\x00\xf0?\x00\x00\x00\x00\x00\x00\x00\x00\x00\x00\x00\x00\x00\x00\xf0?\x00\x00\x00\x00\x00\x00\x00\x00\x00\x00\x00\x00\x00\x00\xf0?\x00\x00\x00\x00\x00\x00\x00\x00\x00\x00\x00\x00\x00\x00\xf0?\x00\x00\x00\x00\x00\x00\x00\x00\x00\x00\x00\x00\x00\x00\xf0?\x00\x00\x00\x00\x00\x00\x00\x00\x00\x00\x00\x00\x00\x00\xf0?\x00\x00\x00\x00\x00\x00\x00\x00\x00\x00\x00\x00\x00\x00\xf0?\x00\x00\x00\x00\x00\x00\x00\x00\x00\x00\x00\x00\x00\x00\xf0?\x00\x00\x00\x00\x00\x00\x00\x00\x00\x00\x00\x00\x00\x00\xf0?'
p123
tp124
bsg33
g36
sS'trainf'
p125
g0
(cneurolab.core
Trainer
p126
g2
Ntp127
Rp128
(dp129
S'_train_class'
p130
cneurolab.train.spo
TrainCG
p131
sS'__module__'
p132
S'neurolab.train.spo'
p133
sS'params'
p134
(dp135
S'epochs'
p136
I6000
sS'train'
p137
(dp138
S'rr'
p139
I0
ssS'goal'
p140
F2e-05
sS'show'
p141
I0
ssS'defaults'
p142
(dp143
g136
I500
sg137
(dp144
g139
I0
ssg140
F0.01
sg141
I100
ssS'error'
p145
(lp146
cnumpy.core.multiarray
scalar
p147
(g28
S'\x97\x89&\xa4\x94\xcfv@'
p148
tp149
Rp150
asS'__name__'
p151
S'TrainCG'
p152
sS'__doc__'
p153
S'\n    Newton-CG method\n    Using scipy.optimize.fmin_ncg\n\n    :Support networks:\n        newff (multi-layers perceptron)\n    :Parameters:\n        input: array like (l x net.ci)\n            train input patterns\n        target: array like (l x net.co)\n            train target patterns\n        epochs: int (default 500)\n            Number of train epochs\n        show: int (default 100)\n            Print period\n        goal: float (default 0.01)\n            The goal of train\n        rr float (defaults 0.0)\n            Regularization ratio\n            Must be between {0, 1}\n        \n    '
p154
sbsS'connect'
p155
(lp156
(lp157
I-1
aa(lp158
I0
aa(lp159
I1
aasS'errorf'
p160
(ineurolab.error
SSE
p161
(dp162
bsg65
g18
(g19
(I0
tp163
g21
tp164
Rp165
(I1
(I1
I2
tp166
g28
I00
S'\x00\x00\x00\x00\x00\x00\xf0\xbf\x00\x00\x00\x00\x00\x00\xf0?'
p167
tp168
bsg72
g115
sb.