Target,Output
'0.0743801652893','0.0743801652893'
'0.099173553719','0.099173553719'
'NA','NA'
'NA','NA'
'0.140495867769','0.140495867769'
'0.095041322314','0.095041322314'
'0.161157024793','0.161157024793'
'0.198347107438','0.198347107438'
'0.169421487603','0.169421487603'
'0.276859504132','0.276859504132'
'0.235537190083','0.235537190083'
'0.417355371901','0.417355371901'
'0.520661157025','0.520661157025'
'NA','NA'
'0.50826446281','0.50826446281'
'0.297520661157','0.297520661157'
'0.0826446280992','0.0826446280992'
'0.392561983471','0.392561983471'
'0.392561983471','0.392561983471'
'0.157024793388','0.157024793388'
'0.0867768595041','0.0867768595041'
'0.095041322314','0.095041322314'
'0.103305785124','0.103305785124'
'0.223140495868','0.223140495868'
'0.165289256198','0.165289256198'
'0.185950413223','0.185950413223'
'0.190082644628','0.190082644628'
'0.152892561983','0.152892561983'
'NA','NA'
'0.103305785124','0.103305785124'
'0.095041322314','0.095041322314'
'0.169421487603','0.169421487603'
'0.202479338843','0.202479338843'
'0.301652892562','0.301652892562'
'0.367768595041','0.367768595041'
'0.632231404959','0.632231404959'
'0.743801652893','0.743801652893'
'NA','NA'
'0.665289256198','0.665289256198'
'0.301652892562','0.301652892562'
'0.177685950413','0.177685950413'
'0.0743801652893','0.0743801652893'
'0.0619834710744','0.0619834710744'
'0.0619834710744','0.0619834710744'
'0.132231404959','0.132231404959'
'0.185950413223','0.185950413223'
'0.132231404959','0.132231404959'
'0.206611570248','0.206611570248'
'0.223140495868','0.223140495868'
'0.206611570248','0.206611570248'
'0.173553719008','0.173553719008'
'0.185950413223','0.185950413223'
'0.152892561983','0.152892561983'
'0.0785123966942','0.0785123966942'
'0.0371900826446','0.0371900826446'
'0.157024793388','0.157024793388'
'0.148760330579','0.148760330579'
'0.264462809917','0.264462809917'
'0.380165289256','0.380165289256'
'0.681818181818','0.681818181818'
'0.673553719008','0.673553719008'
'0.611570247934','0.611570247934'
'0.53305785124','0.53305785124'
'0.293388429752','0.293388429752'
'0.157024793388','0.157024793388'
'0.260330578512','0.260330578512'
'0.351239669421','0.351239669421'
'0.181818181818','0.181818181818'
'0.227272727273','0.227272727273'
'0.190082644628','0.190082644628'
'0.194214876033','0.194214876033'
'0.214876033058','0.214876033058'
'0.165289256198','0.165289256198'
'0.169421487603','0.169421487603'
'0.173553719008','0.173553719008'
'0.181818181818','0.181818181818'
'0.194214876033','0.194214876033'
'0.111570247934','0.111570247934'
'0.0619834710744','0.0619834710744'
'0.144628099174','0.144628099174'
'0.227272727273','0.227272727273'
'0.173553719008','0.173553719008'
'0.223140495868','0.223140495868'
'0.252066115702','0.252066115702'
'0.301652892562','0.301652892562'
'0.421487603306','0.421487603306'
'0.425619834711','0.425619834711'
'0.219008264463','0.219008264463'
'0.115702479339','0.115702479339'
'0.132231404959','0.132231404959'
'0.231404958678','0.231404958678'
'0.231404958678','0.231404958678'
'0.202479338843','0.202479338843'
'0.0619834710744','0.0619834710744'
'0.144628099174','0.144628099174'
'0.152892561983','0.152892561983'
'0.161157024793','0.161157024793'
'0.227272727273','0.227272727273'
'0.214876033058','0.214876033058'
'0.173553719008','0.173553719008'
'0.128099173554','0.128099173554'
'0.099173553719','0.099173553719'
'0.0578512396694','0.0578512396694'
'0.0743801652893','0.0743801652893'
'0.231404958678','0.231404958678'
'0.785123966942','0.785123966942'
'0.838842975207','0.838842975207'
'0.801652892562','0.801652892562'
'0.640495867769','0.640495867769'
'0.611570247934','0.611570247934'
'0.615702479339','0.615702479339'
'0.388429752066','0.388429752066'
'0.0826446280992','0.0826446280992'
'0.0661157024793','0.0661157024793'
'0.0289256198347','0.0289256198347'
'0.0330578512397','0.0330578512397'
'0.103305785124','0.103305785124'
'0.095041322314','0.095041322314'
'0.099173553719','0.099173553719'
'0.223140495868','0.223140495868'
'0.190082644628','0.190082644628'
'0.198347107438','0.198347107438'
'0.185950413223','0.185950413223'
'0.190082644628','0.190082644628'
'0.144628099174','0.144628099174'
'0.0578512396694','0.0578512396694'
'0.123966942149','0.123966942149'
'0.107438016529','0.107438016529'
'0.206611570248','0.206611570248'
'0.438016528926','0.438016528926'
'0.636363636364','0.636363636364'
'0.561983471074','0.561983471074'
'0.636363636364','0.636363636364'
'0.743801652893','0.743801652893'
'0.53305785124','0.53305785124'
'0.210743801653','0.210743801653'
'0.140495867769','0.140495867769'
'0.0702479338843','0.0702479338843'
'0.0495867768595','0.0495867768595'
'0.0413223140496','0.0413223140496'
'0.148760330579','0.148760330579'
'0.202479338843','0.202479338843'
'0.206611570248','0.206611570248'
'0.239669421488','0.239669421488'
'0.202479338843','0.202479338843'
'0.194214876033','0.194214876033'
'0.169421487603','0.169421487603'
'0.206611570248','0.206611570248'
'0.157024793388','0.157024793388'
'0.210743801653','0.210743801653'
'0.190082644628','0.190082644628'
'0.293388429752','0.293388429752'
'0.268595041322','0.268595041322'
'0.223140495868','0.223140495868'
'0.227272727273','0.227272727273'
'0.301652892562','0.301652892562'
'0.309917355372','0.309917355372'
'0.599173553719','0.599173553719'
'0.661157024793','0.661157024793'
'0.48347107438','0.48347107438'
'0.185950413223','0.185950413223'
'0.0826446280992','0.0826446280992'
'0.107438016529','0.107438016529'
'0.0867768595041','0.0867768595041'
'0.0743801652893','0.0743801652893'
'0.00413223140496','0.00413223140496'
'0.0826446280992','0.0826446280992'
'0.00413223140496','0.00413223140496'
'0.190082644628','0.190082644628'
'0.152892561983','0.152892561983'
'0.181818181818','0.181818181818'
'0.214876033058','0.214876033058'
'0.194214876033','0.194214876033'
'0.152892561983','0.152892561983'
'0.235537190083','0.235537190083'
'0.227272727273','0.227272727273'
'0.206611570248','0.206611570248'
'0.206611570248','0.206611570248'
'0.227272727273','0.227272727273'
'0.169421487603','0.169421487603'
'0.177685950413','0.177685950413'
'0.280991735537','0.280991735537'
'0.227272727273','0.227272727273'
'0.355371900826','0.355371900826'
'0.173553719008','0.173553719008'
'0.0661157024793','0.0661157024793'
'0.132231404959','0.132231404959'
'0.103305785124','0.103305785124'
'0.0785123966942','0.0785123966942'
'0.0785123966942','0.0785123966942'
'0.190082644628','0.190082644628'
'0.165289256198','0.165289256198'
'0.111570247934','0.111570247934'
'0.119834710744','0.119834710744'
'0.136363636364','0.136363636364'
'0.165289256198','0.165289256198'
'0.119834710744','0.119834710744'
'0.136363636364','0.136363636364'
'0.161157024793','0.161157024793'
'0.161157024793','0.161157024793'
'0.123966942149','0.123966942149'
'0.161157024793','0.161157024793'
'0.268595041322','0.268595041322'
'0.272727272727','0.272727272727'
'0.376033057851','0.376033057851'
'0.396694214876','0.396694214876'
'0.628099173554','0.628099173554'
'0.644628099174','0.644628099174'
'0.206611570248','0.206611570248'
'0.0454545454545','0.0454545454545'
'0.161157024793','0.161157024793'
'0.152892561983','0.152892561983'
'0.0619834710744','0.0619834710744'
'0.0537190082645','0.0537190082645'
'0.0619834710744','0.0619834710744'
'0.198347107438','0.198347107438'
'0.165289256198','0.165289256198'
'0.157024793388','0.157024793388'
'0.165289256198','0.165289256198'
'0.152892561983','0.152892561983'
'0.194214876033','0.194214876033'
'0.173553719008','0.173553719008'
'0.177685950413','0.177685950413'
'0.243801652893','0.243801652893'
'0.206611570248','0.206611570248'
'0.280991735537','0.280991735537'
'0.363636363636','0.363636363636'
'0.409090909091','0.409090909091'
'0.417355371901','0.417355371901'
'0.595041322314','0.595041322314'
'0.719008264463','0.719008264463'
'0.561983471074','0.561983471074'
'0.351239669421','0.351239669421'
'0.252066115702','0.252066115702'
'0.268595041322','0.268595041322'
'0.239669421488','0.239669421488'
'0.359504132231','0.359504132231'
'0.115702479339','0.115702479339'
'0.103305785124','0.103305785124'
'0.128099173554','0.128099173554'
'0.173553719008','0.173553719008'
'0.177685950413','0.177685950413'
'0.140495867769','0.140495867769'
'0.152892561983','0.152892561983'
'0.111570247934','0.111570247934'
'0.0661157024793','0.0661157024793'
'0.111570247934','0.111570247934'
'0.103305785124','0.103305785124'
'0.173553719008','0.173553719008'
'0.165289256198','0.165289256198'
'0.285123966942','0.285123966942'
'0.342975206612','0.342975206612'
'0.595041322314','0.595041322314'
'0.743801652893','0.743801652893'
'0.818181818182','0.818181818182'
'0.607438016529','0.607438016529'
'0.363636363636','0.363636363636'
'0.181818181818','0.181818181818'
'0.247933884298','0.247933884298'
'0.314049586777','0.314049586777'
'0.161157024793','0.161157024793'
'0.0371900826446','0.0371900826446'
'0.0619834710744','0.0619834710744'
'0.140495867769','0.140495867769'
'0.128099173554','0.128099173554'
'0.132231404959','0.132231404959'
'0.148760330579','0.148760330579'
'0.0495867768595','0.0495867768595'
'0.0661157024793','0.0661157024793'
'0.123966942149','0.123966942149'
'0.103305785124','0.103305785124'
'0.152892561983','0.152892561983'
'0.140495867769','0.140495867769'
'0.194214876033','0.194214876033'
'0.471074380165','0.471074380165'
'0.396694214876','0.396694214876'
'0.512396694215','0.512396694215'
'0.512396694215','0.512396694215'
'0.380165289256','0.380165289256'
'0.280991735537','0.280991735537'
'0.260330578512','0.260330578512'
'0.243801652893','0.243801652893'
'0.169421487603','0.169421487603'
'0.417355371901','0.417355371901'
'0.285123966942','0.285123966942'
'0.0909090909091','0.0909090909091'
'0.0909090909091','0.0909090909091'
'0.144628099174','0.144628099174'
'0.190082644628','0.190082644628'
'0.0785123966942','0.0785123966942'
'0.115702479339','0.115702479339'
'0.202479338843','0.202479338843'
'0.128099173554','0.128099173554'
'0.161157024793','0.161157024793'
'0.210743801653','0.210743801653'
'0.247933884298','0.247933884298'
'0.252066115702','0.252066115702'
'0.190082644628','0.190082644628'
'0.289256198347','0.289256198347'
'0.47520661157','0.47520661157'
'0.636363636364','0.636363636364'
'0.747933884298','0.747933884298'
'0.657024793388','0.657024793388'
'0.417355371901','0.417355371901'
'0.417355371901','0.417355371901'
'0.256198347107','0.256198347107'
'0.132231404959','0.132231404959'
'0.123966942149','0.123966942149'
'0.0495867768595','0.0495867768595'
'0.161157024793','0.161157024793'
'0.0743801652893','0.0743801652893'
'0.289256198347','0.289256198347'
'0.177685950413','0.177685950413'
'0.0537190082645','0.0537190082645'
'0.111570247934','0.111570247934'
'0.305785123967','0.305785123967'
'0.161157024793','0.161157024793'
'0.223140495868','0.223140495868'
'0.099173553719','0.099173553719'
'0.132231404959','0.132231404959'
'0.123966942149','0.123966942149'
'0.152892561983','0.152892561983'
'0.136363636364','0.136363636364'
'0.198347107438','0.198347107438'
'0.239669421488','0.239669421488'
'0.219008264463','0.219008264463'
'0.136363636364','0.136363636364'
'0.173553719008','0.173553719008'
'0.111570247934','0.111570247934'
'0.107438016529','0.107438016529'
'0.140495867769','0.140495867769'
'0.177685950413','0.177685950413'
'0.115702479339','0.115702479339'
'0.0909090909091','0.0909090909091'
'0.0661157024793','0.0661157024793'
'0.103305785124','0.103305785124'
'0.169421487603','0.169421487603'
'0.128099173554','0.128099173554'
'0.107438016529','0.107438016529'
'0.0826446280992','0.0826446280992'
'0.095041322314','0.095041322314'
'0.123966942149','0.123966942149'
'0.148760330579','0.148760330579'
'0.107438016529','0.107438016529'
'0.115702479339','0.115702479339'
'0.198347107438','0.198347107438'
'0.0743801652893','0.0743801652893'
'0.289256198347','0.289256198347'
'0.173553719008','0.173553719008'
'0.194214876033','0.194214876033'
'0.0495867768595','0.0495867768595'
'0.0289256198347','0.0289256198347'
'0.268595041322','0.268595041322'
'0.157024793388','0.157024793388'
'0.173553719008','0.173553719008'
'0.185950413223','0.185950413223'
'0.198347107438','0.198347107438'
'0.136363636364','0.136363636364'
'0.095041322314','0.095041322314'
'0.144628099174','0.144628099174'
'0.140495867769','0.140495867769'
'0.194214876033','0.194214876033'
'0.231404958678','0.231404958678'
'0.223140495868','0.223140495868'
'0.144628099174','0.144628099174'
'0.107438016529','0.107438016529'
'0.157024793388','0.157024793388'
'0.247933884298','0.247933884298'
'0.206611570248','0.206611570248'
'0.165289256198','0.165289256198'
'0.198347107438','0.198347107438'
'0.161157024793','0.161157024793'
'0.388429752066','0.388429752066'
'0.190082644628','0.190082644628'
'0.177685950413','0.177685950413'
'0.0619834710744','0.0619834710744'
'0.0537190082645','0.0537190082645'
'0.157024793388','0.157024793388'
'0.276859504132','0.276859504132'
'0.239669421488','0.239669421488'
'0.305785123967','0.305785123967'
'0.280991735537','0.280991735537'
'0.272727272727','0.272727272727'
'0.293388429752','0.293388429752'
'0.161157024793','0.161157024793'
'0.289256198347','0.289256198347'
'0.657024793388','0.657024793388'
'0.119834710744','0.119834710744'
'0.136363636364','0.136363636364'
'0.285123966942','0.285123966942'
'0.285123966942','0.285123966942'
'0.247933884298','0.247933884298'
'0.231404958678','0.231404958678'
'0.173553719008','0.173553719008'
'0.181818181818','0.181818181818'
'0.433884297521','0.433884297521'
'0.280991735537','0.280991735537'
'0.280991735537','0.280991735537'
'0.570247933884','0.570247933884'
'0.640495867769','0.640495867769'
'0.380165289256','0.380165289256'
'0.136363636364','0.136363636364'
'0.5','0.5'
'0.326446280992','0.326446280992'
'0.119834710744','0.119834710744'
'0.115702479339','0.115702479339'
'0.107438016529','0.107438016529'
'0.148760330579','0.148760330579'
'0.161157024793','0.161157024793'
'0.144628099174','0.144628099174'
'0.301652892562','0.301652892562'
'0.148760330579','0.148760330579'
'0.165289256198','0.165289256198'
'0.169421487603','0.169421487603'
'0.268595041322','0.268595041322'
'0.239669421488','0.239669421488'
'0.243801652893','0.243801652893'
'0.161157024793','0.161157024793'
'0.165289256198','0.165289256198'
'0.194214876033','0.194214876033'
'0.235537190083','0.235537190083'
'0.169421487603','0.169421487603'
'0.111570247934','0.111570247934'
'0.173553719008','0.173553719008'
'0.161157024793','0.161157024793'
'0.128099173554','0.128099173554'
'0.152892561983','0.152892561983'
'0.181818181818','0.181818181818'
'0.185950413223','0.185950413223'
'0.169421487603','0.169421487603'
'0.157024793388','0.157024793388'
'0.148760330579','0.148760330579'
'0.190082644628','0.190082644628'
'0.231404958678','0.231404958678'
'0.123966942149','0.123966942149'
'0.136363636364','0.136363636364'
'0.148760330579','0.148760330579'
'0.148760330579','0.148760330579'
'0.227272727273','0.227272727273'
'0.181818181818','0.181818181818'
'0.185950413223','0.185950413223'
'0.148760330579','0.148760330579'
'0.123966942149','0.123966942149'
'0.380165289256','0.380165289256'
'0.388429752066','0.388429752066'
'0.285123966942','0.285123966942'
'0.301652892562','0.301652892562'
'0.0495867768595','0.0495867768595'
'0.194214876033','0.194214876033'
'0.214876033058','0.214876033058'
'0.157024793388','0.157024793388'
'0.140495867769','0.140495867769'
'0.177685950413','0.177685950413'
'0.181818181818','0.181818181818'
'0.165289256198','0.165289256198'
'0.140495867769','0.140495867769'
'0.148760330579','0.148760330579'
'0.169421487603','0.169421487603'
'0.157024793388','0.157024793388'
'0.190082644628','0.190082644628'
'0.173553719008','0.173553719008'
'0.128099173554','0.128099173554'
'0.115702479339','0.115702479339'
'0.0578512396694','0.0578512396694'
'0.140495867769','0.140495867769'
'0.198347107438','0.198347107438'
'0.260330578512','0.260330578512'
'0.342975206612','0.342975206612'
'0.425619834711','0.425619834711'
'0.595041322314','0.595041322314'
'0.619834710744','0.619834710744'
'0.392561983471','0.392561983471'
'0.095041322314','0.095041322314'
'0.359504132231','0.359504132231'
'0.603305785124','0.603305785124'
'0.363636363636','0.363636363636'
'0.239669421488','0.239669421488'
'0.107438016529','0.107438016529'
'0.0413223140496','0.0413223140496'
'0.0371900826446','0.0371900826446'
'0.0413223140496','0.0413223140496'
'0.0743801652893','0.0743801652893'
'0.0661157024793','0.0661157024793'
'0.219008264463','0.219008264463'
'0.181818181818','0.181818181818'
'0.095041322314','0.095041322314'
'0.0371900826446','0.0371900826446'
'0.148760330579','0.148760330579'
'0.219008264463','0.219008264463'
'0.264462809917','0.264462809917'
'0.330578512397','0.330578512397'
'0.611570247934','0.611570247934'
'0.801652892562','0.801652892562'
'0.954545454545','0.954545454545'
'0.702479338843','0.702479338843'
'0.359504132231','0.359504132231'
'0.309917355372','0.309917355372'
'0.334710743802','0.334710743802'
'0.0785123966942','0.0785123966942'
'0.099173553719','0.099173553719'
'0.136363636364','0.136363636364'
'0.095041322314','0.095041322314'
'0.152892561983','0.152892561983'
'0.144628099174','0.144628099174'
'0.0454545454545','0.0454545454545'
'0.0537190082645','0.0537190082645'
'0.190082644628','0.190082644628'
'0.223140495868','0.223140495868'
'0.0578512396694','0.0578512396694'
'0.136363636364','0.136363636364'
'0.190082644628','0.190082644628'
'0.243801652893','0.243801652893'
'0.239669421488','0.239669421488'
'0.169421487603','0.169421487603'
'0.309917355372','0.309917355372'
'0.272727272727','0.272727272727'
'0.190082644628','0.190082644628'
'0.314049586777','0.314049586777'
'0.165289256198','0.165289256198'
'0.326446280992','0.326446280992'
'0.119834710744','0.119834710744'
'0.0785123966942','0.0785123966942'
'0.0619834710744','0.0619834710744'
'0.0413223140496','0.0413223140496'
'0.0495867768595','0.0495867768595'
'0.0661157024793','0.0661157024793'
'0.0413223140496','0.0413223140496'
'0.0495867768595','0.0495867768595'
'0.0619834710744','0.0619834710744'
'0.099173553719','0.099173553719'
'0.157024793388','0.157024793388'
'0.107438016529','0.107438016529'
'0.115702479339','0.115702479339'
'0.165289256198','0.165289256198'
'0.235537190083','0.235537190083'
'0.214876033058','0.214876033058'
'0.115702479339','0.115702479339'
'0.235537190083','0.235537190083'
'0.309917355372','0.309917355372'
'0.400826446281','0.400826446281'
'0.607438016529','0.607438016529'
'0.727272727273','0.727272727273'
'0.880165289256','0.880165289256'
'0.557851239669','0.557851239669'
'0.181818181818','0.181818181818'
'0.132231404959','0.132231404959'
'0.095041322314','0.095041322314'
'NA','0.146023718799'
'0.144628099174','0.144628099174'
'0.161157024793','0.161157024793'
'NA','0.134719295664'
'0.0702479338843','0.0702479338843'
'0.0578512396694','0.0578512396694'
'0.0123966942149','0.0123966942149'
'0.0867768595041','0.0867768595041'
'0.144628099174','0.144628099174'
'0.107438016529','0.107438016529'
'0.0702479338843','0.0702479338843'
'0.140495867769','0.140495867769'
'0.173553719008','0.173553719008'
'0.421487603306','0.421487603306'
'0.855371900826','0.855371900826'
'0.904958677686','0.904958677686'
'0.743801652893','0.743801652893'
'0.830578512397','0.830578512397'
'0.904958677686','0.904958677686'
'0.719008264463','0.719008264463'
'0.599173553719','0.599173553719'
'0.293388429752','0.293388429752'
'NA','0.121563570184'
'0.0909090909091','0.0909090909091'
'0.0785123966942','0.0785123966942'
'0.0619834710744','0.0619834710744'
'0.0785123966942','0.0785123966942'
'0.0826446280992','0.0826446280992'
'0.128099173554','0.128099173554'
'0.223140495868','0.223140495868'
'0.132231404959','0.132231404959'
'0.181818181818','0.181818181818'
'0.326446280992','0.326446280992'
'0.210743801653','0.210743801653'
'0.380165289256','0.380165289256'
'0.219008264463','0.219008264463'
'NA','0.297955276115'
'0.305785123967','0.305785123967'
'0.148760330579','0.148760330579'
'0.161157024793','0.161157024793'
'0.214876033058','0.214876033058'
'0.198347107438','0.198347107438'
'0.342975206612','0.342975206612'
'0.293388429752','0.293388429752'
'0.107438016529','0.107438016529'
'0.169421487603','0.169421487603'
'NA','-0.0170985270788'
'0.169421487603','0.169421487603'
'0.119834710744','0.119834710744'
'0.173553719008','0.173553719008'
'0.132231404959','0.132231404959'
'0.152892561983','0.152892561983'
'0.181818181818','0.181818181818'
'0.190082644628','0.190082644628'
'NA','0.142660793301'
'0.148760330579','0.148760330579'
'NA','0.163621491758'
'0.185950413223','0.185950413223'
'0.0619834710744','0.0619834710744'
'0.144628099174','0.144628099174'
'0.239669421488','0.239669421488'
'0.198347107438','0.198347107438'
'0.264462809917','0.264462809917'
'0.318181818182','0.318181818182'
'0.623966942149','0.623966942149'
'0.739669421488','0.739669421488'
'0.677685950413','0.677685950413'
'0.648760330579','0.648760330579'
'0.318181818182','0.318181818182'
'NA','0.156140593394'
'0.115702479339','0.115702479339'
'0.318181818182','0.318181818182'
'0.305785123967','0.305785123967'
'0.0867768595041','0.0867768595041'
'0.111570247934','0.111570247934'
'0.223140495868','0.223140495868'
'0.367768595041','0.367768595041'
'0.219008264463','0.219008264463'
'0.0578512396694','0.0578512396694'
'0.0','0.0'
'0.0785123966942','0.0785123966942'
'NA','0.160058111171'
'0.0826446280992','0.0826446280992'
'0.119834710744','0.119834710744'
'NA','0.203656944478'
'0.210743801653','0.210743801653'
'0.252066115702','0.252066115702'
'0.553719008264','0.553719008264'
'0.553719008264','0.553719008264'
'NA','0.65189753593'
'0.528925619835','0.528925619835'
'0.487603305785','0.487603305785'
'0.392561983471','0.392561983471'
'0.0537190082645','0.0537190082645'
'NA','0.117395316637'
'NA','0.166721790477'
'NA','0.167170676115'
'NA','0.135903124398'
'NA','0.127151985845'
'NA','0.140797811245'
'NA','0.172412257428'
'NA','0.161089460952'
'NA','0.0814796458613'
'NA','0.1009519147'
'NA','0.171568911642'
'NA','0.179846507772'
'NA','0.190161061049'
'NA','0.199593608547'
'NA','0.209062091934'
'NA','0.223230497952'
'NA','0.288744829187'
'NA','0.369060862831'
'NA','0.488865714645'
'NA','0.531802893562'
'NA','0.53742514235'
'NA','0.509702934055'
'NA','0.377603370283'
'NA','0.280655569508'
'0.293388429752','0.293388429752'
'0.194214876033','0.194214876033'
'0.0785123966942','0.0785123966942'
'0.194214876033','0.194214876033'
'0.161157024793','0.161157024793'
'0.095041322314','0.095041322314'
'NA','0.141429806215'
'NA','0.15085415632'
'NA','0.123432406466'
'NA','0.130679154111'
'NA','0.191912146223'
'NA','0.186624750632'
'NA','0.210653651151'
'NA','0.2617995843'
'NA','0.26074200917'
'NA','0.299064794392'
'NA','0.363270721728'
'NA','0.431402291483'
'0.326446280992','0.326446280992'
'0.582644628099','0.582644628099'
'0.719008264463','0.719008264463'
'NA','0.641572748519'
'0.404958677686','0.404958677686'
'0.256198347107','0.256198347107'
'0.123966942149','0.123966942149'
'0.0826446280992','0.0826446280992'
'NA','0.150419204598'
'NA','0.147066731131'
'NA','0.154574483586'
'NA','0.145655196707'
'NA','0.148105585813'
'NA','0.1602617057'
'NA','0.169630104847'
'NA','0.186288894021'
'NA','0.160633091438'
'NA','0.158969490265'
'NA','0.212465365748'
'0.0867768595041','0.0867768595041'
'0.190082644628','0.190082644628'
'NA','0.245227566912'
'NA','0.301798208785'
'NA','0.328289963482'
'NA','0.422921750563'
'NA','0.500575914508'
'NA','0.555837934988'
'NA','0.553253767713'
'NA','0.439582676527'
'NA','0.296854079307'
'NA','0.17510339646'
'NA','0.171315559181'
'0.235537190083','0.235537190083'
'0.190082644628','0.190082644628'
'0.194214876033','0.194214876033'
'NA','0.169748945767'
'0.128099173554','0.128099173554'
'0.152892561983','0.152892561983'
'0.161157024793','0.161157024793'
'0.214876033058','0.214876033058'
'0.231404958678','0.231404958678'
'0.330578512397','0.330578512397'
'0.396694214876','0.396694214876'
'0.330578512397','0.330578512397'
'0.380165289256','0.380165289256'
'0.342975206612','0.342975206612'
'0.239669421488','0.239669421488'
'0.256198347107','0.256198347107'
'0.194214876033','0.194214876033'
'0.293388429752','0.293388429752'
'0.780991735537','0.780991735537'
'0.561983471074','0.561983471074'
'0.342975206612','0.342975206612'
'0.322314049587','0.322314049587'
'0.322314049587','0.322314049587'
'0.136363636364','0.136363636364'
'0.330578512397','0.330578512397'
'0.181818181818','0.181818181818'
'0.0578512396694','0.0578512396694'
'0.0537190082645','0.0537190082645'
'0.0661157024793','0.0661157024793'
'0.111570247934','0.111570247934'
'0.0619834710744','0.0619834710744'
'0.0537190082645','0.0537190082645'
'0.095041322314','0.095041322314'
'0.210743801653','0.210743801653'
'0.177685950413','0.177685950413'
'0.099173553719','0.099173553719'
'0.119834710744','0.119834710744'
'0.280991735537','0.280991735537'
'0.223140495868','0.223140495868'
'0.185950413223','0.185950413223'
'0.334710743802','0.334710743802'
'0.359504132231','0.359504132231'
'0.342975206612','0.342975206612'
'0.326446280992','0.326446280992'
'0.214876033058','0.214876033058'
'0.095041322314','0.095041322314'
'0.0661157024793','0.0661157024793'
'0.0867768595041','0.0867768595041'
'0.165289256198','0.165289256198'
'0.157024793388','0.157024793388'
'0.157024793388','0.157024793388'
'0.132231404959','0.132231404959'
'0.0537190082645','0.0537190082645'
'0.0702479338843','0.0702479338843'
'0.140495867769','0.140495867769'
'0.103305785124','0.103305785124'
'0.0619834710744','0.0619834710744'
'0.0165289256198','0.0165289256198'
'0.0495867768595','0.0495867768595'
'0.095041322314','0.095041322314'
'0.157024793388','0.157024793388'
'0.190082644628','0.190082644628'
'0.252066115702','0.252066115702'
'0.309917355372','0.309917355372'
'0.388429752066','0.388429752066'
'0.396694214876','0.396694214876'
'0.49173553719','0.49173553719'
'0.462809917355','0.462809917355'
'0.210743801653','0.210743801653'
'0.276859504132','0.276859504132'
'0.123966942149','0.123966942149'
'0.169421487603','0.169421487603'
'0.363636363636','0.363636363636'
'0.231404958678','0.231404958678'
'0.326446280992','0.326446280992'
'0.0495867768595','0.0495867768595'
'0.0785123966942','0.0785123966942'
'0.0661157024793','0.0661157024793'
'0.173553719008','0.173553719008'
'0.115702479339','0.115702479339'
'0.169421487603','0.169421487603'
'0.136363636364','0.136363636364'
'0.115702479339','0.115702479339'
'0.152892561983','0.152892561983'
'0.107438016529','0.107438016529'
'0.152892561983','0.152892561983'
'0.190082644628','0.190082644628'
'0.314049586777','0.314049586777'
'0.545454545455','0.545454545455'
'0.611570247934','0.611570247934'
'0.714876033058','0.714876033058'
'0.599173553719','0.599173553719'
'0.479338842975','0.479338842975'
'0.342975206612','0.342975206612'
'0.421487603306','0.421487603306'
'0.557851239669','0.557851239669'
'0.5','0.5'
'0.351239669421','0.351239669421'
'0.0826446280992','0.0826446280992'
'0.099173553719','0.099173553719'
'0.0330578512397','0.0330578512397'
'0.0661157024793','0.0661157024793'
'0.202479338843','0.202479338843'
'0.161157024793','0.161157024793'
'0.136363636364','0.136363636364'
'0.132231404959','0.132231404959'
'0.103305785124','0.103305785124'
'0.0661157024793','0.0661157024793'
'0.119834710744','0.119834710744'
'0.206611570248','0.206611570248'
'0.243801652893','0.243801652893'
'0.409090909091','0.409090909091'
'0.49173553719','0.49173553719'
'0.566115702479','0.566115702479'
'0.599173553719','0.599173553719'
'0.537190082645','0.537190082645'
'0.355371900826','0.355371900826'
'0.0826446280992','0.0826446280992'
'0.0330578512397','0.0330578512397'
'0.152892561983','0.152892561983'
'0.239669421488','0.239669421488'
'0.198347107438','0.198347107438'
'0.144628099174','0.144628099174'
'0.198347107438','0.198347107438'
'0.169421487603','0.169421487603'
'0.185950413223','0.185950413223'
'0.185950413223','0.185950413223'
'0.173553719008','0.173553719008'
'0.148760330579','0.148760330579'
'0.136363636364','0.136363636364'
'0.0619834710744','0.0619834710744'
'0.0495867768595','0.0495867768595'
'0.198347107438','0.198347107438'
'0.557851239669','0.557851239669'
'0.673553719008','0.673553719008'
'0.814049586777','0.814049586777'
'0.743801652893','0.743801652893'
'0.665289256198','0.665289256198'
'0.611570247934','0.611570247934'
'0.582644628099','0.582644628099'
'0.413223140496','0.413223140496'
'0.252066115702','0.252066115702'
'0.297520661157','0.297520661157'
'0.289256198347','0.289256198347'
'0.219008264463','0.219008264463'
'0.173553719008','0.173553719008'
'0.334710743802','0.334710743802'
'0.115702479339','0.115702479339'
'0.140495867769','0.140495867769'
'0.0785123966942','0.0785123966942'
'0.0826446280992','0.0826446280992'
'0.107438016529','0.107438016529'
'0.243801652893','0.243801652893'
'0.305785123967','0.305785123967'
'0.177685950413','0.177685950413'
'0.185950413223','0.185950413223'
'0.404958677686','0.404958677686'
'0.561983471074','0.561983471074'
'0.714876033058','0.714876033058'
'0.528925619835','0.528925619835'
'0.314049586777','0.314049586777'
'0.243801652893','0.243801652893'
'0.293388429752','0.293388429752'
'0.314049586777','0.314049586777'
'0.223140495868','0.223140495868'
'0.198347107438','0.198347107438'
'0.173553719008','0.173553719008'
'0.177685950413','0.177685950413'
'0.173553719008','0.173553719008'
'0.214876033058','0.214876033058'
'0.185950413223','0.185950413223'
'0.169421487603','0.169421487603'
'0.119834710744','0.119834710744'
'0.132231404959','0.132231404959'
'0.136363636364','0.136363636364'
'0.144628099174','0.144628099174'
'0.157024793388','0.157024793388'
'0.144628099174','0.144628099174'
'0.148760330579','0.148760330579'
'0.202479338843','0.202479338843'
'0.202479338843','0.202479338843'
'0.206611570248','0.206611570248'
'0.181818181818','0.181818181818'
'0.285123966942','0.285123966942'
'0.446280991736','0.446280991736'
'0.776859504132','0.776859504132'
'0.644628099174','0.644628099174'
'0.661157024793','0.661157024793'
'0.45867768595','0.45867768595'
'0.194214876033','0.194214876033'
'0.247933884298','0.247933884298'
'0.0743801652893','0.0743801652893'
'0.239669421488','0.239669421488'
'0.289256198347','0.289256198347'
'0.148760330579','0.148760330579'
'0.0454545454545','0.0454545454545'
'0.0495867768595','0.0495867768595'
'0.140495867769','0.140495867769'
'0.219008264463','0.219008264463'
'0.165289256198','0.165289256198'
'0.198347107438','0.198347107438'
'0.181818181818','0.181818181818'
'0.210743801653','0.210743801653'
'0.123966942149','0.123966942149'
'0.223140495868','0.223140495868'
'0.210743801653','0.210743801653'
'0.342975206612','0.342975206612'
'0.359504132231','0.359504132231'
'0.438016528926','0.438016528926'
'0.487603305785','0.487603305785'
'0.545454545455','0.545454545455'
'0.537190082645','0.537190082645'
'0.363636363636','0.363636363636'
'0.0413223140496','0.0413223140496'
'0.0371900826446','0.0371900826446'
'NA','0.164744258552'
'0.157024793388','0.157024793388'
'0.190082644628','0.190082644628'
'0.206611570248','0.206611570248'
'NA','0.122754649128'
'NA','0.0821039509178'
'NA','0.156674782203'
'NA','0.176517743903'
'NA','0.195285740052'
'NA','0.21054849372'
'NA','0.202932226028'
'0.227272727273','0.227272727273'
'NA','0.216460323987'
'NA','0.200712867497'
'NA','0.265971342965'
'NA','0.32633733398'
'NA','0.390604749373'
'NA','0.486904521676'
'NA','0.512945454557'
'0.462809917355','0.462809917355'
'0.438016528926','0.438016528926'
'NA','0.334510676613'
'NA','0.205041074908'
'NA','0.153716510707'
'NA','0.17861663793'
'NA','0.199951785013'
'NA','0.189729192512'
'NA','0.18575677508'
'NA','0.153889976471'
'NA','0.150788101525'
'NA','0.15331770249'
'0.177685950413','0.177685950413'
'0.103305785124','0.103305785124'
'0.157024793388','0.157024793388'
'0.136363636364','0.136363636364'
'0.123966942149','0.123966942149'
'0.0661157024793','0.0661157024793'
'0.0909090909091','0.0909090909091'
'0.181818181818','0.181818181818'
'0.326446280992','0.326446280992'
'NA','0.376791586182'
'0.628099173554','0.628099173554'
'0.731404958678','0.731404958678'
'0.760330578512','0.760330578512'
'0.785123966942','0.785123966942'
'0.578512396694','0.578512396694'
'0.367768595041','0.367768595041'
'0.256198347107','0.256198347107'
'0.351239669421','0.351239669421'
'NA','0.213526550013'
'NA','0.169621158682'
'NA','0.142143074285'
'0.206611570248','0.206611570248'
'0.152892561983','0.152892561983'
'0.144628099174','0.144628099174'
'0.165289256198','0.165289256198'
'0.177685950413','0.177685950413'
'0.136363636364','0.136363636364'
'0.144628099174','0.144628099174'
'0.0826446280992','0.0826446280992'
'0.227272727273','0.227272727273'
'0.239669421488','0.239669421488'
'0.318181818182','0.318181818182'
'0.710743801653','0.710743801653'
'0.830578512397','0.830578512397'
'0.896694214876','0.896694214876'
'0.921487603306','0.921487603306'
'0.752066115702','0.752066115702'
'0.834710743802','0.834710743802'
'0.504132231405','0.504132231405'
'0.252066115702','0.252066115702'
'0.260330578512','0.260330578512'
'0.334710743802','0.334710743802'
'0.396694214876','0.396694214876'
'0.235537190083','0.235537190083'
'0.0661157024793','0.0661157024793'
'0.119834710744','0.119834710744'
'0.148760330579','0.148760330579'
'0.177685950413','0.177685950413'
'0.173553719008','0.173553719008'
'NA','0.0992672422947'
'0.144628099174','0.144628099174'
'0.181818181818','0.181818181818'
'0.185950413223','0.185950413223'
'0.264462809917','0.264462809917'
'0.198347107438','0.198347107438'
'0.210743801653','0.210743801653'
'0.264462809917','0.264462809917'
'0.301652892562','0.301652892562'
'0.347107438017','0.347107438017'
'0.50826446281','0.50826446281'
'0.574380165289','0.574380165289'
'0.48347107438','0.48347107438'
'0.219008264463','0.219008264463'
'0.128099173554','0.128099173554'
'0.223140495868','0.223140495868'
'0.132231404959','0.132231404959'
'0.384297520661','0.384297520661'
'0.0702479338843','0.0702479338843'
'0.119834710744','0.119834710744'
'0.177685950413','0.177685950413'
'0.214876033058','0.214876033058'
'0.161157024793','0.161157024793'
'0.185950413223','0.185950413223'
'0.173553719008','0.173553719008'
'0.132231404959','0.132231404959'
'0.181818181818','0.181818181818'
'NA','0.184532609803'
'0.210743801653','0.210743801653'
'0.123966942149','0.123966942149'
'0.202479338843','0.202479338843'
'0.256198347107','0.256198347107'
'0.446280991736','0.446280991736'
'0.54958677686','0.54958677686'
'0.429752066116','0.429752066116'
'0.615702479339','0.615702479339'
'0.632231404959','0.632231404959'
'0.537190082645','0.537190082645'
'0.0702479338843','0.0702479338843'
'0.0537190082645','0.0537190082645'
'0.157024793388','0.157024793388'
'0.152892561983','0.152892561983'
'0.194214876033','0.194214876033'
'0.0537190082645','0.0537190082645'
'0.0330578512397','0.0330578512397'
'0.0661157024793','0.0661157024793'
'0.173553719008','0.173553719008'
'0.157024793388','0.157024793388'
'0.198347107438','0.198347107438'
'0.123966942149','0.123966942149'
'0.0661157024793','0.0661157024793'
'0.0206611570248','0.0206611570248'
'0.0619834710744','0.0619834710744'
'0.099173553719','0.099173553719'
'0.0702479338843','0.0702479338843'
'0.198347107438','0.198347107438'
'0.280991735537','0.280991735537'
'0.256198347107','0.256198347107'
'0.280991735537','0.280991735537'
'0.376033057851','0.376033057851'
'0.252066115702','0.252066115702'
'0.582644628099','0.582644628099'
'0.272727272727','0.272727272727'
'0.0495867768595','0.0495867768595'
'0.190082644628','0.190082644628'
'0.293388429752','0.293388429752'
'0.0909090909091','0.0909090909091'
'0.136363636364','0.136363636364'
'0.0826446280992','0.0826446280992'
'0.0619834710744','0.0619834710744'
'0.0495867768595','0.0495867768595'
'0.0785123966942','0.0785123966942'
'0.181818181818','0.181818181818'
'0.165289256198','0.165289256198'
'0.0826446280992','0.0826446280992'
'0.0165289256198','0.0165289256198'
'0.128099173554','0.128099173554'
'0.123966942149','0.123966942149'
'0.128099173554','0.128099173554'
'0.227272727273','0.227272727273'
'0.289256198347','0.289256198347'
'0.392561983471','0.392561983471'
'0.384297520661','0.384297520661'
'0.396694214876','0.396694214876'
'0.495867768595','0.495867768595'
'0.305785123967','0.305785123967'
'0.103305785124','0.103305785124'
'0.152892561983','0.152892561983'
'0.095041322314','0.095041322314'
'0.115702479339','0.115702479339'
'0.140495867769','0.140495867769'
'0.210743801653','0.210743801653'
'0.185950413223','0.185950413223'
'0.239669421488','0.239669421488'
'0.190082644628','0.190082644628'
'0.169421487603','0.169421487603'
'0.0867768595041','0.0867768595041'
'0.181818181818','0.181818181818'
'0.190082644628','0.190082644628'
'0.190082644628','0.190082644628'
'0.0661157024793','0.0661157024793'
'0.177685950413','0.177685950413'
'0.289256198347','0.289256198347'
'0.334710743802','0.334710743802'
'0.280991735537','0.280991735537'
'0.388429752066','0.388429752066'
'0.322314049587','0.322314049587'
'0.342975206612','0.342975206612'
'0.380165289256','0.380165289256'
'0.46694214876','0.46694214876'
'0.301652892562','0.301652892562'
'0.148760330579','0.148760330579'
'0.095041322314','0.095041322314'
'0.115702479339','0.115702479339'
'0.140495867769','0.140495867769'
'0.144628099174','0.144628099174'
'0.107438016529','0.107438016529'
'NA','0.117153562329'
'NA','0.133878369217'
'NA','0.128383937605'
'NA','0.140877983724'
'NA','0.190520215857'
'NA','0.211318279815'
'NA','0.232976235856'
'NA','0.231650382629'
'NA','0.212485473492'
'NA','0.286586279702'
'NA','0.354171784591'
'NA','0.350940434567'
'NA','0.338200093339'
'NA','0.363358896024'
'NA','0.328342326924'
'NA','0.302592195698'
'NA','0.292588044529'
'NA','0.267803629829'
'NA','0.213008594684'
'NA','0.158713434505'
'NA','0.158285044097'
'NA','0.172050257552'
'NA','0.182515602046'
'NA','0.177576251702'
'NA','0.185494995516'
'NA','0.171936204035'
'NA','0.150238956751'
'NA','0.153996299243'
'NA','0.177849718491'
'NA','0.206256827713'
'NA','0.229378798249'
'NA','0.252109852892'
'NA','0.26397969785'
'NA','0.28792363177'
'NA','0.359767448965'
'NA','0.416803045589'
'NA','0.446512293598'
'NA','0.451121949376'
'NA','0.415805279159'
'NA','0.352914552299'
'NA','0.288743840004'
'NA','0.237882287883'
'NA','0.198735861509'
'NA','0.18272166363'
'NA','0.171022094776'
'NA','0.168693970989'
'NA','0.176176107344'
'NA','0.182058509708'
'NA','0.183744065788'
'NA','0.186655350624'
'NA','0.179098217621'
'0.123966942149','0.123966942149'
'NA','0.145503762255'
'0.0867768595041','0.0867768595041'
'0.128099173554','0.128099173554'
'NA','0.178428529367'
'0.157024793388','0.157024793388'
'0.355371900826','0.355371900826'
'NA','0.394454002446'
'NA','0.429649671446'
'NA','0.464426798786'
'NA','0.491778744637'
'NA','0.465551884322'
'NA','0.393480226615'
'NA','0.313652340053'
'NA','0.220063163071'
'NA','0.19159416967'
'NA','0.17841258248'
'NA','0.173808154655'
'NA','0.167955855687'
'NA','0.161364555314'
'NA','0.173872514411'
'NA','0.165727696143'
'NA','0.180745348352'
'NA','0.174844107235'
'NA','0.160234292625'
'NA','0.153186837667'
'NA','0.152343237241'
'NA','0.168292814346'
'NA','0.181268314284'
'NA','0.231833655334'
'NA','0.277766599147'
'NA','0.372447987087'
'NA','0.421164151117'
'NA','0.45197557439'
'NA','0.483960347604'
'NA','0.448417731948'
'NA','0.417916289579'
'NA','0.349367689987'
'NA','0.279504582367'
'NA','0.228980813949'
'NA','0.204407719515'
'NA','0.18079781022'
'NA','0.168552808782'
'NA','0.167649756833'
'NA','0.164378832578'
'NA','0.162175957932'
'NA','0.168358570181'
'NA','0.163790694667'
'NA','0.16139011528'
'NA','0.163320422491'
'NA','0.173534081981'
'NA','0.176950506904'
'NA','0.198496522632'
'NA','0.228345363022'
'NA','0.278159901037'
'NA','0.343792024008'
'NA','0.40069939824'
'NA','0.444453640265'
'NA','0.457533433913'
'NA','0.454765391708'
'NA','0.406326682131'
'NA','0.345179446252'
'NA','0.279388718832'
'NA','0.225372222334'
'NA','0.19699549151'
'NA','0.180340471943'
'NA','0.167304395386'
'NA','0.163317922442'
'NA','0.162557738165'
'NA','0.163965011124'
'NA','0.165549511365'
'NA','0.168360335089'
'NA','0.165238829684'
'NA','0.167165301063'
'NA','0.17299961329'
'NA','0.181132649572'
'NA','0.196237299656'
'NA','0.2190531303'
'NA','0.258632864813'
'NA','0.312466253855'
'NA','0.37159782559'
'NA','0.41643003118'
'NA','0.446419114616'
'NA','0.443620468372'
'NA','0.406900046168'
'NA','0.345096421164'
'NA','0.275642645451'
'NA','0.223730920504'
'0.095041322314','0.095041322314'
'0.165289256198','0.165289256198'
'0.190082644628','0.190082644628'
'0.185950413223','0.185950413223'
'NA','0.172942438925'
'NA','0.164552345673'
'NA','0.164454061389'
'NA','0.164494861563'
'NA','0.180776180311'
'NA','0.174140748311'
'NA','0.174542838274'
'NA','0.185332421444'
'NA','0.189529090724'
'NA','0.211150083158'
'NA','0.241430947829'
'NA','0.293436681351'
'NA','0.353389778547'
'NA','0.398203359094'
'NA','0.428848131558'
'NA','0.440910169041'
'NA','0.411278612952'
'NA','0.338541899244'
'0.136363636364','0.136363636364'
'0.380165289256','0.380165289256'
'0.392561983471','0.392561983471'
'0.309917355372','0.309917355372'
'NA','0.237152398992'
'0.132231404959','0.132231404959'
'0.0702479338843','0.0702479338843'
'0.095041322314','0.095041322314'
'0.0247933884298','0.0247933884298'
'0.119834710744','0.119834710744'
'0.202479338843','0.202479338843'
'0.210743801653','0.210743801653'
'0.119834710744','0.119834710744'
'0.0578512396694','0.0578512396694'
'0.136363636364','0.136363636364'
'NA','0.18627921718'
'NA','0.252792001509'
'0.537190082645','0.537190082645'
'0.698347107438','0.698347107438'
'0.702479338843','0.702479338843'
'0.710743801653','0.710743801653'
'0.681818181818','0.681818181818'
'0.669421487603','0.669421487603'
'0.553719008264','0.553719008264'
'0.235537190083','0.235537190083'
'0.231404958678','0.231404958678'
'0.185950413223','0.185950413223'
'0.173553719008','0.173553719008'
'0.099173553719','0.099173553719'
'0.128099173554','0.128099173554'
'0.107438016529','0.107438016529'
'0.0909090909091','0.0909090909091'
'0.0909090909091','0.0909090909091'
'0.169421487603','0.169421487603'
'0.140495867769','0.140495867769'
'0.152892561983','0.152892561983'
'0.148760330579','0.148760330579'
'0.095041322314','0.095041322314'
'0.123966942149','0.123966942149'
'NA','0.180895656165'
'0.239669421488','0.239669421488'
'0.276859504132','0.276859504132'
'0.438016528926','0.438016528926'
'0.619834710744','0.619834710744'
'0.685950413223','0.685950413223'
'0.471074380165','0.471074380165'
'0.330578512397','0.330578512397'
'0.185950413223','0.185950413223'
'0.235537190083','0.235537190083'
'0.128099173554','0.128099173554'
'0.148760330579','0.148760330579'
'0.140495867769','0.140495867769'
'0.132231404959','0.132231404959'
'0.123966942149','0.123966942149'
'0.119834710744','0.119834710744'
'0.152892561983','0.152892561983'
'0.099173553719','0.099173553719'
'0.0619834710744','0.0619834710744'
'0.0619834710744','0.0619834710744'
'0.128099173554','0.128099173554'
'0.111570247934','0.111570247934'
'0.0743801652893','0.0743801652893'
'0.227272727273','0.227272727273'
'0.132231404959','0.132231404959'
'0.219008264463','0.219008264463'
'0.404958677686','0.404958677686'
'0.309917355372','0.309917355372'
'0.446280991736','0.446280991736'
'0.5','0.5'
'0.54958677686','0.54958677686'
'0.582644628099','0.582644628099'
'0.384297520661','0.384297520661'
'0.0123966942149','0.0123966942149'
'0.0289256198347','0.0289256198347'
'0.119834710744','0.119834710744'
'0.185950413223','0.185950413223'
'0.239669421488','0.239669421488'
'0.384297520661','0.384297520661'
'0.293388429752','0.293388429752'
'0.438016528926','0.438016528926'
'0.347107438017','0.347107438017'
'0.438016528926','0.438016528926'
'0.446280991736','0.446280991736'
'0.392561983471','0.392561983471'
'0.388429752066','0.388429752066'
'0.49173553719','0.49173553719'
'NA','0.416975292997'
'NA','0.358137954579'
'NA','0.359654398059'
'NA','0.349675842203'
'0.351239669421','0.351239669421'
'0.479338842975','0.479338842975'
'0.454545454545','0.454545454545'
'0.355371900826','0.355371900826'
'0.51652892562','0.51652892562'
'0.45867768595','0.45867768595'
'0.136363636364','0.136363636364'
'0.0289256198347','0.0289256198347'
'0.0661157024793','0.0661157024793'
'0.115702479339','0.115702479339'
'0.144628099174','0.144628099174'
'0.194214876033','0.194214876033'
'0.202479338843','0.202479338843'
'0.239669421488','0.239669421488'
'0.235537190083','0.235537190083'
'0.144628099174','0.144628099174'
'0.136363636364','0.136363636364'
'0.136363636364','0.136363636364'
'0.177685950413','0.177685950413'
'0.177685950413','0.177685950413'
'0.235537190083','0.235537190083'
'0.231404958678','0.231404958678'
'0.280991735537','0.280991735537'
'0.223140495868','0.223140495868'
'0.227272727273','0.227272727273'
'0.49173553719','0.49173553719'
'0.785123966942','0.785123966942'
'0.797520661157','0.797520661157'
'0.851239669421','0.851239669421'
'0.595041322314','0.595041322314'
'0.429752066116','0.429752066116'
'0.425619834711','0.425619834711'
'NA','0.253266897748'
'0.471074380165','0.471074380165'
'0.280991735537','0.280991735537'
'0.103305785124','0.103305785124'
'NA','0.120656179542'
'NA','0.12982940492'
'NA','0.138165250362'
'NA','0.11254634494'
'NA','0.05380045105'
'NA','0.0239650117081'
'NA','0.0477846146476'
'NA','0.112835413221'
'NA','0.155135195062'
'NA','0.20916028049'
'0.876033057851','0.876033057851'
'0.876033057851','0.876033057851'
'0.876033057851','0.876033057851'
'NA','0.76288730419'
'0.880165289256','0.880165289256'
'0.838842975207','0.838842975207'
'NA','0.639815841768'
'0.789256198347','0.789256198347'
'0.706611570248','0.706611570248'
'0.578512396694','0.578512396694'
'0.462809917355','0.462809917355'
'0.45041322314','0.45041322314'
'0.161157024793','0.161157024793'
'0.136363636364','0.136363636364'
'0.173553719008','0.173553719008'
'0.181818181818','0.181818181818'
'0.210743801653','0.210743801653'
'0.185950413223','0.185950413223'
'0.0743801652893','0.0743801652893'
'NA','0.169105596009'
'0.0578512396694','0.0578512396694'
'0.0826446280992','0.0826446280992'
'NA','0.191056337407'
'0.309917355372','0.309917355372'
'0.661157024793','0.661157024793'
'NA','0.782239504303'
'0.623966942149','0.623966942149'
'0.690082644628','0.690082644628'
'0.648760330579','0.648760330579'
'0.623966942149','0.623966942149'
'0.5','0.5'
'0.446280991736','0.446280991736'
'0.0909090909091','0.0909090909091'
'0.165289256198','0.165289256198'
'0.202479338843','0.202479338843'
'0.157024793388','0.157024793388'
'0.210743801653','0.210743801653'
'0.177685950413','0.177685950413'
'0.177685950413','0.177685950413'
'0.198347107438','0.198347107438'
'0.181818181818','0.181818181818'
'0.173553719008','0.173553719008'
'0.165289256198','0.165289256198'
'0.181818181818','0.181818181818'
'0.0413223140496','0.0413223140496'
'0.0330578512397','0.0330578512397'
'0.264462809917','0.264462809917'
'0.169421487603','0.169421487603'
'0.247933884298','0.247933884298'
'0.351239669421','0.351239669421'
'0.429752066116','0.429752066116'
'0.512396694215','0.512396694215'
'0.586776859504','0.586776859504'
'0.504132231405','0.504132231405'
'0.603305785124','0.603305785124'
'0.425619834711','0.425619834711'
'0.123966942149','0.123966942149'
'0.0826446280992','0.0826446280992'
'0.198347107438','0.198347107438'
'0.152892561983','0.152892561983'
'0.190082644628','0.190082644628'
'0.165289256198','0.165289256198'
'0.169421487603','0.169421487603'
'0.210743801653','0.210743801653'
'0.243801652893','0.243801652893'
'0.157024793388','0.157024793388'
'0.190082644628','0.190082644628'
'0.119834710744','0.119834710744'
'0.0867768595041','0.0867768595041'
'0.140495867769','0.140495867769'
'0.264462809917','0.264462809917'
'0.272727272727','0.272727272727'
'0.227272727273','0.227272727273'
'0.276859504132','0.276859504132'
'0.347107438017','0.347107438017'
'0.355371900826','0.355371900826'
'0.334710743802','0.334710743802'
'0.553719008264','0.553719008264'
'0.413223140496','0.413223140496'
'0.268595041322','0.268595041322'
'0.202479338843','0.202479338843'
'0.190082644628','0.190082644628'
'0.570247933884','0.570247933884'
'0.177685950413','0.177685950413'
'0.157024793388','0.157024793388'
'0.099173553719','0.099173553719'
'0.132231404959','0.132231404959'
'0.202479338843','0.202479338843'
'0.181818181818','0.181818181818'
'0.194214876033','0.194214876033'
'0.185950413223','0.185950413223'
'0.173553719008','0.173553719008'
'0.132231404959','0.132231404959'
'0.148760330579','0.148760330579'
'0.194214876033','0.194214876033'
'0.123966942149','0.123966942149'
'0.194214876033','0.194214876033'
'0.301652892562','0.301652892562'
'0.371900826446','0.371900826446'
'0.314049586777','0.314049586777'
'0.553719008264','0.553719008264'
'0.735537190083','0.735537190083'
'0.747933884298','0.747933884298'
'0.714876033058','0.714876033058'
'0.520661157025','0.520661157025'
'0.264462809917','0.264462809917'
'0.623966942149','0.623966942149'
'0.400826446281','0.400826446281'
'0.148760330579','0.148760330579'
'0.140495867769','0.140495867769'
'0.157024793388','0.157024793388'
'0.181818181818','0.181818181818'
'0.181818181818','0.181818181818'
'0.115702479339','0.115702479339'
'0.115702479339','0.115702479339'
'0.148760330579','0.148760330579'
'0.111570247934','0.111570247934'
'0.123966942149','0.123966942149'
'0.119834710744','0.119834710744'
'0.252066115702','0.252066115702'
'0.243801652893','0.243801652893'
'0.326446280992','0.326446280992'
'0.252066115702','0.252066115702'
'0.280991735537','0.280991735537'
'NA','0.433207664487'
'NA','0.509869250314'
'NA','0.566573308356'
'NA','0.581780511888'
'NA','0.545883892743'
'NA','0.456761141828'
'NA','0.344304120157'
'NA','0.298165053642'
'0.219008264463','0.219008264463'
'NA','0.144132750127'
'0.148760330579','0.148760330579'
'0.136363636364','0.136363636364'
'0.0495867768595','0.0495867768595'
'NA','0.139708397655'
'0.214876033058','0.214876033058'
'0.173553719008','0.173553719008'
'NA','0.204579776081'
'0.103305785124','0.103305785124'
'0.0619834710744','0.0619834710744'
'0.152892561983','0.152892561983'
'0.140495867769','0.140495867769'
'0.206611570248','0.206611570248'
'0.380165289256','0.380165289256'
'0.318181818182','0.318181818182'
'0.487603305785','0.487603305785'
'0.54132231405','0.54132231405'
'0.793388429752','0.793388429752'
'NA','0.738809355333'
'0.425619834711','0.425619834711'
'0.528925619835','0.528925619835'
'0.51652892562','0.51652892562'
'0.260330578512','0.260330578512'
'0.144628099174','0.144628099174'
'0.157024793388','0.157024793388'
'0.169421487603','0.169421487603'
'0.214876033058','0.214876033058'
'0.181818181818','0.181818181818'
'0.190082644628','0.190082644628'
'0.157024793388','0.157024793388'
'0.119834710744','0.119834710744'
'0.169421487603','0.169421487603'
'0.198347107438','0.198347107438'
'NA','0.178486318589'
'NA','0.186251299729'
'NA','0.212291779508'
'NA','0.241734929914'
'NA','0.302662581662'
'NA','0.435333772803'
'0.702479338843','0.702479338843'
'0.706611570248','0.706611570248'
'NA','0.724893490806'
'NA','0.691821818684'
'0.330578512397','0.330578512397'
'0.433884297521','0.433884297521'
'0.479338842975','0.479338842975'
'0.433884297521','0.433884297521'
'0.239669421488','0.239669421488'
'0.107438016529','0.107438016529'
'0.0619834710744','0.0619834710744'
'0.0454545454545','0.0454545454545'
'0.0247933884298','0.0247933884298'
'0.0413223140496','0.0413223140496'
'0.115702479339','0.115702479339'
'0.177685950413','0.177685950413'
'0.169421487603','0.169421487603'
'0.202479338843','0.202479338843'
'NA','0.266415968139'
'0.165289256198','0.165289256198'
'NA','0.165575785309'
'NA','0.229316951317'
'0.520661157025','0.520661157025'
'NA','0.588726876118'
'NA','0.651978022334'
'NA','0.687445404863'
'NA','0.678437633165'
'0.409090909091','0.409090909091'
'0.239669421488','0.239669421488'
'0.194214876033','0.194214876033'
'0.363636363636','0.363636363636'
'0.314049586777','0.314049586777'
'NA','0.191850699564'
'0.0743801652893','0.0743801652893'
'0.157024793388','0.157024793388'
'0.152892561983','0.152892561983'
'0.177685950413','0.177685950413'
'0.177685950413','0.177685950413'
'0.198347107438','0.198347107438'
'0.177685950413','0.177685950413'
'0.161157024793','0.161157024793'
'0.260330578512','0.260330578512'
'0.285123966942','0.285123966942'
'0.247933884298','0.247933884298'
'0.202479338843','0.202479338843'
'0.227272727273','0.227272727273'
'0.351239669421','0.351239669421'
'0.462809917355','0.462809917355'
'0.49173553719','0.49173553719'
'0.603305785124','0.603305785124'
'0.504132231405','0.504132231405'
'0.289256198347','0.289256198347'
'0.165289256198','0.165289256198'
'0.115702479339','0.115702479339'
'0.305785123967','0.305785123967'
'0.48347107438','0.48347107438'
'0.388429752066','0.388429752066'
'0.165289256198','0.165289256198'
'0.148760330579','0.148760330579'
'0.206611570248','0.206611570248'
'0.144628099174','0.144628099174'
'0.173553719008','0.173553719008'
'0.206611570248','0.206611570248'
'0.231404958678','0.231404958678'
'0.293388429752','0.293388429752'
'0.355371900826','0.355371900826'
'0.367768595041','0.367768595041'
'0.355371900826','0.355371900826'
'0.338842975207','0.338842975207'
'0.334710743802','0.334710743802'
'0.272727272727','0.272727272727'
'0.409090909091','0.409090909091'
'0.46694214876','0.46694214876'
'0.442148760331','0.442148760331'
'0.462809917355','0.462809917355'
'0.425619834711','0.425619834711'
'0.115702479339','0.115702479339'
'0.276859504132','0.276859504132'
'0.512396694215','0.512396694215'
'0.363636363636','0.363636363636'
'NA','0.305881092723'
'0.309917355372','0.309917355372'
'0.144628099174','0.144628099174'
'0.148760330579','0.148760330579'
'0.119834710744','0.119834710744'
'0.0785123966942','0.0785123966942'
'0.132231404959','0.132231404959'
'0.107438016529','0.107438016529'
'0.111570247934','0.111570247934'
'0.0702479338843','0.0702479338843'
'0.103305785124','0.103305785124'
'0.181818181818','0.181818181818'
'0.276859504132','0.276859504132'
'0.305785123967','0.305785123967'
'0.429752066116','0.429752066116'
'0.433884297521','0.433884297521'
'0.338842975207','0.338842975207'
'NA','0.326112474415'
'0.47520661157','0.47520661157'
'NA','0.379113921538'
'NA','0.231721436814'
'0.177685950413','0.177685950413'
'0.371900826446','0.371900826446'
'0.409090909091','0.409090909091'
'0.0909090909091','0.0909090909091'
'0.115702479339','0.115702479339'
'0.148760330579','0.148760330579'
'0.095041322314','0.095041322314'
'0.206611570248','0.206611570248'
'0.128099173554','0.128099173554'
'0.169421487603','0.169421487603'
'0.144628099174','0.144628099174'
'0.115702479339','0.115702479339'
'0.0247933884298','0.0247933884298'
'0.0785123966942','0.0785123966942'
'0.206611570248','0.206611570248'
'0.223140495868','0.223140495868'
'0.231404958678','0.231404958678'
'0.231404958678','0.231404958678'
'0.442148760331','0.442148760331'
'0.537190082645','0.537190082645'
'0.454545454545','0.454545454545'
'0.51652892562','0.51652892562'
'0.714876033058','0.714876033058'
'0.504132231405','0.504132231405'
'0.165289256198','0.165289256198'
'0.305785123967','0.305785123967'
'0.314049586777','0.314049586777'
'0.239669421488','0.239669421488'
'0.165289256198','0.165289256198'
'0.111570247934','0.111570247934'
'0.123966942149','0.123966942149'
'0.194214876033','0.194214876033'
'0.173553719008','0.173553719008'
'0.165289256198','0.165289256198'
'0.132231404959','0.132231404959'
'0.119834710744','0.119834710744'
'0.247933884298','0.247933884298'
'0.198347107438','0.198347107438'
'0.235537190083','0.235537190083'
'0.280991735537','0.280991735537'
'0.421487603306','0.421487603306'
'0.479338842975','0.479338842975'
'0.665289256198','0.665289256198'
'0.690082644628','0.690082644628'
'0.896694214876','0.896694214876'
'0.859504132231','0.859504132231'
'0.698347107438','0.698347107438'
'0.442148760331','0.442148760331'
'0.471074380165','0.471074380165'
'0.429752066116','0.429752066116'
'0.219008264463','0.219008264463'
'0.111570247934','0.111570247934'
'0.223140495868','0.223140495868'
'0.0619834710744','0.0619834710744'
'0.0330578512397','0.0330578512397'
'0.132231404959','0.132231404959'
'0.185950413223','0.185950413223'
'0.198347107438','0.198347107438'
'0.099173553719','0.099173553719'
'0.0867768595041','0.0867768595041'
'0.0867768595041','0.0867768595041'
'0.181818181818','0.181818181818'
'0.314049586777','0.314049586777'
'0.409090909091','0.409090909091'
'0.305785123967','0.305785123967'
'0.429752066116','0.429752066116'
'0.537190082645','0.537190082645'
'0.50826446281','0.50826446281'
'0.50826446281','0.50826446281'
'0.454545454545','0.454545454545'
'0.355371900826','0.355371900826'
'0.388429752066','0.388429752066'
'0.099173553719','0.099173553719'
'0.123966942149','0.123966942149'
'0.173553719008','0.173553719008'
'0.169421487603','0.169421487603'
'0.0578512396694','0.0578512396694'
'0.099173553719','0.099173553719'
'0.210743801653','0.210743801653'
'0.194214876033','0.194214876033'
'0.165289256198','0.165289256198'
'0.119834710744','0.119834710744'
'0.157024793388','0.157024793388'
'0.136363636364','0.136363636364'
'0.165289256198','0.165289256198'
'0.264462809917','0.264462809917'
'0.181818181818','0.181818181818'
'0.243801652893','0.243801652893'
'0.264462809917','0.264462809917'
'0.276859504132','0.276859504132'
'0.376033057851','0.376033057851'
'0.52479338843','0.52479338843'
'0.334710743802','0.334710743802'
'0.45867768595','0.45867768595'
'0.53305785124','0.53305785124'
'0.479338842975','0.479338842975'
'0.239669421488','0.239669421488'
'0.095041322314','0.095041322314'
'0.0867768595041','0.0867768595041'
'0.123966942149','0.123966942149'
'0.198347107438','0.198347107438'
'0.107438016529','0.107438016529'
'0.152892561983','0.152892561983'
'0.157024793388','0.157024793388'
'0.173553719008','0.173553719008'
'0.177685950413','0.177685950413'
'0.152892561983','0.152892561983'
'0.128099173554','0.128099173554'
'0.165289256198','0.165289256198'
'0.136363636364','0.136363636364'
'0.206611570248','0.206611570248'
'0.173553719008','0.173553719008'
'0.347107438017','0.347107438017'
'0.252066115702','0.252066115702'
'0.334710743802','0.334710743802'
'0.326446280992','0.326446280992'
'0.276859504132','0.276859504132'
'0.553719008264','0.553719008264'
'0.673553719008','0.673553719008'
'0.351239669421','0.351239669421'
'0.0909090909091','0.0909090909091'
'0.165289256198','0.165289256198'
'0.095041322314','0.095041322314'
'0.0619834710744','0.0619834710744'
'0.157024793388','0.157024793388'
'0.148760330579','0.148760330579'
'0.177685950413','0.177685950413'
'0.190082644628','0.190082644628'
'0.173553719008','0.173553719008'
'0.132231404959','0.132231404959'
'0.136363636364','0.136363636364'
'0.173553719008','0.173553719008'
'0.190082644628','0.190082644628'
'0.219008264463','0.219008264463'
'0.227272727273','0.227272727273'
'0.235537190083','0.235537190083'
'0.268595041322','0.268595041322'
'0.247933884298','0.247933884298'
'0.194214876033','0.194214876033'
'0.380165289256','0.380165289256'
'0.425619834711','0.425619834711'
'0.471074380165','0.471074380165'
'0.603305785124','0.603305785124'
'0.433884297521','0.433884297521'
'0.442148760331','0.442148760331'
'0.409090909091','0.409090909091'
'0.388429752066','0.388429752066'
'0.128099173554','0.128099173554'
'0.0867768595041','0.0867768595041'
'0.161157024793','0.161157024793'
'0.115702479339','0.115702479339'
'0.157024793388','0.157024793388'
'0.144628099174','0.144628099174'
'0.148760330579','0.148760330579'
'0.185950413223','0.185950413223'
'0.0909090909091','0.0909090909091'
'0.00826446280992','0.00826446280992'
'0.136363636364','0.136363636364'
'0.264462809917','0.264462809917'
'0.289256198347','0.289256198347'
'0.528925619835','0.528925619835'
'0.52479338843','0.52479338843'
'0.504132231405','0.504132231405'
'0.561983471074','0.561983471074'
'0.590909090909','0.590909090909'
'0.690082644628','0.690082644628'
'0.698347107438','0.698347107438'
'0.363636363636','0.363636363636'
'0.438016528926','0.438016528926'
'0.413223140496','0.413223140496'
'0.285123966942','0.285123966942'
'0.119834710744','0.119834710744'
'0.0826446280992','0.0826446280992'
'0.0413223140496','0.0413223140496'
'0.0867768595041','0.0867768595041'
'0.0867768595041','0.0867768595041'
'0.123966942149','0.123966942149'
'0.165289256198','0.165289256198'
'0.144628099174','0.144628099174'
'0.111570247934','0.111570247934'
'0.0867768595041','0.0867768595041'
'0.239669421488','0.239669421488'
'0.276859504132','0.276859504132'
'0.479338842975','0.479338842975'
'0.495867768595','0.495867768595'
'0.557851239669','0.557851239669'
'0.520661157025','0.520661157025'
'0.632231404959','0.632231404959'
'0.723140495868','0.723140495868'
'0.743801652893','0.743801652893'
'0.599173553719','0.599173553719'
'0.367768595041','0.367768595041'
'0.347107438017','0.347107438017'
'0.409090909091','0.409090909091'
'0.161157024793','0.161157024793'
'0.0743801652893','0.0743801652893'
'0.0289256198347','0.0289256198347'
'0.0867768595041','0.0867768595041'
'0.0537190082645','0.0537190082645'
'0.0330578512397','0.0330578512397'
'0.0867768595041','0.0867768595041'
'0.157024793388','0.157024793388'
'0.247933884298','0.247933884298'
'0.161157024793','0.161157024793'
'0.119834710744','0.119834710744'
'0.0702479338843','0.0702479338843'
'0.181818181818','0.181818181818'
'0.243801652893','0.243801652893'
'0.322314049587','0.322314049587'
'0.301652892562','0.301652892562'
'0.446280991736','0.446280991736'
'0.409090909091','0.409090909091'
'0.272727272727','0.272727272727'
'0.392561983471','0.392561983471'
'0.648760330579','0.648760330579'
'0.392561983471','0.392561983471'
'0.326446280992','0.326446280992'
'0.322314049587','0.322314049587'
'0.152892561983','0.152892561983'
'0.190082644628','0.190082644628'
'0.123966942149','0.123966942149'
'0.152892561983','0.152892561983'
'0.111570247934','0.111570247934'
'0.165289256198','0.165289256198'
'0.185950413223','0.185950413223'
'0.235537190083','0.235537190083'
'0.173553719008','0.173553719008'
'0.119834710744','0.119834710744'
'0.165289256198','0.165289256198'
'0.219008264463','0.219008264463'
'0.190082644628','0.190082644628'
'0.219008264463','0.219008264463'
'0.359504132231','0.359504132231'
'0.301652892562','0.301652892562'
'0.504132231405','0.504132231405'
'0.698347107438','0.698347107438'
'0.797520661157','0.797520661157'
'0.677685950413','0.677685950413'
'0.566115702479','0.566115702479'
'0.495867768595','0.495867768595'
'0.599173553719','0.599173553719'
'0.557851239669','0.557851239669'
'0.268595041322','0.268595041322'
'0.128099173554','0.128099173554'
'0.144628099174','0.144628099174'
'0.190082644628','0.190082644628'
'0.223140495868','0.223140495868'
'0.107438016529','0.107438016529'
'0.115702479339','0.115702479339'
'0.095041322314','0.095041322314'
'0.132231404959','0.132231404959'
'0.235537190083','0.235537190083'
'0.264462809917','0.264462809917'
'0.252066115702','0.252066115702'
'0.190082644628','0.190082644628'
'0.194214876033','0.194214876033'
'0.227272727273','0.227272727273'
'0.363636363636','0.363636363636'
'0.433884297521','0.433884297521'
'0.392561983471','0.392561983471'
'0.648760330579','0.648760330579'
'0.851239669421','0.851239669421'
'0.731404958678','0.731404958678'
'0.520661157025','0.520661157025'
'0.235537190083','0.235537190083'
'0.326446280992','0.326446280992'
'0.136363636364','0.136363636364'
'0.177685950413','0.177685950413'
'0.144628099174','0.144628099174'
'0.095041322314','0.095041322314'
'0.0702479338843','0.0702479338843'
'0.0413223140496','0.0413223140496'
'0.181818181818','0.181818181818'
'0.136363636364','0.136363636364'
'0.144628099174','0.144628099174'
'0.148760330579','0.148760330579'
'0.0909090909091','0.0909090909091'
'0.128099173554','0.128099173554'
'0.190082644628','0.190082644628'
'0.185950413223','0.185950413223'
'0.301652892562','0.301652892562'
'0.388429752066','0.388429752066'
'0.359504132231','0.359504132231'
'0.495867768595','0.495867768595'
'0.479338842975','0.479338842975'
'0.45867768595','0.45867768595'
'0.400826446281','0.400826446281'
'0.169421487603','0.169421487603'
'0.132231404959','0.132231404959'
'0.0785123966942','0.0785123966942'
'0.380165289256','0.380165289256'
'0.314049586777','0.314049586777'
'0.322314049587','0.322314049587'
'0.371900826446','0.371900826446'
'0.206611570248','0.206611570248'
'0.0454545454545','0.0454545454545'
'0.148760330579','0.148760330579'
'0.161157024793','0.161157024793'
'0.123966942149','0.123966942149'
'0.268595041322','0.268595041322'
'0.442148760331','0.442148760331'
'0.351239669421','0.351239669421'
'0.247933884298','0.247933884298'
'0.177685950413','0.177685950413'
'0.243801652893','0.243801652893'
'0.314049586777','0.314049586777'
'0.880165289256','0.880165289256'
'1.0','1.0'
'NA','0.774834844255'
'0.793388429752','0.793388429752'
'0.673553719008','0.673553719008'
'0.570247933884','0.570247933884'
'0.355371900826','0.355371900826'
'0.495867768595','0.495867768595'
'0.223140495868','0.223140495868'
'0.123966942149','0.123966942149'
'0.194214876033','0.194214876033'
'0.136363636364','0.136363636364'
'0.132231404959','0.132231404959'
'0.115702479339','0.115702479339'
'0.0785123966942','0.0785123966942'
'0.107438016529','0.107438016529'
'0.165289256198','0.165289256198'
'0.152892561983','0.152892561983'
'0.185950413223','0.185950413223'
'0.132231404959','0.132231404959'
'0.227272727273','0.227272727273'
'0.297520661157','0.297520661157'
'0.202479338843','0.202479338843'
'0.297520661157','0.297520661157'
'0.47520661157','0.47520661157'
'0.590909090909','0.590909090909'
'0.47520661157','0.47520661157'
'0.5','0.5'
'0.45041322314','0.45041322314'
'0.363636363636','0.363636363636'
'0.355371900826','0.355371900826'
'0.413223140496','0.413223140496'
'0.454545454545','0.454545454545'
'0.161157024793','0.161157024793'
'0.0454545454545','0.0454545454545'
'0.107438016529','0.107438016529'
'0.128099173554','0.128099173554'
'0.161157024793','0.161157024793'
'0.169421487603','0.169421487603'
'0.161157024793','0.161157024793'
'0.111570247934','0.111570247934'
'0.148760330579','0.148760330579'
'0.198347107438','0.198347107438'
'0.264462809917','0.264462809917'
'0.252066115702','0.252066115702'
'0.276859504132','0.276859504132'
'0.371900826446','0.371900826446'
'0.326446280992','0.326446280992'
'0.272727272727','0.272727272727'
'0.51652892562','0.51652892562'
'0.48347107438','0.48347107438'
'0.644628099174','0.644628099174'
'0.504132231405','0.504132231405'
'0.400826446281','0.400826446281'
'0.442148760331','0.442148760331'
'0.487603305785','0.487603305785'
'0.136363636364','0.136363636364'
'0.504132231405','0.504132231405'
'0.276859504132','0.276859504132'
'0.185950413223','0.185950413223'
'0.123966942149','0.123966942149'
'0.148760330579','0.148760330579'
'0.161157024793','0.161157024793'
'0.140495867769','0.140495867769'
'0.177685950413','0.177685950413'
'0.0289256198347','0.0289256198347'
'0.115702479339','0.115702479339'
'0.169421487603','0.169421487603'
'0.185950413223','0.185950413223'
'0.210743801653','0.210743801653'
'0.260330578512','0.260330578512'
'0.314049586777','0.314049586777'
'0.376033057851','0.376033057851'
'0.280991735537','0.280991735537'
'0.5','0.5'
'0.599173553719','0.599173553719'
'0.561983471074','0.561983471074'
'0.504132231405','0.504132231405'
'0.471074380165','0.471074380165'
'0.314049586777','0.314049586777'
'0.590909090909','0.590909090909'
'0.231404958678','0.231404958678'
'0.123966942149','0.123966942149'
'0.123966942149','0.123966942149'
'0.111570247934','0.111570247934'
'0.157024793388','0.157024793388'
'0.132231404959','0.132231404959'
'0.165289256198','0.165289256198'
'0.165289256198','0.165289256198'
'0.157024793388','0.157024793388'
'0.0454545454545','0.0454545454545'
'0.272727272727','0.272727272727'
'0.239669421488','0.239669421488'
'0.214876033058','0.214876033058'
'0.252066115702','0.252066115702'
'0.223140495868','0.223140495868'
'0.334710743802','0.334710743802'
'0.409090909091','0.409090909091'
'0.235537190083','0.235537190083'
'0.5','0.5'
'0.48347107438','0.48347107438'
'0.347107438017','0.347107438017'
'0.487603305785','0.487603305785'
'0.305785123967','0.305785123967'
'0.148760330579','0.148760330579'
'0.095041322314','0.095041322314'
'0.095041322314','0.095041322314'
'0.0495867768595','0.0495867768595'
'0.157024793388','0.157024793388'
'0.132231404959','0.132231404959'
'0.0330578512397','0.0330578512397'
'0.0454545454545','0.0454545454545'
'0.0537190082645','0.0537190082645'
'0.140495867769','0.140495867769'
'0.0661157024793','0.0661157024793'
'0.099173553719','0.099173553719'
'0.169421487603','0.169421487603'
'0.289256198347','0.289256198347'
'0.338842975207','0.338842975207'
'0.371900826446','0.371900826446'
'0.404958677686','0.404958677686'
'0.495867768595','0.495867768595'
'0.582644628099','0.582644628099'
'0.710743801653','0.710743801653'
'0.764462809917','0.764462809917'
'0.570247933884','0.570247933884'
'0.619834710744','0.619834710744'
'0.520661157025','0.520661157025'
'0.0826446280992','0.0826446280992'
'0.227272727273','0.227272727273'
'0.140495867769','0.140495867769'
'0.169421487603','0.169421487603'
'0.148760330579','0.148760330579'
'0.103305785124','0.103305785124'
'0.157024793388','0.157024793388'
'0.173553719008','0.173553719008'
'0.148760330579','0.148760330579'
'0.0909090909091','0.0909090909091'
'0.115702479339','0.115702479339'
'0.252066115702','0.252066115702'
'0.314049586777','0.314049586777'
'0.206611570248','0.206611570248'
'0.252066115702','0.252066115702'
'0.309917355372','0.309917355372'
'0.417355371901','0.417355371901'
'0.409090909091','0.409090909091'
'0.495867768595','0.495867768595'
'0.495867768595','0.495867768595'
'0.512396694215','0.512396694215'
'0.545454545455','0.545454545455'
'0.384297520661','0.384297520661'
'0.582644628099','0.582644628099'
'0.235537190083','0.235537190083'
'0.0826446280992','0.0826446280992'
'0.119834710744','0.119834710744'
'0.152892561983','0.152892561983'
'0.190082644628','0.190082644628'
'0.157024793388','0.157024793388'
'0.0826446280992','0.0826446280992'
'0.173553719008','0.173553719008'
'0.165289256198','0.165289256198'
'0.136363636364','0.136363636364'
'0.152892561983','0.152892561983'
'0.223140495868','0.223140495868'
'0.152892561983','0.152892561983'
'0.119834710744','0.119834710744'
'0.293388429752','0.293388429752'
'0.338842975207','0.338842975207'
'0.54132231405','0.54132231405'
'0.727272727273','0.727272727273'
'0.859504132231','0.859504132231'
'0.863636363636','0.863636363636'
'0.723140495868','0.723140495868'
'0.599173553719','0.599173553719'
'0.652892561983','0.652892561983'
'0.46694214876','0.46694214876'
'0.256198347107','0.256198347107'
'0.169421487603','0.169421487603'
'0.115702479339','0.115702479339'
'0.0785123966942','0.0785123966942'
'0.123966942149','0.123966942149'
'0.136363636364','0.136363636364'
'0.136363636364','0.136363636364'
'0.181818181818','0.181818181818'
'0.152892561983','0.152892561983'
'0.243801652893','0.243801652893'
'0.161157024793','0.161157024793'
'0.152892561983','0.152892561983'
'0.148760330579','0.148760330579'
'0.210743801653','0.210743801653'
'0.260330578512','0.260330578512'
'0.433884297521','0.433884297521'
'0.735537190083','0.735537190083'
'0.826446280992','0.826446280992'
'0.772727272727','0.772727272727'
'0.574380165289','0.574380165289'
'0.561983471074','0.561983471074'
'0.264462809917','0.264462809917'
'0.0785123966942','0.0785123966942'
'0.301652892562','0.301652892562'
'0.223140495868','0.223140495868'
'0.099173553719','0.099173553719'
'0.0454545454545','0.0454545454545'
'0.0371900826446','0.0371900826446'
'0.0867768595041','0.0867768595041'
'0.0537190082645','0.0537190082645'
'0.0330578512397','0.0330578512397'
'0.0247933884298','0.0247933884298'
'0.0289256198347','0.0289256198347'
'0.103305785124','0.103305785124'
'0.128099173554','0.128099173554'
'0.173553719008','0.173553719008'
'0.239669421488','0.239669421488'
'0.45041322314','0.45041322314'
'0.566115702479','0.566115702479'
'0.574380165289','0.574380165289'
'0.619834710744','0.619834710744'
'0.673553719008','0.673553719008'
'0.681818181818','0.681818181818'
'0.652892561983','0.652892561983'
'0.603305785124','0.603305785124'
'0.301652892562','0.301652892562'
'0.45867768595','0.45867768595'
'0.392561983471','0.392561983471'
'0.099173553719','0.099173553719'
'0.194214876033','0.194214876033'
'0.115702479339','0.115702479339'
'0.210743801653','0.210743801653'
'0.202479338843','0.202479338843'
'0.272727272727','0.272727272727'
'0.0743801652893','0.0743801652893'
'0.0330578512397','0.0330578512397'
'0.152892561983','0.152892561983'
'0.161157024793','0.161157024793'
'0.206611570248','0.206611570248'
'0.206611570248','0.206611570248'
'0.210743801653','0.210743801653'
'0.128099173554','0.128099173554'
'0.338842975207','0.338842975207'
'0.578512396694','0.578512396694'
'0.603305785124','0.603305785124'
'0.628099173554','0.628099173554'
'0.570247933884','0.570247933884'
'0.553719008264','0.553719008264'
'0.495867768595','0.495867768595'
'0.351239669421','0.351239669421'
'0.264462809917','0.264462809917'
'0.128099173554','0.128099173554'
'0.111570247934','0.111570247934'
'NA','0.113749004883'
'0.0537190082645','0.0537190082645'
'0.0867768595041','0.0867768595041'
'0.115702479339','0.115702479339'
'0.165289256198','0.165289256198'
'0.185950413223','0.185950413223'
'0.148760330579','0.148760330579'
'0.161157024793','0.161157024793'
'0.115702479339','0.115702479339'
'0.103305785124','0.103305785124'
'NA','0.162017943058'
'0.235537190083','0.235537190083'
'0.433884297521','0.433884297521'
'0.657024793388','0.657024793388'
'0.760330578512','0.760330578512'
'0.785123966942','0.785123966942'
'0.714876033058','0.714876033058'
'0.632231404959','0.632231404959'
'0.611570247934','0.611570247934'
'0.739669421488','0.739669421488'
'0.710743801653','0.710743801653'
'0.50826446281','0.50826446281'
'0.210743801653','0.210743801653'
'0.0867768595041','0.0867768595041'
'0.0702479338843','0.0702479338843'
'0.0289256198347','0.0289256198347'
'0.0537190082645','0.0537190082645'
'0.0826446280992','0.0826446280992'
'0.148760330579','0.148760330579'
'0.0661157024793','0.0661157024793'
'0.0495867768595','0.0495867768595'
'0.115702479339','0.115702479339'
'0.107438016529','0.107438016529'
'0.119834710744','0.119834710744'
'0.177685950413','0.177685950413'
'0.169421487603','0.169421487603'
'0.417355371901','0.417355371901'
'0.657024793388','0.657024793388'
'0.673553719008','0.673553719008'
'0.772727272727','0.772727272727'
'0.760330578512','0.760330578512'
'0.545454545455','0.545454545455'
'0.785123966942','0.785123966942'
'0.801652892562','0.801652892562'
'0.640495867769','0.640495867769'
'0.318181818182','0.318181818182'
'0.347107438017','0.347107438017'
'0.355371900826','0.355371900826'
'0.285123966942','0.285123966942'
'0.157024793388','0.157024793388'
'0.185950413223','0.185950413223'
'0.123966942149','0.123966942149'
'0.177685950413','0.177685950413'
'0.0661157024793','0.0661157024793'
'0.136363636364','0.136363636364'
'0.140495867769','0.140495867769'
'0.0867768595041','0.0867768595041'
'0.148760330579','0.148760330579'
'0.111570247934','0.111570247934'
'NA','0.232628122948'
'0.454545454545','0.454545454545'
'0.570247933884','0.570247933884'
'0.727272727273','0.727272727273'
'0.710743801653','0.710743801653'
'0.710743801653','0.710743801653'
'0.661157024793','0.661157024793'
'0.661157024793','0.661157024793'
'0.619834710744','0.619834710744'
'0.433884297521','0.433884297521'
'0.280991735537','0.280991735537'
'0.363636363636','0.363636363636'
'0.231404958678','0.231404958678'
'0.194214876033','0.194214876033'
'0.132231404959','0.132231404959'
'0.206611570248','0.206611570248'
'0.115702479339','0.115702479339'
'0.256198347107','0.256198347107'
'0.235537190083','0.235537190083'
'0.161157024793','0.161157024793'
'0.202479338843','0.202479338843'
'0.157024793388','0.157024793388'
'0.144628099174','0.144628099174'
'0.0702479338843','0.0702479338843'
'0.177685950413','0.177685950413'
'0.231404958678','0.231404958678'
'0.289256198347','0.289256198347'
'0.400826446281','0.400826446281'
'0.479338842975','0.479338842975'
'0.54132231405','0.54132231405'
'0.652892561983','0.652892561983'
'0.752066115702','0.752066115702'
'0.636363636364','0.636363636364'
'0.421487603306','0.421487603306'
'0.380165289256','0.380165289256'
'0.301652892562','0.301652892562'
'0.376033057851','0.376033057851'
'0.243801652893','0.243801652893'
'0.305785123967','0.305785123967'
'0.148760330579','0.148760330579'
'0.0661157024793','0.0661157024793'
'0.136363636364','0.136363636364'
'0.144628099174','0.144628099174'
'0.190082644628','0.190082644628'
'0.173553719008','0.173553719008'
'0.115702479339','0.115702479339'
'0.0495867768595','0.0495867768595'
'0.144628099174','0.144628099174'
'0.190082644628','0.190082644628'
'0.260330578512','0.260330578512'
'0.409090909091','0.409090909091'
'0.615702479339','0.615702479339'
'0.706611570248','0.706611570248'
'0.690082644628','0.690082644628'
'0.847107438017','0.847107438017'
'0.822314049587','0.822314049587'
'0.623966942149','0.623966942149'
'0.413223140496','0.413223140496'
'0.342975206612','0.342975206612'
'0.417355371901','0.417355371901'
'0.264462809917','0.264462809917'
'0.231404958678','0.231404958678'
'0.115702479339','0.115702479339'
'0.144628099174','0.144628099174'
'0.260330578512','0.260330578512'
'0.140495867769','0.140495867769'
'0.0702479338843','0.0702479338843'
'0.173553719008','0.173553719008'
'0.194214876033','0.194214876033'
'0.152892561983','0.152892561983'
'0.157024793388','0.157024793388'
'0.144628099174','0.144628099174'
'0.210743801653','0.210743801653'
'0.210743801653','0.210743801653'
'0.280991735537','0.280991735537'
'0.347107438017','0.347107438017'
'0.719008264463','0.719008264463'
'0.776859504132','0.776859504132'
'0.859504132231','0.859504132231'
'0.892561983471','0.892561983471'
'0.582644628099','0.582644628099'
'0.392561983471','0.392561983471'
'0.446280991736','0.446280991736'
'0.590909090909','0.590909090909'
'0.54132231405','0.54132231405'
'0.235537190083','0.235537190083'
'0.289256198347','0.289256198347'
'0.0661157024793','0.0661157024793'
'0.0413223140496','0.0413223140496'
'0.128099173554','0.128099173554'
'0.206611570248','0.206611570248'
'0.235537190083','0.235537190083'
'0.190082644628','0.190082644628'
'0.123966942149','0.123966942149'
'0.128099173554','0.128099173554'
'0.140495867769','0.140495867769'
'0.177685950413','0.177685950413'
'0.5','0.5'
'0.657024793388','0.657024793388'
'0.756198347107','0.756198347107'
'0.756198347107','0.756198347107'
'0.95867768595','0.95867768595'
'0.876033057851','0.876033057851'
'0.797520661157','0.797520661157'
'0.735537190083','0.735537190083'
'0.557851239669','0.557851239669'
'0.260330578512','0.260330578512'
'0.528925619835','0.528925619835'
'0.487603305785','0.487603305785'
'0.280991735537','0.280991735537'
'0.103305785124','0.103305785124'
'0.169421487603','0.169421487603'
'0.181818181818','0.181818181818'
'0.157024793388','0.157024793388'
'0.223140495868','0.223140495868'
'0.194214876033','0.194214876033'
'0.140495867769','0.140495867769'
'0.095041322314','0.095041322314'
'0.107438016529','0.107438016529'
'0.103305785124','0.103305785124'
'0.239669421488','0.239669421488'
'0.247933884298','0.247933884298'
'0.454545454545','0.454545454545'
'0.739669421488','0.739669421488'
'0.830578512397','0.830578512397'
'0.888429752066','0.888429752066'
'0.851239669421','0.851239669421'
'0.723140495868','0.723140495868'
'0.623966942149','0.623966942149'
'0.409090909091','0.409090909091'
'0.252066115702','0.252066115702'
'0.276859504132','0.276859504132'
'0.264462809917','0.264462809917'
'0.144628099174','0.144628099174'
'0.177685950413','0.177685950413'
'0.103305785124','0.103305785124'
'0.119834710744','0.119834710744'
'0.0785123966942','0.0785123966942'
'0.136363636364','0.136363636364'
'0.0826446280992','0.0826446280992'
'0.185950413223','0.185950413223'
'0.0826446280992','0.0826446280992'
'0.0826446280992','0.0826446280992'
'0.185950413223','0.185950413223'
'0.214876033058','0.214876033058'
'0.285123966942','0.285123966942'
'0.628099173554','0.628099173554'
'0.694214876033','0.694214876033'
'0.904958677686','0.904958677686'
'0.880165289256','0.880165289256'
'0.814049586777','0.814049586777'
'0.628099173554','0.628099173554'
'0.54132231405','0.54132231405'
'0.359504132231','0.359504132231'
'0.47520661157','0.47520661157'
'0.417355371901','0.417355371901'
'0.367768595041','0.367768595041'
'0.173553719008','0.173553719008'
'0.219008264463','0.219008264463'
'0.285123966942','0.285123966942'
'0.198347107438','0.198347107438'
'0.115702479339','0.115702479339'
'0.194214876033','0.194214876033'
'0.243801652893','0.243801652893'
'0.227272727273','0.227272727273'
'0.128099173554','0.128099173554'
'0.144628099174','0.144628099174'
'0.185950413223','0.185950413223'
'0.190082644628','0.190082644628'
'0.210743801653','0.210743801653'
'0.264462809917','0.264462809917'
'0.301652892562','0.301652892562'
'0.54958677686','0.54958677686'
'0.698347107438','0.698347107438'
'0.595041322314','0.595041322314'
'0.714876033058','0.714876033058'
'0.566115702479','0.566115702479'
'0.359504132231','0.359504132231'
'0.181818181818','0.181818181818'
'0.115702479339','0.115702479339'
'0.157024793388','0.157024793388'
'0.111570247934','0.111570247934'
'0.128099173554','0.128099173554'
'0.0743801652893','0.0743801652893'
'0.0619834710744','0.0619834710744'
'0.0371900826446','0.0371900826446'
'0.181818181818','0.181818181818'
'NA','0.221018335828'
'0.214876033058','0.214876033058'
'0.157024793388','0.157024793388'
'0.0661157024793','0.0661157024793'
'0.128099173554','0.128099173554'
'0.136363636364','0.136363636364'
'0.198347107438','0.198347107438'
'0.239669421488','0.239669421488'
'0.247933884298','0.247933884298'
'0.268595041322','0.268595041322'
'0.504132231405','0.504132231405'
'0.301652892562','0.301652892562'
'0.214876033058','0.214876033058'
'0.293388429752','0.293388429752'
'0.111570247934','0.111570247934'
'0.0619834710744','0.0619834710744'
'0.0702479338843','0.0702479338843'
'0.095041322314','0.095041322314'
'0.280991735537','0.280991735537'
'0.231404958678','0.231404958678'
'0.173553719008','0.173553719008'
'0.252066115702','0.252066115702'
'0.227272727273','0.227272727273'
'0.157024793388','0.157024793388'
'0.285123966942','0.285123966942'
'0.46694214876','0.46694214876'
'0.586776859504','0.586776859504'
'0.752066115702','0.752066115702'
'0.694214876033','0.694214876033'
'0.590909090909','0.590909090909'
'0.48347107438','0.48347107438'
'0.433884297521','0.433884297521'
'0.342975206612','0.342975206612'
'0.264462809917','0.264462809917'
'0.260330578512','0.260330578512'
'0.669421487603','0.669421487603'
'0.46694214876','0.46694214876'
'0.243801652893','0.243801652893'
'0.268595041322','0.268595041322'
'0.285123966942','0.285123966942'
'0.347107438017','0.347107438017'
'0.157024793388','0.157024793388'
'0.0909090909091','0.0909090909091'
'0.132231404959','0.132231404959'
'0.0661157024793','0.0661157024793'
'0.0619834710744','0.0619834710744'
'0.0619834710744','0.0619834710744'
'0.165289256198','0.165289256198'
'0.210743801653','0.210743801653'
'0.169421487603','0.169421487603'
'0.123966942149','0.123966942149'
'0.0495867768595','0.0495867768595'
'0.119834710744','0.119834710744'
'0.256198347107','0.256198347107'
'0.318181818182','0.318181818182'
'0.305785123967','0.305785123967'
'0.392561983471','0.392561983471'
'0.409090909091','0.409090909091'
'0.400826446281','0.400826446281'
'0.45041322314','0.45041322314'
'0.247933884298','0.247933884298'
'0.099173553719','0.099173553719'
'0.0454545454545','0.0454545454545'
'0.0826446280992','0.0826446280992'
'0.0454545454545','0.0454545454545'
'0.185950413223','0.185950413223'
'0.099173553719','0.099173553719'
'0.111570247934','0.111570247934'
'0.103305785124','0.103305785124'
'0.0371900826446','0.0371900826446'
'0.0247933884298','0.0247933884298'
'0.165289256198','0.165289256198'
'0.231404958678','0.231404958678'
'0.194214876033','0.194214876033'
'0.214876033058','0.214876033058'
'0.181818181818','0.181818181818'
'0.119834710744','0.119834710744'
'0.206611570248','0.206611570248'
'0.247933884298','0.247933884298'
'0.247933884298','0.247933884298'
'0.227272727273','0.227272727273'
'0.367768595041','0.367768595041'
'0.438016528926','0.438016528926'
'0.384297520661','0.384297520661'
'0.347107438017','0.347107438017'
'0.177685950413','0.177685950413'
'0.0909090909091','0.0909090909091'
'0.177685950413','0.177685950413'
'0.409090909091','0.409090909091'
'0.413223140496','0.413223140496'
'0.190082644628','0.190082644628'
'0.190082644628','0.190082644628'
'0.0413223140496','0.0413223140496'
'0.0413223140496','0.0413223140496'
'0.0826446280992','0.0826446280992'
'0.198347107438','0.198347107438'
'0.219008264463','0.219008264463'
'0.161157024793','0.161157024793'
'0.0826446280992','0.0826446280992'
'0.0826446280992','0.0826446280992'
'0.169421487603','0.169421487603'
'0.231404958678','0.231404958678'
'0.227272727273','0.227272727273'
'0.289256198347','0.289256198347'
'0.314049586777','0.314049586777'
'0.355371900826','0.355371900826'
'0.409090909091','0.409090909091'
'0.384297520661','0.384297520661'
'0.376033057851','0.376033057851'
'0.289256198347','0.289256198347'
'0.128099173554','0.128099173554'
'0.177685950413','0.177685950413'
'0.144628099174','0.144628099174'
'0.095041322314','0.095041322314'
'0.0826446280992','0.0826446280992'
'0.128099173554','0.128099173554'
'0.115702479339','0.115702479339'
'0.107438016529','0.107438016529'
'0.231404958678','0.231404958678'
'0.198347107438','0.198347107438'
'0.161157024793','0.161157024793'
'0.202479338843','0.202479338843'
'0.119834710744','0.119834710744'
'0.181818181818','0.181818181818'
'0.173553719008','0.173553719008'
'0.198347107438','0.198347107438'
'0.202479338843','0.202479338843'
'0.305785123967','0.305785123967'
'0.276859504132','0.276859504132'
'0.376033057851','0.376033057851'
'0.45867768595','0.45867768595'
'0.359504132231','0.359504132231'
'0.400826446281','0.400826446281'
'0.421487603306','0.421487603306'
'0.570247933884','0.570247933884'
'0.632231404959','0.632231404959'
'0.487603305785','0.487603305785'
'0.702479338843','0.702479338843'
'0.619834710744','0.619834710744'
'0.512396694215','0.512396694215'
'0.214876033058','0.214876033058'
'0.123966942149','0.123966942149'
'0.107438016529','0.107438016529'
'0.0413223140496','0.0413223140496'
'0.0413223140496','0.0413223140496'
'0.0578512396694','0.0578512396694'
'0.128099173554','0.128099173554'
'0.235537190083','0.235537190083'
'0.285123966942','0.285123966942'
'0.231404958678','0.231404958678'
'0.314049586777','0.314049586777'
'0.280991735537','0.280991735537'
'0.243801652893','0.243801652893'
'0.231404958678','0.231404958678'
'0.260330578512','0.260330578512'
'0.326446280992','0.326446280992'
'0.252066115702','0.252066115702'
'0.417355371901','0.417355371901'
'0.528925619835','0.528925619835'
'0.557851239669','0.557851239669'
'0.520661157025','0.520661157025'
'0.756198347107','0.756198347107'
'0.330578512397','0.330578512397'
'0.537190082645','0.537190082645'
'0.404958677686','0.404958677686'
'0.607438016529','0.607438016529'
'0.454545454545','0.454545454545'
'0.235537190083','0.235537190083'
'0.0785123966942','0.0785123966942'
'0.103305785124','0.103305785124'
'0.0909090909091','0.0909090909091'
'0.190082644628','0.190082644628'
'0.157024793388','0.157024793388'
'0.181818181818','0.181818181818'
'0.247933884298','0.247933884298'
'0.198347107438','0.198347107438'
'0.297520661157','0.297520661157'
'0.359504132231','0.359504132231'
'0.429752066116','0.429752066116'
'0.495867768595','0.495867768595'
'0.652892561983','0.652892561983'
'0.553719008264','0.553719008264'
'0.326446280992','0.326446280992'
'0.264462809917','0.264462809917'
'0.392561983471','0.392561983471'
'0.425619834711','0.425619834711'
'0.289256198347','0.289256198347'
'0.0867768595041','0.0867768595041'
'0.202479338843','0.202479338843'
'NA','0.202078953157'
'NA','0.211136243407'
'NA','0.126331354116'
'NA','0.00642405258155'
'NA','-0.0373677580765'
'NA','0.0510212089738'
'NA','0.152573594323'
'NA','0.178724807254'
'NA','0.212218479527'
'0.214876033058','0.214876033058'
'0.223140495868','0.223140495868'
'0.272727272727','0.272727272727'
'0.314049586777','0.314049586777'
'0.252066115702','0.252066115702'
'0.690082644628','0.690082644628'
'0.727272727273','0.727272727273'
'0.623966942149','0.623966942149'
'0.442148760331','0.442148760331'
'0.243801652893','0.243801652893'
'0.169421487603','0.169421487603'
'0.181818181818','0.181818181818'
'0.128099173554','0.128099173554'
'0.095041322314','0.095041322314'
'0.103305785124','0.103305785124'
'0.119834710744','0.119834710744'
'0.132231404959','0.132231404959'
'0.099173553719','0.099173553719'
'0.119834710744','0.119834710744'
'0.107438016529','0.107438016529'
'0.136363636364','0.136363636364'
'0.148760330579','0.148760330579'
'0.140495867769','0.140495867769'
'0.095041322314','0.095041322314'
'0.161157024793','0.161157024793'
'0.252066115702','0.252066115702'
'0.309917355372','0.309917355372'
'0.355371900826','0.355371900826'
'0.46694214876','0.46694214876'
'0.462809917355','0.462809917355'
'0.252066115702','0.252066115702'
'0.293388429752','0.293388429752'
'0.293388429752','0.293388429752'
'0.363636363636','0.363636363636'
'0.322314049587','0.322314049587'
'0.256198347107','0.256198347107'
'0.384297520661','0.384297520661'
'0.252066115702','0.252066115702'
'0.0537190082645','0.0537190082645'
'0.103305785124','0.103305785124'
'0.144628099174','0.144628099174'
'0.123966942149','0.123966942149'
'0.165289256198','0.165289256198'
'0.103305785124','0.103305785124'
'0.0371900826446','0.0371900826446'
'0.0867768595041','0.0867768595041'
'0.181818181818','0.181818181818'
'0.214876033058','0.214876033058'
'0.268595041322','0.268595041322'
'0.338842975207','0.338842975207'
'0.338842975207','0.338842975207'
'0.384297520661','0.384297520661'
'0.417355371901','0.417355371901'
'0.396694214876','0.396694214876'
'0.545454545455','0.545454545455'
'0.421487603306','0.421487603306'
'0.388429752066','0.388429752066'
'0.50826446281','0.50826446281'
'0.47520661157','0.47520661157'
'0.297520661157','0.297520661157'
'0.322314049587','0.322314049587'
'0.185950413223','0.185950413223'
'0.173553719008','0.173553719008'
'0.0867768595041','0.0867768595041'
'0.099173553719','0.099173553719'
'0.0867768595041','0.0867768595041'
'0.103305785124','0.103305785124'
'0.161157024793','0.161157024793'
'0.148760330579','0.148760330579'
'0.210743801653','0.210743801653'
'0.111570247934','0.111570247934'
'0.173553719008','0.173553719008'
'0.293388429752','0.293388429752'
'0.363636363636','0.363636363636'
'0.355371900826','0.355371900826'
'0.342975206612','0.342975206612'
'0.256198347107','0.256198347107'
'0.136363636364','0.136363636364'
'0.351239669421','0.351239669421'
'0.45867768595','0.45867768595'
'0.214876033058','0.214876033058'
'0.239669421488','0.239669421488'
'0.206611570248','0.206611570248'
'0.132231404959','0.132231404959'
'0.128099173554','0.128099173554'
'0.173553719008','0.173553719008'
'0.165289256198','0.165289256198'
'0.107438016529','0.107438016529'
'0.140495867769','0.140495867769'
'0.185950413223','0.185950413223'
'0.185950413223','0.185950413223'
'0.181818181818','0.181818181818'
'0.173553719008','0.173553719008'
'0.243801652893','0.243801652893'
'0.347107438017','0.347107438017'
'0.185950413223','0.185950413223'
'0.252066115702','0.252066115702'
'0.235537190083','0.235537190083'
'0.256198347107','0.256198347107'
'0.280991735537','0.280991735537'
'0.326446280992','0.326446280992'
'0.214876033058','0.214876033058'
'0.214876033058','0.214876033058'
'0.177685950413','0.177685950413'
'0.309917355372','0.309917355372'
'0.388429752066','0.388429752066'
'0.140495867769','0.140495867769'
'0.359504132231','0.359504132231'
'0.111570247934','0.111570247934'
'0.0454545454545','0.0454545454545'
'0.227272727273','0.227272727273'
'0.235537190083','0.235537190083'
'0.0909090909091','0.0909090909091'
'0.202479338843','0.202479338843'
'0.095041322314','0.095041322314'
'0.0413223140496','0.0413223140496'
'0.132231404959','0.132231404959'
'0.384297520661','0.384297520661'
'0.51652892562','0.51652892562'
'0.433884297521','0.433884297521'
'0.45041322314','0.45041322314'
'0.446280991736','0.446280991736'
'0.698347107438','0.698347107438'
'0.54958677686','0.54958677686'
'0.380165289256','0.380165289256'
'0.367768595041','0.367768595041'
'0.371900826446','0.371900826446'
'0.289256198347','0.289256198347'
'0.161157024793','0.161157024793'
'0.206611570248','0.206611570248'
'0.123966942149','0.123966942149'
'0.264462809917','0.264462809917'
'0.185950413223','0.185950413223'
'0.095041322314','0.095041322314'
'0.128099173554','0.128099173554'
'0.140495867769','0.140495867769'
'0.0826446280992','0.0826446280992'
'0.128099173554','0.128099173554'
'0.148760330579','0.148760330579'
'0.173553719008','0.173553719008'
'0.136363636364','0.136363636364'
'0.111570247934','0.111570247934'
'0.223140495868','0.223140495868'
'0.136363636364','0.136363636364'
'0.268595041322','0.268595041322'
'0.276859504132','0.276859504132'
'0.309917355372','0.309917355372'
'0.388429752066','0.388429752066'
'0.371900826446','0.371900826446'
'0.487603305785','0.487603305785'
'0.433884297521','0.433884297521'
'0.239669421488','0.239669421488'
'0.264462809917','0.264462809917'
'0.235537190083','0.235537190083'
'0.206611570248','0.206611570248'
'0.173553719008','0.173553719008'
'0.115702479339','0.115702479339'
'0.0289256198347','0.0289256198347'
'0.0826446280992','0.0826446280992'
'0.119834710744','0.119834710744'
'0.128099173554','0.128099173554'
'0.185950413223','0.185950413223'
'0.132231404959','0.132231404959'
'0.157024793388','0.157024793388'
'0.165289256198','0.165289256198'
'0.198347107438','0.198347107438'
'0.223140495868','0.223140495868'
'0.123966942149','0.123966942149'
'0.144628099174','0.144628099174'
'0.342975206612','0.342975206612'
'0.371900826446','0.371900826446'
'0.392561983471','0.392561983471'
'0.280991735537','0.280991735537'
'0.396694214876','0.396694214876'
'0.367768595041','0.367768595041'
'0.210743801653','0.210743801653'
'0.185950413223','0.185950413223'
'0.095041322314','0.095041322314'
'0.115702479339','0.115702479339'
'0.181818181818','0.181818181818'
'0.223140495868','0.223140495868'
'0.202479338843','0.202479338843'
'0.219008264463','0.219008264463'
'0.144628099174','0.144628099174'
'0.161157024793','0.161157024793'
'0.148760330579','0.148760330579'
'0.144628099174','0.144628099174'
'0.169421487603','0.169421487603'
'0.095041322314','0.095041322314'
'0.111570247934','0.111570247934'
'0.173553719008','0.173553719008'
'0.190082644628','0.190082644628'
'0.194214876033','0.194214876033'
'0.256198347107','0.256198347107'
'0.322314049587','0.322314049587'
'0.268595041322','0.268595041322'
'0.338842975207','0.338842975207'
'0.347107438017','0.347107438017'
'0.322314049587','0.322314049587'
'0.367768595041','0.367768595041'
'0.190082644628','0.190082644628'
'0.256198347107','0.256198347107'
'0.429752066116','0.429752066116'
'0.235537190083','0.235537190083'
'0.272727272727','0.272727272727'
'0.223140495868','0.223140495868'
'0.223140495868','0.223140495868'
'0.165289256198','0.165289256198'
'0.0785123966942','0.0785123966942'
'0.181818181818','0.181818181818'
'0.198347107438','0.198347107438'
'0.181818181818','0.181818181818'
'0.115702479339','0.115702479339'
'0.099173553719','0.099173553719'
'0.119834710744','0.119834710744'
'0.247933884298','0.247933884298'
'0.235537190083','0.235537190083'
'0.264462809917','0.264462809917'
'0.280991735537','0.280991735537'
'0.285123966942','0.285123966942'
'0.376033057851','0.376033057851'
'0.177685950413','0.177685950413'
'0.772727272727','0.772727272727'
'0.47520661157','0.47520661157'
'0.247933884298','0.247933884298'
'0.223140495868','0.223140495868'
'0.285123966942','0.285123966942'
'0.309917355372','0.309917355372'
'0.198347107438','0.198347107438'
'0.132231404959','0.132231404959'
'0.0785123966942','0.0785123966942'
'0.099173553719','0.099173553719'
'0.123966942149','0.123966942149'
'0.119834710744','0.119834710744'
'0.152892561983','0.152892561983'
'0.152892561983','0.152892561983'
'0.123966942149','0.123966942149'
'0.103305785124','0.103305785124'
'0.0826446280992','0.0826446280992'
'0.128099173554','0.128099173554'
'0.173553719008','0.173553719008'
'0.210743801653','0.210743801653'
'0.256198347107','0.256198347107'
'0.223140495868','0.223140495868'
'0.371900826446','0.371900826446'
'0.442148760331','0.442148760331'
'0.351239669421','0.351239669421'
'0.392561983471','0.392561983471'
'0.285123966942','0.285123966942'
'0.289256198347','0.289256198347'
'0.0867768595041','0.0867768595041'
'0.272727272727','0.272727272727'
'0.260330578512','0.260330578512'
'0.144628099174','0.144628099174'
'0.0537190082645','0.0537190082645'
'0.123966942149','0.123966942149'
'0.185950413223','0.185950413223'
'0.136363636364','0.136363636364'
'0.169421487603','0.169421487603'
'0.123966942149','0.123966942149'
'0.0661157024793','0.0661157024793'
'0.099173553719','0.099173553719'
'0.107438016529','0.107438016529'
'0.148760330579','0.148760330579'
'0.173553719008','0.173553719008'
'0.280991735537','0.280991735537'
'0.342975206612','0.342975206612'
'0.330578512397','0.330578512397'
'0.380165289256','0.380165289256'
'0.367768595041','0.367768595041'
'0.743801652893','0.743801652893'
'0.45867768595','0.45867768595'
'0.210743801653','0.210743801653'
'0.247933884298','0.247933884298'
'0.46694214876','0.46694214876'
'0.371900826446','0.371900826446'
'0.231404958678','0.231404958678'
'0.185950413223','0.185950413223'
'0.119834710744','0.119834710744'
'0.103305785124','0.103305785124'
'0.0909090909091','0.0909090909091'
'0.0661157024793','0.0661157024793'
'0.136363636364','0.136363636364'
'0.123966942149','0.123966942149'
'0.0619834710744','0.0619834710744'
'0.099173553719','0.099173553719'
'0.148760330579','0.148760330579'
'0.202479338843','0.202479338843'
'0.272727272727','0.272727272727'
'0.326446280992','0.326446280992'
'0.47520661157','0.47520661157'
'0.545454545455','0.545454545455'
'0.553719008264','0.553719008264'
'0.495867768595','0.495867768595'
'0.528925619835','0.528925619835'
'0.545454545455','0.545454545455'
'NA','0.405643494153'
'0.231404958678','0.231404958678'
'0.326446280992','0.326446280992'
'0.322314049587','0.322314049587'
'0.219008264463','0.219008264463'
'0.194214876033','0.194214876033'
'0.136363636364','0.136363636364'
'0.202479338843','0.202479338843'
